<svg width="110" height="110" viewBox="0 0 110 110" fill="none" xmlns="http://www.w3.org/2000/svg">
<circle cx="55" cy="55" r="55" fill="#FAFBFD" fill-opacity="0.8"/>
<path d="M28.6897 56.6402C28.016 56.2139 27.8244 55.3142 28.293 54.6174C31.3214 50.1154 35.1864 46.5352 39.9558 43.9757C44.7321 41.4125 49.8419 40.1192 55.2864 40.1002C60.6921 40.0813 65.7962 41.3859 70.5596 43.9563C75.3229 46.5275 79.2407 50.0653 82.2603 54.6367C82.6999 55.3021 82.5431 56.2123 81.8446 56.6776C81.1808 57.1204 80.2513 56.9409 79.7843 56.2433C77.0371 52.1388 73.5292 48.9245 69.1796 46.5839C64.8526 44.2554 60.2005 43.0868 55.2484 43.0868C50.3334 43.0868 45.7035 44.243 41.3547 46.5836C37.0277 48.912 33.5101 52.1223 30.7879 56.243C30.4287 56.678 29.9749 56.9043 29.4834 56.9047C29.2188 56.9047 28.9422 56.7999 28.6897 56.6402Z" fill="#37C497"/>
<path d="M35.2115 59.2299C34.7384 59.9232 34.9279 60.8361 35.6462 61.2907C35.8542 61.4222 36.1184 61.4983 36.4208 61.4984C36.9693 61.5547 37.3923 61.3399 37.7065 60.8555C39.6233 57.8992 42.1614 55.5893 45.2867 53.9182C48.4187 52.2434 51.7514 51.4135 55.286 51.4043C58.802 51.395 62.0911 52.2361 65.2103 53.9182C68.3292 55.6006 70.9064 57.9086 72.8655 60.8556C73.3071 61.5198 74.227 61.763 74.9073 61.2714C75.588 60.7802 75.757 59.899 75.2856 59.1921C73.0345 55.816 70.125 53.2 66.609 51.3099C63.0933 49.4194 59.3316 48.4556 55.2861 48.4556C51.2409 48.4551 47.4623 49.4036 43.9067 51.3284C40.3736 53.2411 37.4979 55.878 35.2115 59.2299Z" fill="#37C497"/>
<path d="M42.9613 66.1105C42.281 65.6947 42.0745 64.764 42.5456 64.0687C43.9841 61.9471 45.8157 60.2696 48.0466 59.0598C50.2766 57.8499 52.6963 57.2451 55.2295 57.2451C57.7999 57.2451 60.2138 57.8613 62.4693 59.0787C64.7316 60.2999 66.5902 61.9585 67.9888 64.1071C68.424 64.7753 68.2526 65.7017 67.5541 66.167C66.8903 66.6097 65.9616 66.4295 65.4938 65.7327C63.1827 62.2892 59.3879 60.26 55.2674 60.2317C51.127 60.2031 47.3655 62.2355 45.022 65.6758C44.7002 66.1484 44.2659 66.3939 43.7744 66.3944C43.415 66.3376 43.1505 66.2617 42.9613 66.1105Z" fill="#37C497"/>
</svg>
