<svg width="110" height="110" viewBox="0 0 110 110" fill="none" xmlns="http://www.w3.org/2000/svg">
<circle cx="55" cy="55" r="55" fill="#FAFBFD" fill-opacity="0.8"/>
<path d="M54.1137 47.8839C54.3257 48.0451 54.5716 48.1215 54.8176 48.1215C55.1568 48.1215 55.496 47.9687 55.725 47.6804C57.6331 45.22 60.508 43.8116 63.6119 43.8116H70.2691L66.7157 47.3664C66.2663 47.8161 66.2663 48.5373 66.7157 48.9868C66.9362 49.2075 67.233 49.3262 67.5214 49.3262C67.8097 49.3262 68.1065 49.216 68.327 48.9868L73.8394 43.4722C74.2888 43.0226 74.2888 42.3015 73.8394 41.8518L68.327 36.3372C67.8776 35.8876 67.1567 35.8876 66.7073 36.3372C66.2578 36.7869 66.2578 37.508 66.7073 37.9576L70.2606 41.5124H63.6034C59.7872 41.5124 56.2508 43.2432 53.9017 46.2719C53.5285 46.781 53.6133 47.4937 54.1137 47.8839Z" fill="#37C497"/>
<path d="M50.8826 63.9866C50.3738 63.6049 49.6614 63.7066 49.2798 64.2157C47.3717 66.744 44.4629 68.1947 41.2996 68.1947H38.1449C37.5088 68.1947 37 68.7037 37 69.34C37 69.9763 37.5088 70.4854 38.1449 70.4854H41.3081C43.2671 70.4854 45.1413 70.0358 46.8713 69.1535C48.525 68.3135 49.9922 67.0833 51.1116 65.5902C51.4847 65.0896 51.3914 64.3684 50.8826 63.9866Z" fill="#37C497"/>
<path d="M66.7157 63.0194C67.1652 62.5699 67.886 62.5699 68.3355 63.0194L73.8394 68.5256C74.2888 68.9753 74.2888 69.6965 73.8394 70.146L68.327 75.6606C68.1065 75.8898 67.8097 76 67.5214 76C67.233 76 66.9362 75.8812 66.7157 75.6606C66.2663 75.2111 66.2663 74.4899 66.7157 74.0402L70.2691 70.4854H63.6119C56.8444 70.4854 51.3406 64.9792 51.3406 58.2091V53.7974C51.3406 48.2912 46.8628 43.8116 41.359 43.8116H38.1958C37.5597 43.8116 37.0509 43.3025 37.0509 42.6662C37.0509 42.0299 37.5597 41.5209 38.1958 41.5209H41.359C48.1264 41.5209 53.6303 47.027 53.6303 53.7974V58.2091C53.6303 63.7152 58.108 68.1947 63.6119 68.1947H70.2691L66.7157 64.6399C66.2663 64.1903 66.2663 63.4692 66.7157 63.0194Z" fill="#37C497"/>
<path d="M54.1137 47.8839C54.3257 48.0451 54.5716 48.1215 54.8176 48.1215C55.1568 48.1215 55.496 47.9687 55.725 47.6804C57.6331 45.22 60.508 43.8116 63.6119 43.8116H70.2691L66.7157 47.3664C66.2663 47.8161 66.2663 48.5373 66.7157 48.9868C66.9362 49.2075 67.233 49.3262 67.5214 49.3262C67.8097 49.3262 68.1065 49.216 68.327 48.9868L73.8394 43.4722C74.2888 43.0226 74.2888 42.3015 73.8394 41.8518L68.327 36.3372C67.8776 35.8876 67.1567 35.8876 66.7073 36.3372C66.2578 36.7869 66.2578 37.508 66.7073 37.9576L70.2606 41.5124H63.6034C59.7872 41.5124 56.2508 43.2432 53.9017 46.2719C53.5285 46.781 53.6133 47.4937 54.1137 47.8839Z" stroke="#37C497" stroke-width="0.3"/>
<path d="M50.8826 63.9866C50.3738 63.6049 49.6614 63.7066 49.2798 64.2157C47.3717 66.744 44.4629 68.1947 41.2996 68.1947H38.1449C37.5088 68.1947 37 68.7037 37 69.34C37 69.9763 37.5088 70.4854 38.1449 70.4854H41.3081C43.2671 70.4854 45.1413 70.0358 46.8713 69.1535C48.525 68.3135 49.9922 67.0833 51.1116 65.5902C51.4847 65.0896 51.3914 64.3684 50.8826 63.9866Z" stroke="#37C497" stroke-width="0.3"/>
<path d="M66.7157 63.0194C67.1652 62.5699 67.886 62.5699 68.3355 63.0194L73.8394 68.5256C74.2888 68.9753 74.2888 69.6965 73.8394 70.146L68.327 75.6606C68.1065 75.8898 67.8097 76 67.5214 76C67.233 76 66.9362 75.8812 66.7157 75.6606C66.2663 75.2111 66.2663 74.4899 66.7157 74.0402L70.2691 70.4854H63.6119C56.8444 70.4854 51.3406 64.9792 51.3406 58.2091V53.7974C51.3406 48.2912 46.8628 43.8116 41.359 43.8116H38.1958C37.5597 43.8116 37.0509 43.3025 37.0509 42.6662C37.0509 42.0299 37.5597 41.5209 38.1958 41.5209H41.359C48.1264 41.5209 53.6303 47.027 53.6303 53.7974V58.2091C53.6303 63.7152 58.108 68.1947 63.6119 68.1947H70.2691L66.7157 64.6399C66.2663 64.1903 66.2663 63.4692 66.7157 63.0194Z" stroke="#37C497" stroke-width="0.3"/>
</svg>
