<svg width="110" height="110" viewBox="0 0 110 110" fill="none" xmlns="http://www.w3.org/2000/svg">
<circle cx="55" cy="55" r="55" fill="#DC4A2F"/>
<path d="M74.6698 38.8496L71.5366 35.4129C71.2967 35.1499 70.9573 35 70.6015 35H36.2653C35.5666 35 35 35.5664 35 36.2653V73.7347C35 74.4336 35.5664 75 36.2653 75H73.7345C74.4334 75 74.9999 74.4336 74.9999 73.7347V39.7022C74.9999 39.3868 74.882 39.0827 74.6698 38.8496ZM63.7216 37.5306V47.2936H58.6672V37.5306H63.7216ZM56.1366 37.5306V47.2936H46.2783V37.5306H56.1366ZM66.0115 72.4694H43.9885V57.4157H66.0114L66.0115 72.4694ZM72.4692 72.4694H68.542V56.1504C68.542 55.4515 67.9756 54.8851 67.2767 54.8851H42.7232C42.0243 54.8851 41.4579 55.4515 41.4579 56.1504V72.4692H37.5306V37.5306H43.7477V48.5589C43.7477 49.2578 44.3141 49.8242 45.013 49.8242H64.9869C65.6858 49.8242 66.2522 49.2578 66.2522 48.5589V37.5306H70.0428L72.4692 40.1924V72.4694Z" fill="white"/>
</svg>
