<svg width="110" height="110" viewBox="0 0 110 110" fill="none" xmlns="http://www.w3.org/2000/svg">
<circle cx="55" cy="55" r="55" fill="#DC4A2F"/>
<path d="M75.4508 33.5492C74.7186 32.8169 73.5314 32.8169 72.7992 33.5492L59.125 47.2233V38.625C59.125 37.5895 58.2856 36.75 57.25 36.75C56.2145 36.75 55.3751 37.5895 55.3751 38.625V51.75L55.3751 51.7519C55.3752 51.813 55.3784 51.8741 55.3844 51.935C55.3871 51.9629 55.3924 51.9901 55.3963 52.0176C55.4011 52.0506 55.4049 52.0835 55.4114 52.1162C55.4176 52.1478 55.4263 52.1784 55.4341 52.2095C55.4412 52.2378 55.4474 52.2662 55.4559 52.2942C55.4651 52.3246 55.4765 52.354 55.4872 52.3837C55.4972 52.4116 55.5065 52.4398 55.5179 52.4674C55.5294 52.4952 55.5428 52.5217 55.5557 52.5488C55.569 52.5772 55.5817 52.6059 55.5965 52.6337C55.6104 52.6596 55.6262 52.6842 55.6413 52.7094C55.6576 52.7367 55.673 52.7644 55.6908 52.791C55.7094 52.8188 55.7301 52.8449 55.7501 52.8716C55.7668 52.8939 55.7822 52.9167 55.8 52.9383C55.8784 53.0339 55.966 53.1216 56.0617 53.2C56.0833 53.2177 56.1061 53.2332 56.1284 53.2499C56.1551 53.27 56.1812 53.2906 56.209 53.3092C56.2356 53.327 56.2633 53.3425 56.2906 53.3587C56.3158 53.3738 56.3404 53.3896 56.3663 53.4035C56.3941 53.4183 56.4228 53.431 56.4512 53.4443C56.4783 53.4571 56.5049 53.4706 56.5326 53.4821C56.5602 53.4935 56.5884 53.5028 56.6163 53.5128C56.646 53.5235 56.6754 53.5349 56.7058 53.5441C56.7338 53.5525 56.7622 53.5588 56.7905 53.5659C56.8216 53.5737 56.8521 53.5824 56.8838 53.5886C56.9165 53.5951 56.9495 53.599 56.9824 53.6037C57.01 53.6076 57.0371 53.6128 57.065 53.6156C57.1259 53.6216 57.187 53.6249 57.2481 53.6249L57.25 53.6249H70.375C71.4105 53.6249 72.25 52.7855 72.25 51.75C72.25 50.7144 71.4105 49.875 70.375 49.875H61.7767L75.4508 36.2008C76.1831 35.4686 76.1831 34.2815 75.4508 33.5492Z" fill="white"/>
<path d="M53.6156 57.065C53.6129 57.0371 53.6076 57.0099 53.6037 56.9824C53.5989 56.9494 53.5951 56.9165 53.5886 56.8838C53.5824 56.8522 53.5737 56.8216 53.5659 56.7905C53.5588 56.7622 53.5526 56.7338 53.5441 56.7058C53.5349 56.6754 53.5235 56.646 53.5128 56.6163C53.5028 56.5884 53.4935 56.5602 53.4821 56.5326C53.4706 56.5048 53.4572 56.4783 53.4443 56.4512C53.431 56.4228 53.4183 56.3941 53.4035 56.3663C53.3896 56.3404 53.3738 56.3158 53.3587 56.2906C53.3424 56.2633 53.327 56.2356 53.3092 56.209C53.2906 56.1812 53.2699 56.1551 53.2499 56.1284C53.2332 56.1061 53.2178 56.0833 53.2 56.0617C53.1216 55.9661 53.034 55.8784 52.9383 55.8C52.9167 55.7823 52.8939 55.7668 52.8716 55.7501C52.8449 55.73 52.8188 55.7094 52.791 55.6908C52.7644 55.673 52.7367 55.6575 52.7094 55.6413C52.6842 55.6262 52.6596 55.6104 52.6337 55.5965C52.6059 55.5817 52.5772 55.569 52.5488 55.5557C52.5217 55.5429 52.4951 55.5294 52.4674 55.5179C52.4398 55.5065 52.4116 55.4972 52.3837 55.4872C52.354 55.4765 52.3246 55.4651 52.2942 55.4559C52.2662 55.4475 52.2378 55.4412 52.2095 55.4341C52.1784 55.4263 52.1479 55.4176 52.1162 55.4114C52.0835 55.4049 52.0505 55.401 52.0176 55.3963C51.99 55.3924 51.9629 55.3872 51.935 55.3844C51.8735 55.3783 51.8118 55.3751 51.75 55.3751H38.625C37.5895 55.3751 36.75 56.2145 36.75 57.25C36.75 58.2856 37.5895 59.125 38.625 59.125H47.2233L33.5492 72.7992C32.8169 73.5314 32.8169 74.7186 33.5492 75.4508C34.2814 76.1831 35.4686 76.1831 36.2008 75.4508L49.875 61.7767V70.375C49.875 71.4105 50.7144 72.25 51.75 72.25C52.7855 72.25 53.6249 71.4105 53.6249 70.375V57.25C53.625 57.1882 53.6217 57.1265 53.6156 57.065Z" fill="white"/>
<path d="M75.4508 33.5492C74.7186 32.8169 73.5314 32.8169 72.7992 33.5492L59.125 47.2233V38.625C59.125 37.5895 58.2856 36.75 57.25 36.75C56.2145 36.75 55.3751 37.5895 55.3751 38.625V51.75L55.3751 51.7519C55.3752 51.813 55.3784 51.8741 55.3844 51.935C55.3871 51.9629 55.3924 51.9901 55.3963 52.0176C55.4011 52.0506 55.4049 52.0835 55.4114 52.1162C55.4176 52.1478 55.4263 52.1784 55.4341 52.2095C55.4412 52.2378 55.4474 52.2662 55.4559 52.2942C55.4651 52.3246 55.4765 52.354 55.4872 52.3837C55.4972 52.4116 55.5065 52.4398 55.5179 52.4674C55.5294 52.4952 55.5428 52.5217 55.5557 52.5488C55.569 52.5772 55.5817 52.6059 55.5965 52.6337C55.6104 52.6596 55.6262 52.6842 55.6413 52.7094C55.6576 52.7367 55.673 52.7644 55.6908 52.791C55.7094 52.8188 55.7301 52.8449 55.7501 52.8716C55.7668 52.8939 55.7822 52.9167 55.8 52.9383C55.8784 53.0339 55.966 53.1216 56.0617 53.2C56.0833 53.2177 56.1061 53.2332 56.1284 53.2499C56.1551 53.27 56.1812 53.2906 56.209 53.3092C56.2356 53.327 56.2633 53.3425 56.2906 53.3587C56.3158 53.3738 56.3404 53.3896 56.3663 53.4035C56.3941 53.4183 56.4228 53.431 56.4512 53.4443C56.4783 53.4571 56.5049 53.4706 56.5326 53.4821C56.5602 53.4935 56.5884 53.5028 56.6163 53.5128C56.646 53.5235 56.6754 53.5349 56.7058 53.5441C56.7338 53.5525 56.7622 53.5588 56.7905 53.5659C56.8216 53.5737 56.8521 53.5824 56.8838 53.5886C56.9165 53.5951 56.9495 53.599 56.9824 53.6037C57.01 53.6076 57.0371 53.6128 57.065 53.6156C57.1259 53.6216 57.187 53.6249 57.2481 53.6249L57.25 53.6249H70.375C71.4105 53.6249 72.25 52.7855 72.25 51.75C72.25 50.7144 71.4105 49.875 70.375 49.875H61.7767L75.4508 36.2008C76.1831 35.4686 76.1831 34.2815 75.4508 33.5492Z" stroke="#DC4A2F" stroke-width="0.3"/>
<path d="M53.6156 57.065C53.6129 57.0371 53.6076 57.0099 53.6037 56.9824C53.5989 56.9494 53.5951 56.9165 53.5886 56.8838C53.5824 56.8522 53.5737 56.8216 53.5659 56.7905C53.5588 56.7622 53.5526 56.7338 53.5441 56.7058C53.5349 56.6754 53.5235 56.646 53.5128 56.6163C53.5028 56.5884 53.4935 56.5602 53.4821 56.5326C53.4706 56.5048 53.4572 56.4783 53.4443 56.4512C53.431 56.4228 53.4183 56.3941 53.4035 56.3663C53.3896 56.3404 53.3738 56.3158 53.3587 56.2906C53.3424 56.2633 53.327 56.2356 53.3092 56.209C53.2906 56.1812 53.2699 56.1551 53.2499 56.1284C53.2332 56.1061 53.2178 56.0833 53.2 56.0617C53.1216 55.9661 53.034 55.8784 52.9383 55.8C52.9167 55.7823 52.8939 55.7668 52.8716 55.7501C52.8449 55.73 52.8188 55.7094 52.791 55.6908C52.7644 55.673 52.7367 55.6575 52.7094 55.6413C52.6842 55.6262 52.6596 55.6104 52.6337 55.5965C52.6059 55.5817 52.5772 55.569 52.5488 55.5557C52.5217 55.5429 52.4951 55.5294 52.4674 55.5179C52.4398 55.5065 52.4116 55.4972 52.3837 55.4872C52.354 55.4765 52.3246 55.4651 52.2942 55.4559C52.2662 55.4475 52.2378 55.4412 52.2095 55.4341C52.1784 55.4263 52.1479 55.4176 52.1162 55.4114C52.0835 55.4049 52.0505 55.401 52.0176 55.3963C51.99 55.3924 51.9629 55.3872 51.935 55.3844C51.8735 55.3783 51.8118 55.3751 51.75 55.3751H38.625C37.5895 55.3751 36.75 56.2145 36.75 57.25C36.75 58.2856 37.5895 59.125 38.625 59.125H47.2233L33.5492 72.7992C32.8169 73.5314 32.8169 74.7186 33.5492 75.4508C34.2814 76.1831 35.4686 76.1831 36.2008 75.4508L49.875 61.7767V70.375C49.875 71.4105 50.7144 72.25 51.75 72.25C52.7855 72.25 53.6249 71.4105 53.6249 70.375V57.25C53.625 57.1882 53.6217 57.1265 53.6156 57.065Z" stroke="#DC4A2F" stroke-width="0.3"/>
</svg>
