<svg width="30" height="24" viewBox="0 0 30 24" fill="none" xmlns="http://www.w3.org/2000/svg">
<path d="M29.2655 0.734272C28.7759 0.244739 28.1874 0 27.5001 0H2.49998C1.8125 0 1.22413 0.244684 0.734271 0.734272C0.244684 1.22391 0 1.81229 0 2.49982V21.4996C0 22.1873 0.244684 22.7757 0.734271 23.2653C1.22413 23.7549 1.8125 23.9997 2.49998 23.9997H27.5001C28.1874 23.9997 28.7759 23.7549 29.2655 23.2653C29.755 22.7757 30 22.1873 30 21.4996V2.49982C30 1.81229 29.755 1.22391 29.2655 0.734272ZM27.9998 21.4999C27.9998 21.6356 27.9504 21.7524 27.8514 21.8517C27.7525 21.9502 27.6353 21.9996 27.5001 21.9996H2.49998C2.36464 21.9996 2.24742 21.9502 2.14847 21.8513C2.04958 21.7521 2.00005 21.6352 2.00005 21.4996V11.9998H27.9998L27.9998 21.4999ZM27.9998 5.99961H2V2.4996C2 2.36421 2.04936 2.24726 2.14842 2.14809C2.24742 2.04942 2.36464 1.99989 2.49993 1.99989H27.5C27.6352 1.99989 27.7525 2.0492 27.8514 2.14809C27.9503 2.24726 27.9997 2.36421 27.9997 2.4996L27.9998 5.99961Z" fill="#241A94"/>
<path d="M8.00024 17.9992H4.0003V19.9993H8.00024V17.9992Z" fill="#241A94"/>
<path d="M16.0005 17.9992H10.0006V19.9993H16.0005V17.9992Z" fill="#241A94"/>
</svg>
