<svg width="33" height="26" viewBox="0 0 33 26" fill="none" xmlns="http://www.w3.org/2000/svg">
<path d="M31.7047 0.795473C31.1744 0.265138 30.5368 0 29.7922 0H2.70835C1.96357 0 1.32616 0.265079 0.795472 0.795473C0.265078 1.32593 0 1.96334 0 2.70818V23.2915C0 24.0365 0.265078 24.674 0.795472 25.2044C1.32616 25.7348 1.96357 26 2.70835 26H29.7922C30.5368 26 31.1743 25.7348 31.7047 25.2044C32.235 24.6741 32.5005 24.0366 32.5005 23.2915V2.70818C32.5005 1.96334 32.235 1.32593 31.7047 0.795473ZM30.3335 23.2919C30.3335 23.4389 30.28 23.5654 30.1728 23.673C30.0657 23.7797 29.9387 23.8332 29.7922 23.8332H2.70835C2.56173 23.8332 2.43474 23.7797 2.32754 23.6726C2.22041 23.5651 2.16675 23.4384 2.16675 23.2915V13H30.3336L30.3335 23.2919ZM30.3335 6.49967H2.16669V2.70794C2.16669 2.56126 2.22017 2.43456 2.32748 2.32713C2.43474 2.22023 2.56173 2.16658 2.70829 2.16658H29.7921C29.9386 2.16658 30.0656 2.22 30.1727 2.32713C30.2799 2.43456 30.3335 2.56126 30.3335 2.70794L30.3335 6.49967Z" fill="#F9791C"/>
<path d="M8.66504 19.4994H4.33172V21.6663H8.66504V19.4994Z" fill="#F9791C"/>
<path d="M17.3351 19.4994H10.8351V21.6663H17.3351V19.4994Z" fill="#F9791C"/>
</svg>
