<svg width="32" height="32" viewBox="0 0 32 32" fill="none" xmlns="http://www.w3.org/2000/svg">
<path d="M22.3425 27.25H14.1863C13.6688 27.25 13.2488 26.83 13.2488 26.3125V23.9875L11.6838 24.4575C11.5025 24.5225 11.265 24.56 11.015 24.56C9.74878 24.56 8.71753 23.5363 8.71753 22.2775V20.0763H7.38878C6.62253 20.0763 5.99878 19.455 5.99878 18.69C5.99878 18.43 6.07378 18.1737 6.21503 17.9487L8.33503 14.6188C8.58628 14.2263 8.71878 13.7738 8.71753 13.3125C8.71753 8.59 12.5938 4.75 17.3575 4.75C22.1213 4.75 25.9988 8.59 25.9988 13.31C25.9988 15.08 25.455 16.7812 24.425 18.2325C23.6763 19.2863 23.28 20.5225 23.28 21.8063V26.3125C23.28 26.83 22.86 27.25 22.3425 27.25ZM21.405 25.375V21.8063C21.405 20.13 21.9213 18.5188 22.8963 17.145C23.6988 16.015 24.1225 14.6887 24.1225 13.31C24.1225 9.625 21.0875 6.625 17.3563 6.625C13.625 6.625 10.5925 9.62375 10.5925 13.3112C10.5925 14.13 10.3588 14.9312 9.91628 15.6275L8.27628 18.2025H9.65378C10.1713 18.2025 10.5913 18.6225 10.5913 19.14V22.2788C10.5913 22.5038 10.78 22.6863 11.0138 22.6863C11.0263 22.6825 11.13 22.6675 11.1425 22.6637L13.915 21.83C14.2 21.745 14.5063 21.7987 14.7438 21.975C14.9813 22.1525 15.1225 22.43 15.1225 22.7275V25.375H21.405Z" fill="#274DAC"/>
<path d="M30.375 15.3744H1.625C1.1075 15.3744 0.6875 14.9544 0.6875 14.4369C0.6875 13.9194 1.1075 13.4994 1.625 13.4994H30.375C30.8925 13.4994 31.3125 13.9194 31.3125 14.4369C31.3125 14.9544 30.8925 15.3744 30.375 15.3744Z" fill="#274DAC"/>
<path d="M1.93689 9.12501C1.41939 9.12501 0.999395 8.70501 0.999395 8.18751V4.43751C0.999395 2.54126 2.54064 1.00001 4.43689 1.00001H8.18689C8.7044 1.00001 9.1244 1.42001 9.1244 1.93751C9.1244 2.45501 8.7044 2.87501 8.18689 2.87501H4.43689C3.57564 2.87501 2.87439 3.57626 2.87439 4.43751V8.18751C2.87439 8.70501 2.45439 9.12501 1.93689 9.12501Z" fill="#274DAC"/>
<path d="M8.18689 30.9994H4.43689C2.54064 30.9994 0.999387 29.4581 0.999387 27.5619V23.8119C0.999387 23.2944 1.41939 22.8744 1.93689 22.8744C2.45439 22.8744 2.87439 23.2944 2.87439 23.8119V27.5619C2.87439 28.4231 3.57564 29.1244 4.43689 29.1244H8.18689C8.70439 29.1244 9.12439 29.5444 9.12439 30.0619C9.12439 30.5794 8.70439 30.9994 8.18689 30.9994Z" fill="#274DAC"/>
<path d="M30.0613 9.125C29.5438 9.125 29.1238 8.705 29.1238 8.1875V4.4375C29.1238 3.57625 28.4225 2.875 27.5613 2.875H23.8113C23.2938 2.875 22.8738 2.455 22.8738 1.9375C22.8738 1.42 23.2938 1 23.8113 1H27.5613C29.4575 1 30.9988 2.54125 30.9988 4.4375V8.1875C30.9988 8.705 30.5788 9.125 30.0613 9.125Z" fill="#274DAC"/>
<path d="M27.5613 30.9994H23.8113C23.2938 30.9994 22.8738 30.5794 22.8738 30.0619C22.8738 29.5444 23.2938 29.1244 23.8113 29.1244H27.5613C28.4225 29.1244 29.1238 28.4231 29.1238 27.5619V23.8119C29.1238 23.2944 29.5438 22.8744 30.0613 22.8744C30.5788 22.8744 30.9988 23.2944 30.9988 23.8119V27.5619C30.9988 29.4581 29.4575 30.9994 27.5613 30.9994Z" fill="#274DAC"/>
<path d="M22.3425 27.25H14.1863C13.6688 27.25 13.2488 26.83 13.2488 26.3125V23.9875L11.6838 24.4575C11.5025 24.5225 11.265 24.56 11.015 24.56C9.74878 24.56 8.71753 23.5363 8.71753 22.2775V20.0763H7.38878C6.62253 20.0763 5.99878 19.455 5.99878 18.69C5.99878 18.43 6.07378 18.1737 6.21503 17.9487L8.33503 14.6188C8.58628 14.2263 8.71878 13.7738 8.71753 13.3125C8.71753 8.59 12.5938 4.75 17.3575 4.75C22.1213 4.75 25.9988 8.59 25.9988 13.31C25.9988 15.08 25.455 16.7812 24.425 18.2325C23.6763 19.2863 23.28 20.5225 23.28 21.8063V26.3125C23.28 26.83 22.86 27.25 22.3425 27.25ZM21.405 25.375V21.8063C21.405 20.13 21.9213 18.5188 22.8963 17.145C23.6988 16.015 24.1225 14.6887 24.1225 13.31C24.1225 9.625 21.0875 6.625 17.3563 6.625C13.625 6.625 10.5925 9.62375 10.5925 13.3112C10.5925 14.13 10.3588 14.9312 9.91628 15.6275L8.27628 18.2025H9.65378C10.1713 18.2025 10.5913 18.6225 10.5913 19.14V22.2788C10.5913 22.5038 10.78 22.6863 11.0138 22.6863C11.0263 22.6825 11.13 22.6675 11.1425 22.6637L13.915 21.83C14.2 21.745 14.5063 21.7987 14.7438 21.975C14.9813 22.1525 15.1225 22.43 15.1225 22.7275V25.375H21.405Z" stroke="#274DAC"/>
<path d="M30.375 15.3744H1.625C1.1075 15.3744 0.6875 14.9544 0.6875 14.4369C0.6875 13.9194 1.1075 13.4994 1.625 13.4994H30.375C30.8925 13.4994 31.3125 13.9194 31.3125 14.4369C31.3125 14.9544 30.8925 15.3744 30.375 15.3744Z" stroke="#274DAC"/>
<path d="M1.93689 9.12501C1.41939 9.12501 0.999395 8.70501 0.999395 8.18751V4.43751C0.999395 2.54126 2.54064 1.00001 4.43689 1.00001H8.18689C8.7044 1.00001 9.1244 1.42001 9.1244 1.93751C9.1244 2.45501 8.7044 2.87501 8.18689 2.87501H4.43689C3.57564 2.87501 2.87439 3.57626 2.87439 4.43751V8.18751C2.87439 8.70501 2.45439 9.12501 1.93689 9.12501Z" stroke="#274DAC"/>
<path d="M8.18689 30.9994H4.43689C2.54064 30.9994 0.999387 29.4581 0.999387 27.5619V23.8119C0.999387 23.2944 1.41939 22.8744 1.93689 22.8744C2.45439 22.8744 2.87439 23.2944 2.87439 23.8119V27.5619C2.87439 28.4231 3.57564 29.1244 4.43689 29.1244H8.18689C8.70439 29.1244 9.12439 29.5444 9.12439 30.0619C9.12439 30.5794 8.70439 30.9994 8.18689 30.9994Z" stroke="#274DAC"/>
<path d="M30.0613 9.125C29.5438 9.125 29.1238 8.705 29.1238 8.1875V4.4375C29.1238 3.57625 28.4225 2.875 27.5613 2.875H23.8113C23.2938 2.875 22.8738 2.455 22.8738 1.9375C22.8738 1.42 23.2938 1 23.8113 1H27.5613C29.4575 1 30.9988 2.54125 30.9988 4.4375V8.1875C30.9988 8.705 30.5788 9.125 30.0613 9.125Z" stroke="#274DAC"/>
<path d="M27.5613 30.9994H23.8113C23.2938 30.9994 22.8738 30.5794 22.8738 30.0619C22.8738 29.5444 23.2938 29.1244 23.8113 29.1244H27.5613C28.4225 29.1244 29.1238 28.4231 29.1238 27.5619V23.8119C29.1238 23.2944 29.5438 22.8744 30.0613 22.8744C30.5788 22.8744 30.9988 23.2944 30.9988 23.8119V27.5619C30.9988 29.4581 29.4575 30.9994 27.5613 30.9994Z" stroke="#274DAC"/>
</svg>
