<svg width="110" height="110" viewBox="0 0 110 110" fill="none" xmlns="http://www.w3.org/2000/svg">
<circle cx="55" cy="55" r="55" fill="#FAFBFD" fill-opacity="0.8"/>
<path fill-rule="evenodd" clip-rule="evenodd" d="M76 69H60.0001C59.4001 69 59 68.5999 59.0001 68V59C59.0001 58.4 59.4001 58.0001 60.0001 58.0001H76C76.6 58.0001 77 58.4 77 59V68C77 68.6001 76.6 69 76 69ZM75.0001 60H61V66.9999H75.0001V60Z" fill="#0E8ACD"/>
<path fill-rule="evenodd" clip-rule="evenodd" d="M28 71.0001C28 72.8062 29.2137 74.342 30.8656 74.8342L32.9 75H78C80.1999 75 81.9999 73.2 81.9999 71.0001V45.6999L82.0001 43.8091V38.9999C82.0001 36.8 80.2 35 78.0001 35H32C29.8 34.9999 28 36.7999 28 38.9999V71.0001ZM80.0001 42H30V48H80.0001V42ZM78 36.9999H32C30.9 36.9999 30 37.8999 30 38.9999V39.9999H80V38.9999C80 37.8999 79.1 36.9999 78 36.9999ZM30 49.9999V70.9999C30 72.0999 30.9 73 32.0001 73H78.0001C79.1001 73 80.0001 72.0999 80.0001 70.9999V49.9999H30Z" fill="#0E8ACD"/>
<path fill-rule="evenodd" clip-rule="evenodd" d="M76 69H60.0001C59.4001 69 59 68.5999 59.0001 68V59C59.0001 58.4 59.4001 58.0001 60.0001 58.0001H76C76.6 58.0001 77 58.4 77 59V68C77 68.6001 76.6 69 76 69ZM75.0001 60H61V66.9999H75.0001V60Z" fill="#0E8ACD"/>
</svg>
