<svg width="32" height="32" viewBox="0 0 32 32" fill="none" xmlns="http://www.w3.org/2000/svg">
<path fill-rule="evenodd" clip-rule="evenodd" d="M30.596 28.6638C28.3318 30.4919 23.6292 31 20.7076 31C20.1188 31 19.6031 30.9795 19.1937 30.9448C13.9114 30.4981 7.87672 28.5201 3.05031 25.6533L1.24963 24.5837C1.00942 24.4409 0.928689 24.1307 1.0687 23.8884C1.35083 23.402 1.48628 22.83 1.62941 22.2238L1.63352 22.2058L1.6777 22.0204C1.69822 21.9353 1.71913 21.8502 1.74084 21.7653C1.83898 21.3805 1.96064 20.6777 2.08992 19.934C2.31839 18.6183 2.55505 17.2574 2.81622 16.5878L5.87776 8.74126C5.93809 8.58578 5.99325 8.41857 6.04896 8.24836C6.2478 7.64342 6.47422 6.95786 7.00374 6.49242C7.13351 6.37812 7.27352 6.28104 7.41452 6.19694C7.56395 6.10759 7.71456 6.03272 7.85525 5.96734L8.04436 5.83806L13.8317 1.38531C14.5094 0.863972 15.4498 0.872207 16.1184 1.40678L19.1559 3.83704C19.5847 4.18045 19.8388 4.6933 19.8505 5.2431C19.8577 5.57128 19.7698 5.88448 19.6169 6.16474L20.5134 7.5099C20.6565 7.72453 20.6172 8.01277 20.4204 8.18098L16.8426 11.2476C16.7972 11.2868 16.7456 11.3173 16.6906 11.338C16.6332 11.3597 16.5721 11.3709 16.5104 11.3709C16.4894 11.3709 16.4679 11.3694 16.4455 11.3677L12.5273 10.878C12.468 11.3857 12.4394 11.8973 12.4517 12.4104C12.466 13.0278 12.5339 13.6637 12.5999 14.2786C12.6796 15.0213 12.7619 15.789 12.7568 16.5626C12.7532 17.1536 12.6934 17.7291 12.5871 18.2846C12.7108 18.2836 12.8319 18.2881 12.9449 18.2984C13.8066 18.3757 14.6464 18.6143 15.4202 18.9932C16.5411 17.7179 18.1878 16.8317 20.0989 16.5464C21.5346 16.3308 22.9279 16.481 24.1443 16.9445C25.8959 15.2609 28.6232 14.6118 30.9273 15.4141L30.9187 15.4388H30.9275V28.3124L30.596 28.6638ZM19.2801 29.9261C14.1444 29.4919 8.27284 27.5665 3.57315 24.7741L2.17939 23.9468C2.38659 23.4619 2.50663 22.955 2.62349 22.4616L2.62405 22.4594C2.6588 22.3111 2.69405 22.1634 2.73086 22.0174C2.83818 21.5966 2.95716 20.9121 3.09473 20.1199L3.09679 20.1087L3.0981 20.1005L3.09885 20.0967C3.29788 18.9515 3.54476 17.5312 3.76787 16.9594L6.82948 9.11286C6.8948 8.94565 6.95439 8.76596 7.01509 8.58203L7.01958 8.56856C7.18517 8.06443 7.35693 7.54259 7.67788 7.26058C7.85881 7.10111 8.09446 6.98257 8.32188 6.87775C8.33479 6.87201 8.34733 6.86577 8.35944 6.85878C8.37229 6.85155 8.38471 6.84356 8.3965 6.83532L14.4547 2.1959C14.7583 1.96231 15.1794 1.9653 15.479 2.20613L18.517 4.6364C18.7092 4.79039 18.8227 5.01974 18.8278 5.26606C18.8329 5.51263 18.7301 5.74672 18.5446 5.90919L16.6065 7.60449C16.2773 7.89223 15.7805 7.87427 15.4723 7.56705C15.2955 7.39036 15.2086 7.14703 15.2331 6.89821C15.2582 6.64965 15.3916 6.42729 15.5996 6.28878L15.7713 6.17398L15.2035 5.32446L15.0323 5.43901C14.5687 5.74772 14.2712 6.24286 14.216 6.79739C14.1608 7.35192 14.3556 7.89573 14.7496 8.28979C15.4371 8.97784 16.5487 9.01453 17.2791 8.37415L18.909 6.94813L19.4104 7.70057L16.3483 10.3257L12.6903 9.86829C12.7059 9.79517 12.7221 9.7223 12.739 9.64942L12.7635 9.54585C12.8005 9.39287 12.8406 9.24039 12.8846 9.08865L11.9032 8.80415C11.5603 9.98409 11.4018 11.2052 11.43 12.4346C11.4453 13.0944 11.5158 13.7515 11.5843 14.3874L11.5853 14.3957L11.5856 14.3987C11.6649 15.1421 11.7397 15.8441 11.7351 16.5556C11.7213 18.6967 10.8918 20.6954 9.51636 21.9013L10.19 22.67C11.1637 21.8165 11.8849 20.665 12.3121 19.3478C12.4665 19.2961 12.6628 19.2996 12.8554 19.3161C13.5265 19.3757 14.1782 19.5599 14.79 19.8354C14.5406 20.236 14.3372 20.6637 14.1859 21.1147L15.1549 21.4401C15.2868 21.0471 15.4677 20.675 15.6901 20.3271C15.7023 20.3353 15.7156 20.3413 15.7274 20.3495L16.2175 19.6345C17.1805 18.5559 18.5993 17.8042 20.2497 17.5574C22.7209 17.1868 25.0183 18.0341 26.2557 19.7638L27.0873 19.1688C26.5742 18.4518 25.9087 17.8656 25.141 17.4209C26.4563 16.3263 28.2942 15.8539 29.9691 16.207V27.8567C27.6361 29.7599 21.8603 30.1435 19.2801 29.9261Z" fill="#028CCF" stroke="#028CCF" stroke-width="0.5"/>
</svg>
