<svg width="80" height="80" viewBox="0 0 80 80" fill="none" xmlns="http://www.w3.org/2000/svg">
<path d="M75.6409 41.2244C76.1012 40.473 76.101 39.5265 75.6409 38.775C75.5151 38.5706 72.4976 33.7 66.6351 28.819C58.8379 22.3279 49.6521 18.8965 40.0702 18.8965C30.4907 18.8965 21.2823 22.326 13.4406 28.8141C7.54456 33.6926 4.4928 38.5596 4.36584 38.7646C3.89662 39.5214 3.89662 40.4786 4.36584 41.2354C4.4928 41.4404 7.54456 46.3074 13.4406 51.1859C21.2823 57.674 30.4907 61.1035 40.0702 61.1035C49.6521 61.1035 58.8379 57.6721 66.6351 51.181C72.4976 46.3 75.5151 41.4294 75.6409 41.2244ZM63.5114 47.6813C56.4972 53.4772 48.6102 56.4154 40.0702 56.4154C31.5271 56.4154 23.6145 53.4753 16.5527 47.6758C12.9004 44.6765 10.4242 41.6394 9.21143 40C10.4248 38.3594 12.901 35.3229 16.5527 32.3236C23.6145 26.5247 31.5265 23.584 40.0702 23.584C48.6102 23.584 56.4966 26.5228 63.5114 32.3181C67.1472 35.3223 69.6021 38.3636 70.7983 40C69.6008 41.637 67.1466 44.6783 63.5114 47.6813Z" fill="#F37021"/>
<path d="M40 25.9167C32.2345 25.9167 25.9167 32.2345 25.9167 40C25.9167 47.7655 32.2345 54.0833 40 54.0833C47.7655 54.0833 54.0833 47.7655 54.0833 40C54.0833 32.2345 47.7655 25.9167 40 25.9167ZM40 49.3958C34.8193 49.3958 30.6042 45.1807 30.6042 40C30.6042 34.8193 34.8193 30.6042 40 30.6042C45.1807 30.6042 49.3958 34.8193 49.3958 40C49.3958 45.1807 45.1807 49.3958 40 49.3958Z" fill="#F37021"/>
<path d="M4.6875 9.49219C4.6875 6.83863 6.83863 4.6875 9.49219 4.6875H12.1289C13.4233 4.6875 14.4727 3.63817 14.4727 2.34375C14.4727 1.04933 13.4233 0 12.1289 0H7.14844C3.20046 0 0 3.20046 0 7.14844V11.9531C0 13.2475 1.04933 14.2969 2.34375 14.2969C3.63817 14.2969 4.6875 13.2475 4.6875 11.9531V9.49219Z" fill="#F37021"/>
<path d="M67.8711 0C66.5767 0 65.5273 1.04933 65.5273 2.34375C65.5273 3.63817 66.5767 4.6875 67.8711 4.6875H70.5078C73.1614 4.6875 75.3125 6.83863 75.3125 9.49219V11.9531C75.3125 13.2475 76.3618 14.2969 77.6562 14.2969C78.9507 14.2969 80 13.2475 80 11.9531V7.14844C80 3.20046 76.7995 0 72.8516 0H67.8711Z" fill="#F37021"/>
<path d="M4.6875 68.0469C4.6875 66.7525 3.63817 65.7031 2.34375 65.7031C1.04933 65.7031 0 66.7525 0 68.0469V72.8516C0 76.7995 3.20046 80 7.14844 80H12.1289C13.4233 80 14.4727 78.9507 14.4727 77.6562C14.4727 76.3618 13.4233 75.3125 12.1289 75.3125H9.49219C6.83863 75.3125 4.6875 73.1614 4.6875 70.5078V68.0469Z" fill="#F37021"/>
<path d="M75.3125 70.5078C75.3125 73.1614 73.1614 75.3125 70.5078 75.3125H67.8711C66.5767 75.3125 65.5273 76.3618 65.5273 77.6562C65.5273 78.9507 66.5767 80 67.8711 80H72.8516C76.7995 80 80 76.7995 80 72.8516V68.0469C80 66.7525 78.9507 65.7031 77.6562 65.7031C76.3618 65.7031 75.3125 66.7525 75.3125 68.0469V70.5078Z" fill="#F37021"/>
</svg>
