<svg width="30" height="30" viewBox="0 0 30 30" fill="none" xmlns="http://www.w3.org/2000/svg">
<path d="M29.548 9.8893L28.0535 8.39483C27.8014 8.14268 27.4631 8.00123 27.1064 8.00123C26.7497 8.00123 26.4114 8.14268 26.1593 8.39483L25.9563 8.59779C23.9822 7.28167 21.6882 6.58672 19.2835 6.58057C19.2774 6.58057 19.2712 6.58057 19.2589 6.58057C17.7645 6.58057 16.3192 6.84502 14.96 7.36162L17.58 4.7417C17.9121 4.9016 18.2749 4.98155 18.6501 4.98155C19.3143 4.98155 19.9416 4.72325 20.409 4.24969C20.8764 3.78229 21.1408 3.15498 21.1408 2.49077C21.1408 1.82657 20.8825 1.19926 20.409 0.731857C19.9354 0.264453 19.3143 0 18.6501 0C17.9859 0 17.3586 0.258303 16.8911 0.731857C16.4237 1.20541 16.1593 1.82657 16.1593 2.49077C16.1593 2.86593 16.2454 3.23493 16.3991 3.56089L11.682 8.27798L11.5221 8.11808C11.27 7.86593 10.9317 7.72448 10.575 7.72448C10.2183 7.72448 9.88007 7.86593 9.62792 8.11808L8.11501 9.62485C7.86285 9.877 7.7214 10.2153 7.7214 10.572C7.7214 10.9287 7.86285 11.2669 8.11501 11.5191L8.27491 11.679L3.55781 16.3961C3.22571 16.2362 2.86285 16.1562 2.4877 16.1562C1.82349 16.1562 1.19619 16.4145 0.728782 16.8881C-0.242927 17.8598 -0.242927 19.4403 0.728782 20.4059C1.19619 20.8733 1.82349 21.1378 2.4877 21.1378C3.15191 21.1378 3.77921 20.8795 4.24662 20.4059C5.00923 19.6433 5.17528 18.4994 4.73247 17.5769L7.3524 14.957C6.83579 16.3223 6.56519 17.7798 6.57134 19.2804C6.57749 21.6851 7.27245 23.9791 8.58856 25.9533L8.33641 26.2054C7.81365 26.7282 7.81365 27.583 8.33641 28.1058L9.83702 29.6064C10.0892 29.8585 10.4274 30 10.7841 30C11.1408 30 11.4791 29.8585 11.7312 29.6064L13.2319 28.1058C13.7546 27.583 13.7546 26.7282 13.2319 26.2054L11.7312 24.7048C11.4791 24.4526 11.1408 24.3112 10.7841 24.3112C10.4274 24.3112 10.0892 24.4526 9.83702 24.7048L9.79397 24.7478C7.6353 21.2485 7.72755 16.722 10.083 13.3149C10.2368 13.3764 10.3967 13.4071 10.5689 13.4071C10.9256 13.4071 11.2638 13.2657 11.516 13.0135L13.0166 11.5129C13.4041 11.1255 13.5025 10.5597 13.318 10.08C16.7251 7.72448 21.2515 7.62608 24.7509 9.7909L24.6587 9.88315C24.1359 10.4059 24.1359 11.2608 24.6587 11.7835L26.1593 13.2841C26.4114 13.5363 26.7497 13.6777 27.1064 13.6777C27.4631 13.6777 27.8014 13.5363 28.0535 13.2841L29.5541 11.7835C30.0769 11.2669 30.0769 10.4182 29.548 9.8893ZM11.8296 27.1648L10.778 28.2165L9.72632 27.1648L10.778 26.1132L11.8296 27.1648ZM18.0535 1.91267C18.2073 1.75892 18.4164 1.67282 18.6378 1.67282C18.8592 1.67282 19.0683 1.75892 19.222 1.91267C19.3758 2.06642 19.4619 2.27552 19.4619 2.49692C19.4619 2.71833 19.3758 2.92743 19.222 3.08118C19.0683 3.23493 18.8592 3.32103 18.6378 3.32103C18.4164 3.32103 18.2073 3.23493 18.0535 3.08118C17.8998 2.92743 17.8137 2.71833 17.8137 2.49692C17.8137 2.27552 17.8998 2.07257 18.0535 1.91267ZM3.07196 19.2374C2.9182 19.3911 2.7091 19.4772 2.4877 19.4772C2.2663 19.4772 2.0572 19.3911 1.90344 19.2374C1.57749 18.9114 1.57749 18.3887 1.90344 18.0689C2.0572 17.9151 2.2663 17.829 2.4877 17.829C2.7091 17.829 2.9182 17.9151 3.07196 18.0689C3.39791 18.3887 3.39791 18.9176 3.07196 19.2374ZM10.5627 11.6236L9.51107 10.572L10.5627 9.5203L11.6082 10.5658L10.5627 11.6236ZM27.1002 11.8881L26.0486 10.8364L27.1002 9.78475L28.1519 10.8364L27.1002 11.8881Z" fill="#00ACDA"/>
</svg>
