<svg width="30" height="32" viewBox="0 0 30 32" fill="none" xmlns="http://www.w3.org/2000/svg">
<path d="M13.8353 9.91292C13.9943 10.0338 14.1787 10.0911 14.3632 10.0911C14.6176 10.0911 14.872 9.97655 15.0437 9.76031C16.4748 7.91503 18.631 6.85867 20.9589 6.85867H25.9518L23.2868 9.5248C22.9497 9.86209 22.9497 10.4029 23.2868 10.7401C23.4522 10.9057 23.6748 10.9946 23.891 10.9946C24.1073 10.9946 24.3299 10.912 24.4953 10.7401L28.6295 6.60415C28.9666 6.26698 28.9666 5.72613 28.6295 5.38884L24.4953 1.25287C24.1582 0.915709 23.6175 0.915709 23.2804 1.25287C22.9433 1.59016 22.9433 2.13102 23.2804 2.46819L25.9454 5.13432H20.9525C18.0904 5.13432 15.4381 6.4324 13.6763 8.70395C13.3964 9.08573 13.46 9.62025 13.8353 9.91292Z" fill="#00ACDA"/>
<path d="M11.412 21.99C11.0303 21.7036 10.4961 21.78 10.2098 22.1617C8.77875 24.058 6.59714 25.146 4.22472 25.146H1.85865C1.38162 25.146 1 25.5278 1 26.005C1 26.4823 1.38162 26.864 1.85865 26.864H4.23108C5.70033 26.864 7.10597 26.5269 8.40349 25.8651C9.64377 25.2351 10.7441 24.3125 11.5837 23.1926C11.8635 22.8172 11.7936 22.2763 11.412 21.99Z" fill="#00ACDA"/>
<path d="M23.2868 21.2646C23.6239 20.9274 24.1645 20.9274 24.5016 21.2646L28.6295 25.3942C28.9666 25.7315 28.9666 26.2724 28.6295 26.6095L24.4953 30.7455C24.3299 30.9174 24.1073 31 23.891 31C23.6748 31 23.4522 30.9109 23.2868 30.7455C22.9497 30.4083 22.9497 29.8675 23.2868 29.5302L25.9518 26.864H20.9589C15.8833 26.864 11.7554 22.7344 11.7554 17.6568V14.348C11.7554 10.2184 8.39713 6.85867 4.26924 6.85867H1.89682C1.41979 6.85867 1.03816 6.47689 1.03816 5.99966C1.03816 5.52244 1.41979 5.14066 1.89682 5.14066H4.26924C9.34483 5.14066 13.4727 9.27028 13.4727 14.348V17.6568C13.4727 21.7864 16.831 25.146 20.9589 25.146H25.9518L23.2868 22.4799C22.9497 22.1427 22.9497 21.6019 23.2868 21.2646Z" fill="#00ACDA"/>
<path d="M13.8353 9.91292C13.9943 10.0338 14.1787 10.0911 14.3632 10.0911C14.6176 10.0911 14.872 9.97655 15.0437 9.76031C16.4748 7.91503 18.631 6.85867 20.9589 6.85867H25.9518L23.2868 9.5248C22.9497 9.86209 22.9497 10.4029 23.2868 10.7401C23.4522 10.9057 23.6748 10.9946 23.891 10.9946C24.1073 10.9946 24.3299 10.912 24.4953 10.7401L28.6295 6.60415C28.9666 6.26698 28.9666 5.72613 28.6295 5.38884L24.4953 1.25287C24.1582 0.915709 23.6175 0.915709 23.2804 1.25287C22.9433 1.59016 22.9433 2.13102 23.2804 2.46819L25.9454 5.13432H20.9525C18.0904 5.13432 15.4381 6.4324 13.6763 8.70395C13.3964 9.08573 13.46 9.62025 13.8353 9.91292Z" stroke="#00ACDA" stroke-width="0.3"/>
<path d="M11.412 21.99C11.0303 21.7036 10.4961 21.78 10.2098 22.1617C8.77875 24.058 6.59714 25.146 4.22472 25.146H1.85865C1.38162 25.146 1 25.5278 1 26.005C1 26.4823 1.38162 26.864 1.85865 26.864H4.23108C5.70033 26.864 7.10597 26.5269 8.40349 25.8651C9.64377 25.2351 10.7441 24.3125 11.5837 23.1926C11.8635 22.8172 11.7936 22.2763 11.412 21.99Z" stroke="#00ACDA" stroke-width="0.3"/>
<path d="M23.2868 21.2646C23.6239 20.9274 24.1645 20.9274 24.5016 21.2646L28.6295 25.3942C28.9666 25.7315 28.9666 26.2724 28.6295 26.6095L24.4953 30.7455C24.3299 30.9174 24.1073 31 23.891 31C23.6748 31 23.4522 30.9109 23.2868 30.7455C22.9497 30.4083 22.9497 29.8675 23.2868 29.5302L25.9518 26.864H20.9589C15.8833 26.864 11.7554 22.7344 11.7554 17.6568V14.348C11.7554 10.2184 8.39713 6.85867 4.26924 6.85867H1.89682C1.41979 6.85867 1.03816 6.47689 1.03816 5.99966C1.03816 5.52244 1.41979 5.14066 1.89682 5.14066H4.26924C9.34483 5.14066 13.4727 9.27028 13.4727 14.348V17.6568C13.4727 21.7864 16.831 25.146 20.9589 25.146H25.9518L23.2868 22.4799C22.9497 22.1427 22.9497 21.6019 23.2868 21.2646Z" stroke="#00ACDA" stroke-width="0.3"/>
</svg>
