<svg width="30" height="30" viewBox="0 0 30 30" fill="none" xmlns="http://www.w3.org/2000/svg">
<path d="M29.9929 6.21048L23.7861 0.00366211L14.3687 9.394L7.39357 2.41585L0 0L2.42867 7.38167L9.40361 14.3596L0.00663756 23.7893L6.21346 29.9961L15.6091 20.5678L25.0346 29.9975L30 25.0319L20.5742 15.6022L29.9929 6.21048ZM23.7843 2.48474L27.5084 6.20888L26.2653 7.44827L23.7852 4.96834L22.5439 6.20956L25.022 8.6879L22.4437 11.2592L19.9555 8.77121L18.7143 10.0124L21.2004 12.4988L19.3332 14.3607L15.61 10.6357L23.7843 2.48474ZM18.7109 21.1878L4.43848 6.90903L6.92116 4.42635L21.1935 18.7051L18.7109 21.1878ZM22.4348 19.9466L23.6758 21.1883L21.1931 23.671L19.9521 22.4293L22.4348 19.9466ZM5.28969 3.57513L3.58521 5.27962L2.75162 2.7459L5.28969 3.57513ZM12.4075 21.2936L9.93645 18.8228L8.69522 20.064L11.1683 22.5371L8.68973 25.0241L6.21231 22.5469L4.97108 23.7881L7.45056 26.2676L6.2114 27.5111L2.48726 23.787L10.6446 15.6013L14.3678 19.3261L12.4075 21.2936ZM25.0349 27.5143L22.4343 24.9126L24.917 22.43L27.5175 25.0317L25.0349 27.5143Z" fill="#00ACDA"/>
</svg>
