<svg width="110" height="110" viewBox="0 0 110 110" fill="none" xmlns="http://www.w3.org/2000/svg">
<circle cx="55" cy="55" r="55" fill="#65BDC6"/>
<path d="M77.4407 49.7513L73.9312 49.1559C73.5656 47.9757 73.0956 46.8372 72.5211 45.7509L74.5892 42.8577C75.4666 41.6252 75.3308 39.9435 74.255 38.8782L71.1424 35.7656C70.5575 35.1807 69.7846 34.8569 68.9594 34.8569C68.3119 34.8569 67.6956 35.0553 67.1734 35.4313L64.2697 37.4994C63.1416 36.9041 61.9614 36.4132 60.7393 36.0476L60.1544 32.5799C59.9037 31.0863 58.619 30 57.1045 30H52.7072C51.1927 30 49.908 31.0863 49.6573 32.5799L49.0515 36.1312C47.8817 36.4967 46.7432 36.9772 45.6569 37.5621L42.7845 35.494C42.2623 35.118 41.6356 34.9195 40.988 34.9195C40.1629 34.9195 39.3795 35.2433 38.805 35.8282L35.682 38.9408C34.6166 40.0062 34.4704 41.6878 35.3478 42.9203L37.4368 45.8553C36.8623 46.9521 36.4027 48.0905 36.0476 49.2708L32.5799 49.8557C31.0863 50.1064 30 51.3911 30 52.9056V57.3029C30 58.8174 31.0863 60.1022 32.5799 60.3528L36.1312 60.9587C36.4967 62.1285 36.9772 63.267 37.5621 64.3532L35.5045 67.2151C34.6271 68.4476 34.7629 70.1293 35.8387 71.1946L38.9513 74.3072C39.5362 74.8921 40.3091 75.2159 41.1343 75.2159C41.7818 75.2159 42.3981 75.0175 42.9203 74.6415L45.8553 72.5525C46.9103 73.1061 48.0174 73.5552 49.1559 73.9103L49.7408 77.4198C49.9915 78.9134 51.2762 79.9997 52.7908 79.9997H57.1985C58.713 79.9997 59.9977 78.9134 60.2484 77.4198L60.8438 73.9103C62.024 73.5447 63.1625 73.0747 64.2488 72.5003L67.142 74.5683C67.6643 74.9444 68.291 75.1428 68.9385 75.1428C69.7637 75.1428 70.5366 74.819 71.1215 74.2341L74.2341 71.1215C75.2995 70.0561 75.4457 68.3745 74.5683 67.142L72.5003 64.2383C73.0747 63.1416 73.5552 62.0031 73.9103 60.8333L77.4198 60.2484C78.9134 59.9977 79.9997 58.713 79.9997 57.1985V52.8012C80.0206 51.2867 78.9343 50.002 77.4407 49.7513ZM77.2005 57.1985C77.2005 57.3343 77.1065 57.4492 76.9707 57.4701L72.5838 58.2012C72.0302 58.2952 71.5916 58.7026 71.4558 59.2352C71.0589 60.7706 70.4531 62.2434 69.6384 63.6117C69.3563 64.0921 69.3772 64.6875 69.701 65.1471L72.2809 68.7819C72.354 68.8863 72.3436 69.043 72.2496 69.137L69.137 72.2496C69.0639 72.3227 68.9908 72.3331 68.9385 72.3331C68.8759 72.3331 68.8237 72.3122 68.7819 72.2809L65.1575 69.701C64.7084 69.3772 64.1026 69.3563 63.6221 69.6384C62.2538 70.4531 60.7811 71.0589 59.2457 71.4558C58.7026 71.5915 58.2952 72.0407 58.2116 72.5838L57.4701 76.9707C57.4492 77.1064 57.3343 77.2005 57.1985 77.2005H52.8012C52.6654 77.2005 52.5505 77.1064 52.5296 76.9707L51.7985 72.5838C51.7045 72.0302 51.2971 71.5915 50.7644 71.4558C49.2708 71.0693 47.8294 70.4739 46.482 69.701C46.2627 69.5757 46.012 69.513 45.7718 69.513C45.4898 69.513 45.1973 69.5966 44.9571 69.7741L41.3014 72.3749C41.2491 72.4062 41.1969 72.4271 41.1447 72.4271C41.1029 72.4271 41.0194 72.4167 40.9462 72.3436L37.8337 69.231C37.7397 69.137 37.7292 68.9908 37.8023 68.8759L40.3718 65.2724C40.6956 64.8128 40.7165 64.207 40.4344 63.7265C39.6197 62.3687 38.9931 60.896 38.5961 59.3606C38.4499 58.8279 38.0112 58.4205 37.4681 58.3265L33.0499 57.5745C32.9141 57.5536 32.8201 57.4387 32.8201 57.3029V52.9056C32.8201 52.7699 32.9141 52.655 33.0499 52.6341L37.4054 51.9029C37.959 51.8089 38.4081 51.4016 38.5439 50.8584C38.9304 49.323 39.5257 47.8399 40.33 46.4716C40.612 45.9911 40.5807 45.3958 40.2569 44.9466L37.6561 41.2909C37.583 41.1865 37.5934 41.0298 37.6874 40.9358L40.8 37.8232C40.8731 37.7501 40.9462 37.7397 40.9985 37.7397C41.0611 37.7397 41.1134 37.7606 41.1551 37.7919L44.7586 40.3613C45.2182 40.6851 45.824 40.706 46.3045 40.424C47.6623 39.6093 49.135 38.9826 50.6704 38.5857C51.2031 38.4395 51.6105 38.0008 51.7045 37.4577L52.4565 33.0395C52.4774 32.9037 52.5923 32.8097 52.7281 32.8097H57.1254C57.2612 32.8097 57.3761 32.9037 57.3969 33.0395L58.1281 37.395C58.2221 37.9486 58.6294 38.3977 59.1726 38.5335C60.7498 38.9304 62.2538 39.5466 63.6534 40.3718C64.1339 40.6538 64.7293 40.6329 65.1888 40.3091L68.7923 37.7188C68.8445 37.6874 68.8968 37.6665 68.949 37.6665C68.9908 37.6665 69.0743 37.677 69.1474 37.7501L72.26 40.8627C72.354 40.9567 72.3645 41.1029 72.2914 41.2178L69.7115 44.8422C69.3877 45.2913 69.3668 45.8971 69.6488 46.3776C70.4635 47.7459 71.0693 49.2186 71.4662 50.754C71.602 51.2971 72.0511 51.7045 72.5943 51.788L76.9811 52.5296C77.1169 52.5505 77.2109 52.6654 77.2109 52.8012V57.1985H77.2005Z" fill="white"/>
<path d="M55.0054 44.2051C49.0518 44.2051 44.2159 49.041 44.2159 54.9946C44.2159 60.9482 49.0518 65.7842 55.0054 65.7842C60.959 65.7842 65.795 60.9482 65.795 54.9946C65.795 49.041 60.959 44.2051 55.0054 44.2051ZM55.0054 62.9641C50.6081 62.9641 47.036 59.3919 47.036 54.9946C47.036 50.5973 50.6081 47.0252 55.0054 47.0252C59.4027 47.0252 62.9749 50.5973 62.9749 54.9946C62.9749 59.3919 59.4027 62.9641 55.0054 62.9641Z" fill="white"/>
</svg>
