<svg width="91" height="80" viewBox="0 0 91 80" fill="none" xmlns="http://www.w3.org/2000/svg">
<path fill-rule="evenodd" clip-rule="evenodd" d="M20.84 12.0703C20.84 14.6816 22.966 16.8076 25.5773 16.8076C28.1895 16.8076 30.3147 14.6816 30.3147 12.0703C30.3147 9.45805 28.1895 7.33287 25.5773 7.33287C22.966 7.33287 20.84 9.45805 20.84 12.0703ZM23.8339 12.0703C23.8339 11.1087 24.6167 10.3268 25.5773 10.3268C26.5389 10.3268 27.3208 11.1087 27.3208 12.0703C27.3208 13.0318 26.5389 13.8137 25.5773 13.8137C24.6167 13.8137 23.8339 13.0318 23.8339 12.0703Z" fill="#264DAB"/>
<path fill-rule="evenodd" clip-rule="evenodd" d="M11.0219 16.7617C8.40967 16.7617 6.28449 14.6365 6.28449 12.0243C6.28449 9.41211 8.40967 7.28693 11.0219 7.28693C13.6341 7.28693 15.7592 9.41211 15.7592 12.0243C15.7592 14.6365 13.6341 16.7617 11.0219 16.7617ZM11.0219 10.2809C10.0612 10.2809 9.27845 11.0636 9.27845 12.0243C9.27845 12.9858 10.0612 13.7677 11.0219 13.7677C11.9834 13.7677 12.7653 12.9858 12.7653 12.0243C12.7653 11.0636 11.9834 10.2809 11.0219 10.2809Z" fill="#264DAB"/>
<path fill-rule="evenodd" clip-rule="evenodd" d="M35.3963 12.1154C35.3963 14.7276 37.5215 16.8527 40.1328 16.8527C42.745 16.8527 44.8702 14.7276 44.8702 12.1154C44.8702 9.504 42.745 7.37882 40.1328 7.37882C37.5215 7.37882 35.3963 9.504 35.3963 12.1154ZM38.3902 12.1154C38.3902 11.1539 39.1721 10.3719 40.1328 10.3719C41.0943 10.3719 41.8762 11.1539 41.8762 12.1154C41.8762 13.0769 41.0943 13.8588 40.1328 13.8588C39.1721 13.8588 38.3902 13.0769 38.3902 12.1154Z" fill="#264DAB"/>
<path d="M45.3372 60.7439C44.5102 60.7439 43.8402 60.0739 43.8402 59.2469V50.0512H34.6444C33.8174 50.0512 33.1475 49.3812 33.1475 48.5542C33.1475 47.7272 33.8174 47.0572 34.6444 47.0572H43.8402V37.8615C43.8402 37.0344 44.5102 36.3645 45.3372 36.3645C46.1642 36.3645 46.8342 37.0344 46.8342 37.8615V47.0572H56.0299C56.8569 47.0572 57.5269 47.7272 57.5269 48.5542C57.5269 49.3812 56.8569 50.0512 56.0299 50.0512H46.8342V59.2469C46.8342 60.0739 46.1642 60.7439 45.3372 60.7439Z" fill="#264DAB"/>
<path fill-rule="evenodd" clip-rule="evenodd" d="M0 69.9488C0 75.4915 4.50933 80 10.0512 80H80.6232C86.165 80 90.6744 75.4915 90.6744 69.9488V10.0512C90.6744 4.50933 86.165 0 80.6232 0H10.0512C4.50933 0 0 4.50933 0 10.0512V69.9488ZM87.6804 10.0512V20.977H2.99396V10.0512C2.99396 6.16002 6.16002 2.99396 10.0512 2.99396H80.6232C84.5143 2.99396 87.6804 6.16002 87.6804 10.0512ZM87.6804 23.9709H2.99396V69.9488C2.99396 73.84 6.16002 77.006 10.0512 77.006H80.6232C84.5143 77.006 87.6804 73.84 87.6804 69.9488V23.9709Z" fill="#264DAB"/>
</svg>
