<svg width="64" height="90" viewBox="0 0 64 90" fill="none" xmlns="http://www.w3.org/2000/svg">
<mask id="path-1-inside-1" fill="white">
<path d="M27.6953 23.1558C27.7621 23.2569 27.8202 23.366 27.8666 23.4787C27.9131 23.593 27.9479 23.7108 27.9726 23.8287C27.9966 23.951 28.0096 24.0747 28.0096 24.1963C28.0096 24.3178 27.9966 24.4416 27.9726 24.5616C27.9479 24.6817 27.9131 24.7996 27.8666 24.9123C27.8202 25.0266 27.7621 25.1349 27.6953 25.2367C27.6271 25.3392 27.5509 25.4351 27.463 25.5215C27.3774 25.6079 27.283 25.6863 27.1807 25.7536C27.0805 25.821 26.9723 25.8795 26.8613 25.9264C26.7495 25.9733 26.6326 26.0084 26.5136 26.0333C26.3931 26.0575 26.2719 26.0706 26.1514 26.0706C26.0287 26.0706 25.906 26.0575 25.787 26.0333C25.6679 26.0084 25.5511 25.9733 25.4393 25.9264C25.3282 25.8795 25.2186 25.821 25.1184 25.7536C25.0175 25.6863 24.921 25.6079 24.8353 25.5215C24.7497 25.4351 24.672 25.3392 24.6052 25.2367C24.5385 25.1349 24.4804 25.0266 24.4339 24.9123C24.3875 24.7996 24.3526 24.6817 24.3287 24.5616C24.304 24.4416 24.2909 24.3178 24.2909 24.1963C24.2909 24.0747 24.304 23.951 24.3287 23.8287C24.3526 23.7108 24.3875 23.593 24.4339 23.4787C24.4804 23.366 24.5385 23.2569 24.6052 23.1558C24.672 23.0526 24.7497 22.9574 24.8353 22.871C24.921 22.7846 25.0175 22.7063 25.1184 22.6367C25.2201 22.5694 25.3282 22.5108 25.4393 22.4639C25.5511 22.4171 25.6679 22.3819 25.787 22.3578C26.0265 22.3087 26.274 22.3087 26.5136 22.3578C26.6326 22.3819 26.7495 22.4171 26.8613 22.4639C26.9723 22.5108 27.0805 22.5694 27.1807 22.6367C27.283 22.7063 27.3774 22.7846 27.463 22.871C27.5509 22.9574 27.6271 23.0526 27.6953 23.1558Z"/>
<path d="M31.5904 26.0706C32.0789 26.0706 32.5587 25.87 32.9042 25.5215C33.2498 25.173 33.4487 24.689 33.4487 24.1963C33.4487 24.0747 33.4356 23.951 33.4116 23.8287C33.3877 23.7108 33.3521 23.593 33.3057 23.4787C33.2592 23.366 33.2019 23.2569 33.1344 23.1558C33.0676 23.0526 32.9899 22.9574 32.9042 22.871C32.4731 22.4339 31.8299 22.2355 31.2282 22.3578C31.1091 22.3819 30.9923 22.4171 30.879 22.4639C30.7673 22.5108 30.6591 22.5694 30.5589 22.6367C30.4566 22.7063 30.3622 22.7846 30.2766 22.871C30.1909 22.9574 30.1132 23.0526 30.0443 23.1558C29.9775 23.2569 29.9194 23.366 29.873 23.4787C29.8265 23.593 29.7917 23.7108 29.767 23.8287C29.743 23.951 29.7321 24.0747 29.7321 24.1963C29.7321 24.3178 29.743 24.4416 29.767 24.5616C29.7917 24.6817 29.8287 24.7996 29.8751 24.9123C29.9216 25.0266 29.9789 25.1349 30.0457 25.2367C30.1132 25.3392 30.1909 25.4351 30.2766 25.5215C30.3622 25.6079 30.4566 25.6863 30.5589 25.7536C30.6591 25.821 30.7673 25.8795 30.879 25.9264C30.9923 25.9733 31.1091 26.0084 31.2282 26.0333C31.3472 26.0575 31.4699 26.0706 31.5904 26.0706Z"/>
<path d="M35.4855 25.2367C35.4187 25.1349 35.3606 25.0266 35.3142 24.9123C35.2677 24.7996 35.2329 24.6817 35.2082 24.5616C35.1842 24.4416 35.1712 24.3178 35.1712 24.1963C35.1712 24.0747 35.1842 23.951 35.2082 23.8287C35.2329 23.7108 35.2677 23.593 35.3142 23.4787C35.3606 23.366 35.4187 23.2569 35.4855 23.1558C35.5523 23.0526 35.6299 22.9574 35.7156 22.871C35.8012 22.7832 35.8978 22.7063 36.0001 22.6367C36.1003 22.5694 36.2077 22.5108 36.3195 22.4639C36.4328 22.4171 36.5482 22.3819 36.6672 22.3578C36.9068 22.3087 37.1536 22.3087 37.3938 22.3578C37.5129 22.3819 37.6297 22.4171 37.7408 22.4639C37.8526 22.5108 37.96 22.5694 38.0624 22.6367C38.1633 22.7063 38.2598 22.7832 38.3447 22.871C38.4304 22.9574 38.5088 23.0526 38.5756 23.1558C38.6423 23.2569 38.6997 23.366 38.7462 23.4787C38.7926 23.593 38.8282 23.7108 38.8521 23.8287C38.8761 23.951 38.8877 24.0747 38.8877 24.1963C38.8877 24.3178 38.8768 24.4416 38.8521 24.5616C38.8282 24.6817 38.7926 24.7996 38.7462 24.9123C38.6997 25.0266 38.6423 25.1349 38.5756 25.2367C38.5088 25.3392 38.4304 25.4351 38.3447 25.5215C38.2598 25.6079 38.1625 25.6863 38.0624 25.7536C37.9607 25.821 37.8526 25.8795 37.7408 25.9264C37.6297 25.9733 37.5129 26.0084 37.3938 26.0333C37.2726 26.0575 37.1521 26.0706 37.0316 26.0706C36.9089 26.0706 36.7877 26.0575 36.6672 26.0333C36.5482 26.0084 36.4328 25.9733 36.3195 25.9264C36.2077 25.8795 36.1003 25.821 36.0001 25.7536C35.8978 25.6863 35.8012 25.6079 35.7156 25.5215C35.6299 25.4351 35.5523 25.3392 35.4855 25.2367Z"/>
<path d="M8.26562 8.55476C8.19884 8.45299 8.14077 8.34463 8.09431 8.23041C8.04786 8.11765 8.01302 7.99977 7.98906 7.87969C7.96438 7.75962 7.95349 7.63588 7.95349 7.51434C7.95349 7.3928 7.96438 7.26906 7.98906 7.14679C8.01302 7.0289 8.04786 6.91102 8.09431 6.7968C8.14077 6.68405 8.19884 6.57495 8.26562 6.47391C8.3324 6.37068 8.4108 6.27549 8.49573 6.1891C8.58138 6.1027 8.67647 6.02436 8.77882 5.9548C8.87899 5.88744 8.98642 5.82887 9.09966 5.78201C9.21145 5.73515 9.32831 5.7 9.44736 5.67584C9.6869 5.62678 9.93443 5.62678 10.174 5.67584C10.293 5.7 10.4084 5.73515 10.5217 5.78201C10.6327 5.82887 10.7409 5.88744 10.8411 5.9548C10.9434 6.02436 11.0378 6.1027 11.1234 6.1891C11.2091 6.27549 11.2875 6.37068 11.3557 6.47391C11.4225 6.57495 11.4806 6.68405 11.527 6.7968C11.5735 6.91102 11.6083 7.0289 11.633 7.14679C11.6569 7.26906 11.6678 7.3928 11.6678 7.51434C11.6678 7.63588 11.6569 7.75962 11.633 7.87969C11.6083 7.99977 11.5735 8.11765 11.527 8.23041C11.4806 8.34463 11.4225 8.45299 11.3557 8.55476C11.2875 8.65727 11.2091 8.75318 11.1234 8.83958C11.0378 8.92598 10.9434 9.00432 10.8411 9.07168C10.7409 9.13904 10.6327 9.19761 10.5217 9.24447C10.4099 9.29133 10.293 9.32648 10.174 9.35137C10.0535 9.37553 9.93007 9.38871 9.80957 9.38871C9.68908 9.38871 9.5664 9.37553 9.44736 9.35137C9.32831 9.32648 9.21145 9.29133 9.09966 9.24447C8.98642 9.19761 8.87899 9.13904 8.77882 9.07168C8.67647 9.00432 8.58138 8.92598 8.49573 8.83958C8.4108 8.75318 8.3324 8.65727 8.26562 8.55476Z"/>
<path d="M53.8895 9.38871H19.3259C18.2995 9.38871 17.4676 8.54891 17.4676 7.51434C17.4676 6.47904 18.2995 5.63996 19.3259 5.63996H53.8895C54.9159 5.63996 55.7478 6.47904 55.7478 7.51434C55.7478 8.54891 54.9159 9.38871 53.8895 9.38871Z"/>
<path d="M52.7746 71.2563H32.3337C31.3073 71.2563 30.4754 72.0953 30.4754 73.1306C30.4754 74.1652 31.3073 75.005 32.3337 75.005H52.7746C53.8009 75.005 54.6328 74.1652 54.6328 73.1306C54.6328 72.0953 53.8009 71.2563 52.7746 71.2563Z"/>
<path d="M32.3337 78.7538H52.7746C53.8009 78.7538 54.6328 79.5928 54.6328 80.6281C54.6328 81.6627 53.8009 82.5025 52.7746 82.5025H32.3337C31.3073 82.5025 30.4754 81.6627 30.4754 80.6281C30.4754 79.5928 31.3073 78.7538 32.3337 78.7538Z"/>
<path fill-rule="evenodd" clip-rule="evenodd" d="M16.5385 71.2563C13.4644 71.2563 10.9637 73.7786 10.9637 76.8794C10.9637 79.9801 13.4644 82.5025 16.5385 82.5025C19.6126 82.5025 22.1133 79.9801 22.1133 76.8794C22.1133 73.7786 19.6126 71.2563 16.5385 71.2563ZM16.5385 78.7538C15.5136 78.7538 14.6802 77.9132 14.6802 76.8794C14.6802 75.8455 15.5136 75.005 16.5385 75.005C17.5634 75.005 18.3968 75.8455 18.3968 76.8794C18.3968 77.9132 17.5634 78.7538 16.5385 78.7538Z"/>
<path d="M15.6094 45.015H8.17634C7.14994 45.015 6.31808 44.1752 6.31808 43.1406C6.31808 42.1053 7.14994 41.2663 8.17634 41.2663H15.6094C16.6358 41.2663 17.4676 42.1053 17.4676 43.1406C17.4676 44.1752 16.6358 45.015 15.6094 45.015Z"/>
<path d="M8.17634 52.4971H23.0424C24.0688 52.4971 24.9007 51.6581 24.9007 50.6228C24.9007 49.5882 24.0688 48.7484 23.0424 48.7484H8.17634C7.14994 48.7484 6.31808 49.5882 6.31808 50.6228C6.31808 51.6581 7.14994 52.4971 8.17634 52.4971Z"/>
<path d="M19.3259 56.2613C20.3523 56.2613 21.1842 57.1003 21.1842 58.1356C21.1842 59.1709 20.3523 60.01 19.3259 60.01H8.17634C7.14994 60.01 6.31808 59.1702 6.31808 58.1356C6.31808 57.1003 7.14994 56.2613 8.17634 56.2613H19.3259Z"/>
<path fill-rule="evenodd" clip-rule="evenodd" d="M27.6953 23.1558C27.7621 23.2569 27.8202 23.366 27.8666 23.4787C27.9131 23.593 27.9479 23.7108 27.9726 23.8287C27.9966 23.951 28.0096 24.0747 28.0096 24.1963C28.0096 24.3178 27.9966 24.4416 27.9726 24.5616C27.9479 24.6817 27.9131 24.7996 27.8666 24.9123C27.8202 25.0266 27.7621 25.1349 27.6953 25.2367C27.6271 25.3392 27.5509 25.4351 27.463 25.5215C27.3774 25.6079 27.283 25.6863 27.1807 25.7536C27.0805 25.821 26.9723 25.8795 26.8613 25.9264C26.7495 25.9733 26.6326 26.0084 26.5136 26.0333C26.3931 26.0575 26.2719 26.0706 26.1514 26.0706C26.0287 26.0706 25.906 26.0575 25.787 26.0333C25.6679 26.0084 25.5511 25.9733 25.4393 25.9264C25.3282 25.8795 25.2186 25.821 25.1184 25.7536C25.0175 25.6863 24.921 25.6079 24.8353 25.5215C24.7497 25.4351 24.672 25.3392 24.6052 25.2367C24.5385 25.1349 24.4804 25.0266 24.4339 24.9123C24.3875 24.7996 24.3526 24.6817 24.3287 24.5616C24.304 24.4416 24.2909 24.3178 24.2909 24.1963C24.2909 24.0747 24.304 23.951 24.3287 23.8287C24.3526 23.7108 24.3875 23.593 24.4339 23.4787C24.4804 23.366 24.5385 23.2569 24.6052 23.1558C24.672 23.0526 24.7497 22.9574 24.8353 22.871C24.921 22.7846 25.0175 22.7063 25.1184 22.6367C25.2201 22.5694 25.3282 22.5108 25.4393 22.4639C25.5511 22.4171 25.6679 22.3819 25.787 22.3578C26.0265 22.3087 26.274 22.3087 26.5136 22.3578C26.6326 22.3819 26.7495 22.4171 26.8613 22.4639C26.9723 22.5108 27.0805 22.5694 27.1807 22.6367C27.283 22.7063 27.3774 22.7846 27.463 22.871C27.5509 22.9574 27.6271 23.0526 27.6953 23.1558ZM31.5904 26.0706C32.0789 26.0706 32.5587 25.87 32.9042 25.5215C33.2498 25.173 33.4487 24.689 33.4487 24.1963C33.4487 24.0747 33.4356 23.951 33.4116 23.8287C33.3877 23.7108 33.3521 23.593 33.3057 23.4787C33.2592 23.366 33.2019 23.2569 33.1344 23.1558C33.0676 23.0526 32.9899 22.9574 32.9042 22.871C32.4731 22.4339 31.8299 22.2355 31.2282 22.3578C31.1091 22.3819 30.9923 22.4171 30.879 22.4639C30.7673 22.5108 30.6591 22.5694 30.5589 22.6367C30.4566 22.7063 30.3622 22.7846 30.2766 22.871C30.1909 22.9574 30.1132 23.0526 30.0443 23.1558C29.9775 23.2569 29.9194 23.366 29.873 23.4787C29.8265 23.593 29.7917 23.7108 29.767 23.8287C29.743 23.951 29.7321 24.0747 29.7321 24.1963C29.7321 24.3178 29.743 24.4416 29.767 24.5616C29.7917 24.6817 29.8287 24.7996 29.8751 24.9123C29.9216 25.0266 29.9789 25.1349 30.0457 25.2367C30.1132 25.3392 30.1909 25.4351 30.2766 25.5215C30.3622 25.6079 30.4566 25.6863 30.5589 25.7536C30.6591 25.821 30.7673 25.8795 30.879 25.9264C30.9923 25.9733 31.1091 26.0084 31.2282 26.0333C31.3472 26.0575 31.4699 26.0706 31.5904 26.0706ZM35.4855 25.2367C35.4187 25.1349 35.3606 25.0266 35.3142 24.9123C35.2677 24.7996 35.2329 24.6817 35.2082 24.5616C35.1842 24.4416 35.1712 24.3178 35.1712 24.1963C35.1712 24.0747 35.1842 23.951 35.2082 23.8287C35.2329 23.7108 35.2677 23.593 35.3142 23.4787C35.3606 23.366 35.4187 23.2569 35.4855 23.1558C35.5523 23.0526 35.6299 22.9574 35.7156 22.871C35.8012 22.7832 35.8978 22.7063 36.0001 22.6367C36.1003 22.5694 36.2077 22.5108 36.3195 22.4639C36.4328 22.4171 36.5482 22.3819 36.6672 22.3578C36.9068 22.3087 37.1536 22.3087 37.3938 22.3578C37.5129 22.3819 37.6297 22.4171 37.7408 22.4639C37.8526 22.5108 37.96 22.5694 38.0624 22.6367C38.1633 22.7063 38.2598 22.7832 38.3447 22.871C38.4304 22.9574 38.5088 23.0526 38.5756 23.1558C38.6423 23.2569 38.6997 23.366 38.7462 23.4787C38.7926 23.593 38.8282 23.7108 38.8521 23.8287C38.8761 23.951 38.8877 24.0747 38.8877 24.1963C38.8877 24.3178 38.8768 24.4416 38.8521 24.5616C38.8282 24.6817 38.7926 24.7996 38.7462 24.9123C38.6997 25.0266 38.6423 25.1349 38.5756 25.2367C38.5088 25.3392 38.4304 25.4351 38.3447 25.5215C38.2598 25.6079 38.1625 25.6863 38.0624 25.7536C37.9607 25.821 37.8526 25.8795 37.7408 25.9264C37.6297 25.9733 37.5129 26.0084 37.3938 26.0333C37.2726 26.0575 37.1521 26.0706 37.0316 26.0706C36.9089 26.0706 36.7877 26.0575 36.6672 26.0333C36.5482 26.0084 36.4328 25.9733 36.3195 25.9264C36.2077 25.8795 36.1003 25.821 36.0001 25.7536C35.8978 25.6863 35.8012 25.6079 35.7156 25.5215C35.6299 25.4351 35.5523 25.3392 35.4855 25.2367ZM8.09431 8.23041C8.14077 8.34463 8.19884 8.45299 8.26562 8.55476C8.3324 8.65727 8.4108 8.75318 8.49573 8.83958C8.58138 8.92598 8.67647 9.00432 8.77882 9.07168C8.87899 9.13904 8.98642 9.19761 9.09966 9.24447C9.21145 9.29133 9.32831 9.32648 9.44736 9.35137C9.5664 9.37553 9.68908 9.38871 9.80957 9.38871C9.93007 9.38871 10.0535 9.37553 10.174 9.35137C10.293 9.32648 10.4099 9.29133 10.5217 9.24447C10.6327 9.19761 10.7409 9.13904 10.8411 9.07168C10.9434 9.00432 11.0378 8.92598 11.1234 8.83958C11.2091 8.75318 11.2875 8.65727 11.3557 8.55476C11.4225 8.45299 11.4806 8.34463 11.527 8.23041C11.5735 8.11765 11.6083 7.99977 11.633 7.87969C11.6569 7.75962 11.6678 7.63588 11.6678 7.51434C11.6678 7.3928 11.6569 7.26906 11.633 7.14679C11.6083 7.0289 11.5735 6.91102 11.527 6.7968C11.4806 6.68405 11.4225 6.57495 11.3557 6.47391C11.2875 6.37068 11.2091 6.27549 11.1234 6.1891C11.0378 6.1027 10.9434 6.02436 10.8411 5.9548C10.7409 5.88744 10.6327 5.82887 10.5217 5.78201C10.4084 5.73515 10.293 5.7 10.174 5.67584C9.93443 5.62678 9.6869 5.62678 9.44736 5.67584C9.32831 5.7 9.21145 5.73515 9.09966 5.78201C8.98642 5.82887 8.87899 5.88744 8.77882 5.9548C8.67647 6.02436 8.58138 6.1027 8.49573 6.1891C8.4108 6.27549 8.3324 6.37068 8.26562 6.47391C8.19884 6.57495 8.14077 6.68405 8.09431 6.7968C8.04786 6.91102 8.01302 7.0289 7.98906 7.14679C7.96438 7.26906 7.95349 7.3928 7.95349 7.51434C7.95349 7.63588 7.96438 7.75962 7.98906 7.87969C8.01302 7.99977 8.04786 8.11765 8.09431 8.23041ZM19.3259 9.38871H53.8895C54.9159 9.38871 55.7478 8.54891 55.7478 7.51434C55.7478 6.47904 54.9159 5.63996 53.8895 5.63996H19.3259C18.2995 5.63996 17.4676 6.47904 17.4676 7.51434C17.4676 8.54891 18.2995 9.38871 19.3259 9.38871Z"/>
<path fill-rule="evenodd" clip-rule="evenodd" d="M63.1808 4.12362V11.2462V14.995V16.8862V20.635V22.4925V26.2412V78.7538V82.5025V85.8764C63.1808 88.1498 61.3472 90 59.0926 90H4.08817C1.83358 90 0 88.1498 0 85.8764V82.5025V78.7538V26.2412V22.4925V14.995V11.2462V4.12362C0 1.84948 1.83358 0 4.08817 0H59.0926C61.3472 0 63.1808 1.84948 63.1808 4.12362ZM3.71652 14.995H59.4643V33.7688H3.71652V14.995ZM59.4643 39.4812V61.1214V63.7741H56.838H35.9827H33.4487V61.0255V40.1695V37.5175H36.0749H56.1717H59.4643V39.4812ZM4.08817 3.74875H59.0926C59.2944 3.74875 59.4643 3.92008 59.4643 4.12362V11.2462H3.71652V4.12362C3.71652 3.92008 3.88637 3.74875 4.08817 3.74875ZM59.4643 85.8764C59.4643 86.0792 59.2944 86.2513 59.0926 86.2513H4.08817C3.88637 86.2513 3.71652 86.0792 3.71652 85.8764V67.5229H7.72557H22.5916H59.4643V85.8764ZM7.72557 63.7741H3.71652V37.5175H29.7321V63.7741H22.5916H7.72557Z"/>
<path fill-rule="evenodd" clip-rule="evenodd" d="M8.17634 45.015H15.6094C16.6358 45.015 17.4676 44.1752 17.4676 43.1406C17.4676 42.1053 16.6358 41.2663 15.6094 41.2663H8.17634C7.14994 41.2663 6.31808 42.1053 6.31808 43.1406C6.31808 44.1752 7.14994 45.015 8.17634 45.015ZM24.9007 50.6228C24.9007 51.6581 24.0688 52.4971 23.0424 52.4971H8.17634C7.14994 52.4971 6.31808 51.6581 6.31808 50.6228C6.31808 49.5882 7.14994 48.7484 8.17634 48.7484H23.0424C24.0688 48.7484 24.9007 49.5882 24.9007 50.6228ZM21.1842 58.1356C21.1842 57.1003 20.3523 56.2613 19.3259 56.2613H8.17634C7.14994 56.2613 6.31808 57.1003 6.31808 58.1356C6.31808 59.1702 7.14994 60.01 8.17634 60.01H19.3259C20.3523 60.01 21.1842 59.1709 21.1842 58.1356ZM52.7746 71.2563H32.3337C31.3073 71.2563 30.4754 72.0953 30.4754 73.1306C30.4754 74.1652 31.3073 75.005 32.3337 75.005H52.7746C53.8009 75.005 54.6328 74.1652 54.6328 73.1306C54.6328 72.0953 53.8009 71.2563 52.7746 71.2563ZM32.3337 78.7538H52.7746C53.8009 78.7538 54.6328 79.5928 54.6328 80.6281C54.6328 81.6627 53.8009 82.5025 52.7746 82.5025H32.3337C31.3073 82.5025 30.4754 81.6627 30.4754 80.6281C30.4754 79.5928 31.3073 78.7538 32.3337 78.7538ZM16.5385 71.2563C13.4644 71.2563 10.9637 73.7786 10.9637 76.8794C10.9637 79.9801 13.4644 82.5025 16.5385 82.5025C19.6126 82.5025 22.1133 79.9801 22.1133 76.8794C22.1133 73.7786 19.6126 71.2563 16.5385 71.2563ZM27.8666 23.4787C27.8202 23.366 27.7621 23.2569 27.6953 23.1558C27.6271 23.0526 27.5509 22.9574 27.463 22.871C27.3774 22.7846 27.283 22.7063 27.1807 22.6367C27.0805 22.5694 26.9723 22.5108 26.8613 22.4639C26.7495 22.4171 26.6326 22.3819 26.5136 22.3578C26.274 22.3087 26.0265 22.3087 25.787 22.3578C25.6679 22.3819 25.5511 22.4171 25.4393 22.4639C25.3282 22.5108 25.2201 22.5694 25.1184 22.6367C25.0175 22.7063 24.921 22.7846 24.8353 22.871C24.7497 22.9574 24.672 23.0526 24.6052 23.1558C24.5385 23.2569 24.4804 23.366 24.4339 23.4787C24.3875 23.593 24.3526 23.7108 24.3287 23.8287C24.304 23.951 24.2909 24.0747 24.2909 24.1963C24.2909 24.3178 24.304 24.4416 24.3287 24.5616C24.3526 24.6817 24.3875 24.7996 24.4339 24.9123C24.4804 25.0266 24.5385 25.1349 24.6052 25.2367C24.672 25.3392 24.7497 25.4351 24.8353 25.5215C24.921 25.6079 25.0175 25.6863 25.1184 25.7536C25.2186 25.821 25.3282 25.8795 25.4393 25.9264C25.5511 25.9733 25.6679 26.0084 25.787 26.0333C25.906 26.0575 26.0287 26.0706 26.1514 26.0706C26.2719 26.0706 26.3931 26.0575 26.5136 26.0333C26.6326 26.0084 26.7495 25.9733 26.8613 25.9264C26.9723 25.8795 27.0805 25.821 27.1807 25.7536C27.283 25.6863 27.3774 25.6079 27.463 25.5215C27.5509 25.4351 27.6271 25.3392 27.6953 25.2367C27.7621 25.1349 27.8202 25.0266 27.8666 24.9123C27.9131 24.7996 27.9479 24.6817 27.9726 24.5616C27.9966 24.4416 28.0096 24.3178 28.0096 24.1963C28.0096 24.0747 27.9966 23.951 27.9726 23.8287C27.9479 23.7108 27.9131 23.593 27.8666 23.4787ZM32.9042 25.5215C32.5587 25.87 32.0789 26.0706 31.5904 26.0706C31.4699 26.0706 31.3472 26.0575 31.2282 26.0333C31.1091 26.0084 30.9923 25.9733 30.879 25.9264C30.7673 25.8795 30.6591 25.821 30.5589 25.7536C30.4566 25.6863 30.3622 25.6079 30.2766 25.5215C30.1909 25.4351 30.1132 25.3392 30.0457 25.2367C29.9789 25.1349 29.9216 25.0266 29.8751 24.9123C29.8287 24.7996 29.7917 24.6817 29.767 24.5616C29.743 24.4416 29.7321 24.3178 29.7321 24.1963C29.7321 24.0747 29.743 23.951 29.767 23.8287C29.7917 23.7108 29.8265 23.593 29.873 23.4787C29.9194 23.366 29.9775 23.2569 30.0443 23.1558C30.1132 23.0526 30.1909 22.9574 30.2766 22.871C30.3622 22.7846 30.4566 22.7063 30.5589 22.6367C30.6591 22.5694 30.7673 22.5108 30.879 22.4639C30.9923 22.4171 31.1091 22.3819 31.2282 22.3578C31.8299 22.2355 32.4731 22.4339 32.9042 22.871C32.9899 22.9574 33.0676 23.0526 33.1344 23.1558C33.2019 23.2569 33.2592 23.366 33.3057 23.4787C33.3521 23.593 33.3877 23.7108 33.4116 23.8287C33.4356 23.951 33.4487 24.0747 33.4487 24.1963C33.4487 24.689 33.2498 25.173 32.9042 25.5215ZM35.3142 24.9123C35.3606 25.0266 35.4187 25.1349 35.4855 25.2367C35.5523 25.3392 35.6299 25.4351 35.7156 25.5215C35.8012 25.6079 35.8978 25.6863 36.0001 25.7536C36.1003 25.821 36.2077 25.8795 36.3195 25.9264C36.4328 25.9733 36.5482 26.0084 36.6672 26.0333C36.7877 26.0575 36.9089 26.0706 37.0316 26.0706C37.1521 26.0706 37.2726 26.0575 37.3938 26.0333C37.5129 26.0084 37.6297 25.9733 37.7408 25.9264C37.8526 25.8795 37.9607 25.821 38.0624 25.7536C38.1625 25.6863 38.2598 25.6079 38.3447 25.5215C38.4304 25.4351 38.5088 25.3392 38.5756 25.2367C38.6423 25.1349 38.6997 25.0266 38.7462 24.9123C38.7926 24.7996 38.8282 24.6817 38.8521 24.5616C38.8768 24.4416 38.8877 24.3178 38.8877 24.1963C38.8877 24.0747 38.8761 23.951 38.8521 23.8287C38.8282 23.7108 38.7926 23.593 38.7462 23.4787C38.6997 23.366 38.6423 23.2569 38.5756 23.1558C38.5088 23.0526 38.4304 22.9574 38.3447 22.871C38.2598 22.7832 38.1633 22.7063 38.0624 22.6367C37.96 22.5694 37.8526 22.5108 37.7408 22.4639C37.6297 22.4171 37.5129 22.3819 37.3938 22.3578C37.1536 22.3087 36.9068 22.3087 36.6672 22.3578C36.5482 22.3819 36.4328 22.4171 36.3195 22.4639C36.2077 22.5108 36.1003 22.5694 36.0001 22.6367C35.8978 22.7063 35.8012 22.7832 35.7156 22.871C35.6299 22.9574 35.5523 23.0526 35.4855 23.1558C35.4187 23.2569 35.3606 23.366 35.3142 23.4787C35.2677 23.593 35.2329 23.7108 35.2082 23.8287C35.1842 23.951 35.1712 24.0747 35.1712 24.1963C35.1712 24.3178 35.1842 24.4416 35.2082 24.5616C35.2329 24.6817 35.2677 24.7996 35.3142 24.9123ZM8.26562 8.55476C8.19884 8.45299 8.14077 8.34463 8.09431 8.23041C8.04786 8.11765 8.01302 7.99977 7.98906 7.87969C7.96438 7.75962 7.95349 7.63588 7.95349 7.51434C7.95349 7.3928 7.96438 7.26906 7.98906 7.14679C8.01302 7.0289 8.04786 6.91102 8.09431 6.7968C8.14077 6.68405 8.19884 6.57495 8.26562 6.47391C8.3324 6.37068 8.4108 6.27549 8.49573 6.1891C8.58138 6.1027 8.67647 6.02436 8.77882 5.9548C8.87899 5.88744 8.98642 5.82887 9.09966 5.78201C9.21145 5.73515 9.32831 5.7 9.44736 5.67584C9.6869 5.62678 9.93443 5.62678 10.174 5.67584C10.293 5.7 10.4084 5.73515 10.5217 5.78201C10.6327 5.82887 10.7409 5.88744 10.8411 5.9548C10.9434 6.02436 11.0378 6.1027 11.1234 6.1891C11.2091 6.27549 11.2875 6.37068 11.3557 6.47391C11.4225 6.57495 11.4806 6.68405 11.527 6.7968C11.5735 6.91102 11.6083 7.0289 11.633 7.14679C11.6569 7.26906 11.6678 7.3928 11.6678 7.51434C11.6678 7.63588 11.6569 7.75962 11.633 7.87969C11.6083 7.99977 11.5735 8.11765 11.527 8.23041C11.4806 8.34463 11.4225 8.45299 11.3557 8.55476C11.2875 8.65727 11.2091 8.75318 11.1234 8.83958C11.0378 8.92598 10.9434 9.00432 10.8411 9.07168C10.7409 9.13904 10.6327 9.19761 10.5217 9.24447C10.4099 9.29133 10.293 9.32648 10.174 9.35137C10.0535 9.37553 9.93007 9.38871 9.80957 9.38871C9.68908 9.38871 9.5664 9.37553 9.44736 9.35137C9.32831 9.32648 9.21145 9.29133 9.09966 9.24447C8.98642 9.19761 8.87899 9.13904 8.77882 9.07168C8.67647 9.00432 8.58138 8.92598 8.49573 8.83958C8.4108 8.75318 8.3324 8.65727 8.26562 8.55476ZM53.8895 9.38871H19.3259C18.2995 9.38871 17.4676 8.54891 17.4676 7.51434C17.4676 6.47904 18.2995 5.63996 19.3259 5.63996H53.8895C54.9159 5.63996 55.7478 6.47904 55.7478 7.51434C55.7478 8.54891 54.9159 9.38871 53.8895 9.38871ZM16.5385 78.7538C15.5136 78.7538 14.6802 77.9132 14.6802 76.8794C14.6802 75.8455 15.5136 75.005 16.5385 75.005C17.5634 75.005 18.3968 75.8455 18.3968 76.8794C18.3968 77.9132 17.5634 78.7538 16.5385 78.7538Z"/>
</mask>
<path d="M27.6953 23.1558C27.7621 23.2569 27.8202 23.366 27.8666 23.4787C27.9131 23.593 27.9479 23.7108 27.9726 23.8287C27.9966 23.951 28.0096 24.0747 28.0096 24.1963C28.0096 24.3178 27.9966 24.4416 27.9726 24.5616C27.9479 24.6817 27.9131 24.7996 27.8666 24.9123C27.8202 25.0266 27.7621 25.1349 27.6953 25.2367C27.6271 25.3392 27.5509 25.4351 27.463 25.5215C27.3774 25.6079 27.283 25.6863 27.1807 25.7536C27.0805 25.821 26.9723 25.8795 26.8613 25.9264C26.7495 25.9733 26.6326 26.0084 26.5136 26.0333C26.3931 26.0575 26.2719 26.0706 26.1514 26.0706C26.0287 26.0706 25.906 26.0575 25.787 26.0333C25.6679 26.0084 25.5511 25.9733 25.4393 25.9264C25.3282 25.8795 25.2186 25.821 25.1184 25.7536C25.0175 25.6863 24.921 25.6079 24.8353 25.5215C24.7497 25.4351 24.672 25.3392 24.6052 25.2367C24.5385 25.1349 24.4804 25.0266 24.4339 24.9123C24.3875 24.7996 24.3526 24.6817 24.3287 24.5616C24.304 24.4416 24.2909 24.3178 24.2909 24.1963C24.2909 24.0747 24.304 23.951 24.3287 23.8287C24.3526 23.7108 24.3875 23.593 24.4339 23.4787C24.4804 23.366 24.5385 23.2569 24.6052 23.1558C24.672 23.0526 24.7497 22.9574 24.8353 22.871C24.921 22.7846 25.0175 22.7063 25.1184 22.6367C25.2201 22.5694 25.3282 22.5108 25.4393 22.4639C25.5511 22.4171 25.6679 22.3819 25.787 22.3578C26.0265 22.3087 26.274 22.3087 26.5136 22.3578C26.6326 22.3819 26.7495 22.4171 26.8613 22.4639C26.9723 22.5108 27.0805 22.5694 27.1807 22.6367C27.283 22.7063 27.3774 22.7846 27.463 22.871C27.5509 22.9574 27.6271 23.0526 27.6953 23.1558Z" fill="#8C979C"/>
<path d="M31.5904 26.0706C32.0789 26.0706 32.5587 25.87 32.9042 25.5215C33.2498 25.173 33.4487 24.689 33.4487 24.1963C33.4487 24.0747 33.4356 23.951 33.4116 23.8287C33.3877 23.7108 33.3521 23.593 33.3057 23.4787C33.2592 23.366 33.2019 23.2569 33.1344 23.1558C33.0676 23.0526 32.9899 22.9574 32.9042 22.871C32.4731 22.4339 31.8299 22.2355 31.2282 22.3578C31.1091 22.3819 30.9923 22.4171 30.879 22.4639C30.7673 22.5108 30.6591 22.5694 30.5589 22.6367C30.4566 22.7063 30.3622 22.7846 30.2766 22.871C30.1909 22.9574 30.1132 23.0526 30.0443 23.1558C29.9775 23.2569 29.9194 23.366 29.873 23.4787C29.8265 23.593 29.7917 23.7108 29.767 23.8287C29.743 23.951 29.7321 24.0747 29.7321 24.1963C29.7321 24.3178 29.743 24.4416 29.767 24.5616C29.7917 24.6817 29.8287 24.7996 29.8751 24.9123C29.9216 25.0266 29.9789 25.1349 30.0457 25.2367C30.1132 25.3392 30.1909 25.4351 30.2766 25.5215C30.3622 25.6079 30.4566 25.6863 30.5589 25.7536C30.6591 25.821 30.7673 25.8795 30.879 25.9264C30.9923 25.9733 31.1091 26.0084 31.2282 26.0333C31.3472 26.0575 31.4699 26.0706 31.5904 26.0706Z" fill="#8C979C"/>
<path d="M35.4855 25.2367C35.4187 25.1349 35.3606 25.0266 35.3142 24.9123C35.2677 24.7996 35.2329 24.6817 35.2082 24.5616C35.1842 24.4416 35.1712 24.3178 35.1712 24.1963C35.1712 24.0747 35.1842 23.951 35.2082 23.8287C35.2329 23.7108 35.2677 23.593 35.3142 23.4787C35.3606 23.366 35.4187 23.2569 35.4855 23.1558C35.5523 23.0526 35.6299 22.9574 35.7156 22.871C35.8012 22.7832 35.8978 22.7063 36.0001 22.6367C36.1003 22.5694 36.2077 22.5108 36.3195 22.4639C36.4328 22.4171 36.5482 22.3819 36.6672 22.3578C36.9068 22.3087 37.1536 22.3087 37.3938 22.3578C37.5129 22.3819 37.6297 22.4171 37.7408 22.4639C37.8526 22.5108 37.96 22.5694 38.0624 22.6367C38.1633 22.7063 38.2598 22.7832 38.3447 22.871C38.4304 22.9574 38.5088 23.0526 38.5756 23.1558C38.6423 23.2569 38.6997 23.366 38.7462 23.4787C38.7926 23.593 38.8282 23.7108 38.8521 23.8287C38.8761 23.951 38.8877 24.0747 38.8877 24.1963C38.8877 24.3178 38.8768 24.4416 38.8521 24.5616C38.8282 24.6817 38.7926 24.7996 38.7462 24.9123C38.6997 25.0266 38.6423 25.1349 38.5756 25.2367C38.5088 25.3392 38.4304 25.4351 38.3447 25.5215C38.2598 25.6079 38.1625 25.6863 38.0624 25.7536C37.9607 25.821 37.8526 25.8795 37.7408 25.9264C37.6297 25.9733 37.5129 26.0084 37.3938 26.0333C37.2726 26.0575 37.1521 26.0706 37.0316 26.0706C36.9089 26.0706 36.7877 26.0575 36.6672 26.0333C36.5482 26.0084 36.4328 25.9733 36.3195 25.9264C36.2077 25.8795 36.1003 25.821 36.0001 25.7536C35.8978 25.6863 35.8012 25.6079 35.7156 25.5215C35.6299 25.4351 35.5523 25.3392 35.4855 25.2367Z" fill="#8C979C"/>
<path d="M8.26562 8.55476C8.19884 8.45299 8.14077 8.34463 8.09431 8.23041C8.04786 8.11765 8.01302 7.99977 7.98906 7.87969C7.96438 7.75962 7.95349 7.63588 7.95349 7.51434C7.95349 7.3928 7.96438 7.26906 7.98906 7.14679C8.01302 7.0289 8.04786 6.91102 8.09431 6.7968C8.14077 6.68405 8.19884 6.57495 8.26562 6.47391C8.3324 6.37068 8.4108 6.27549 8.49573 6.1891C8.58138 6.1027 8.67647 6.02436 8.77882 5.9548C8.87899 5.88744 8.98642 5.82887 9.09966 5.78201C9.21145 5.73515 9.32831 5.7 9.44736 5.67584C9.6869 5.62678 9.93443 5.62678 10.174 5.67584C10.293 5.7 10.4084 5.73515 10.5217 5.78201C10.6327 5.82887 10.7409 5.88744 10.8411 5.9548C10.9434 6.02436 11.0378 6.1027 11.1234 6.1891C11.2091 6.27549 11.2875 6.37068 11.3557 6.47391C11.4225 6.57495 11.4806 6.68405 11.527 6.7968C11.5735 6.91102 11.6083 7.0289 11.633 7.14679C11.6569 7.26906 11.6678 7.3928 11.6678 7.51434C11.6678 7.63588 11.6569 7.75962 11.633 7.87969C11.6083 7.99977 11.5735 8.11765 11.527 8.23041C11.4806 8.34463 11.4225 8.45299 11.3557 8.55476C11.2875 8.65727 11.2091 8.75318 11.1234 8.83958C11.0378 8.92598 10.9434 9.00432 10.8411 9.07168C10.7409 9.13904 10.6327 9.19761 10.5217 9.24447C10.4099 9.29133 10.293 9.32648 10.174 9.35137C10.0535 9.37553 9.93007 9.38871 9.80957 9.38871C9.68908 9.38871 9.5664 9.37553 9.44736 9.35137C9.32831 9.32648 9.21145 9.29133 9.09966 9.24447C8.98642 9.19761 8.87899 9.13904 8.77882 9.07168C8.67647 9.00432 8.58138 8.92598 8.49573 8.83958C8.4108 8.75318 8.3324 8.65727 8.26562 8.55476Z" fill="#8C979C"/>
<path d="M53.8895 9.38871H19.3259C18.2995 9.38871 17.4676 8.54891 17.4676 7.51434C17.4676 6.47904 18.2995 5.63996 19.3259 5.63996H53.8895C54.9159 5.63996 55.7478 6.47904 55.7478 7.51434C55.7478 8.54891 54.9159 9.38871 53.8895 9.38871Z" fill="#8C979C"/>
<path d="M52.7746 71.2563H32.3337C31.3073 71.2563 30.4754 72.0953 30.4754 73.1306C30.4754 74.1652 31.3073 75.005 32.3337 75.005H52.7746C53.8009 75.005 54.6328 74.1652 54.6328 73.1306C54.6328 72.0953 53.8009 71.2563 52.7746 71.2563Z" fill="#8C979C"/>
<path d="M32.3337 78.7538H52.7746C53.8009 78.7538 54.6328 79.5928 54.6328 80.6281C54.6328 81.6627 53.8009 82.5025 52.7746 82.5025H32.3337C31.3073 82.5025 30.4754 81.6627 30.4754 80.6281C30.4754 79.5928 31.3073 78.7538 32.3337 78.7538Z" fill="#8C979C"/>
<path fill-rule="evenodd" clip-rule="evenodd" d="M16.5385 71.2563C13.4644 71.2563 10.9637 73.7786 10.9637 76.8794C10.9637 79.9801 13.4644 82.5025 16.5385 82.5025C19.6126 82.5025 22.1133 79.9801 22.1133 76.8794C22.1133 73.7786 19.6126 71.2563 16.5385 71.2563ZM16.5385 78.7538C15.5136 78.7538 14.6802 77.9132 14.6802 76.8794C14.6802 75.8455 15.5136 75.005 16.5385 75.005C17.5634 75.005 18.3968 75.8455 18.3968 76.8794C18.3968 77.9132 17.5634 78.7538 16.5385 78.7538Z" fill="#8C979C"/>
<path d="M15.6094 45.015H8.17634C7.14994 45.015 6.31808 44.1752 6.31808 43.1406C6.31808 42.1053 7.14994 41.2663 8.17634 41.2663H15.6094C16.6358 41.2663 17.4676 42.1053 17.4676 43.1406C17.4676 44.1752 16.6358 45.015 15.6094 45.015Z" fill="#8C979C"/>
<path d="M8.17634 52.4971H23.0424C24.0688 52.4971 24.9007 51.6581 24.9007 50.6228C24.9007 49.5882 24.0688 48.7484 23.0424 48.7484H8.17634C7.14994 48.7484 6.31808 49.5882 6.31808 50.6228C6.31808 51.6581 7.14994 52.4971 8.17634 52.4971Z" fill="#8C979C"/>
<path d="M19.3259 56.2613C20.3523 56.2613 21.1842 57.1003 21.1842 58.1356C21.1842 59.1709 20.3523 60.01 19.3259 60.01H8.17634C7.14994 60.01 6.31808 59.1702 6.31808 58.1356C6.31808 57.1003 7.14994 56.2613 8.17634 56.2613H19.3259Z" fill="#8C979C"/>
<path fill-rule="evenodd" clip-rule="evenodd" d="M27.6953 23.1558C27.7621 23.2569 27.8202 23.366 27.8666 23.4787C27.9131 23.593 27.9479 23.7108 27.9726 23.8287C27.9966 23.951 28.0096 24.0747 28.0096 24.1963C28.0096 24.3178 27.9966 24.4416 27.9726 24.5616C27.9479 24.6817 27.9131 24.7996 27.8666 24.9123C27.8202 25.0266 27.7621 25.1349 27.6953 25.2367C27.6271 25.3392 27.5509 25.4351 27.463 25.5215C27.3774 25.6079 27.283 25.6863 27.1807 25.7536C27.0805 25.821 26.9723 25.8795 26.8613 25.9264C26.7495 25.9733 26.6326 26.0084 26.5136 26.0333C26.3931 26.0575 26.2719 26.0706 26.1514 26.0706C26.0287 26.0706 25.906 26.0575 25.787 26.0333C25.6679 26.0084 25.5511 25.9733 25.4393 25.9264C25.3282 25.8795 25.2186 25.821 25.1184 25.7536C25.0175 25.6863 24.921 25.6079 24.8353 25.5215C24.7497 25.4351 24.672 25.3392 24.6052 25.2367C24.5385 25.1349 24.4804 25.0266 24.4339 24.9123C24.3875 24.7996 24.3526 24.6817 24.3287 24.5616C24.304 24.4416 24.2909 24.3178 24.2909 24.1963C24.2909 24.0747 24.304 23.951 24.3287 23.8287C24.3526 23.7108 24.3875 23.593 24.4339 23.4787C24.4804 23.366 24.5385 23.2569 24.6052 23.1558C24.672 23.0526 24.7497 22.9574 24.8353 22.871C24.921 22.7846 25.0175 22.7063 25.1184 22.6367C25.2201 22.5694 25.3282 22.5108 25.4393 22.4639C25.5511 22.4171 25.6679 22.3819 25.787 22.3578C26.0265 22.3087 26.274 22.3087 26.5136 22.3578C26.6326 22.3819 26.7495 22.4171 26.8613 22.4639C26.9723 22.5108 27.0805 22.5694 27.1807 22.6367C27.283 22.7063 27.3774 22.7846 27.463 22.871C27.5509 22.9574 27.6271 23.0526 27.6953 23.1558ZM31.5904 26.0706C32.0789 26.0706 32.5587 25.87 32.9042 25.5215C33.2498 25.173 33.4487 24.689 33.4487 24.1963C33.4487 24.0747 33.4356 23.951 33.4116 23.8287C33.3877 23.7108 33.3521 23.593 33.3057 23.4787C33.2592 23.366 33.2019 23.2569 33.1344 23.1558C33.0676 23.0526 32.9899 22.9574 32.9042 22.871C32.4731 22.4339 31.8299 22.2355 31.2282 22.3578C31.1091 22.3819 30.9923 22.4171 30.879 22.4639C30.7673 22.5108 30.6591 22.5694 30.5589 22.6367C30.4566 22.7063 30.3622 22.7846 30.2766 22.871C30.1909 22.9574 30.1132 23.0526 30.0443 23.1558C29.9775 23.2569 29.9194 23.366 29.873 23.4787C29.8265 23.593 29.7917 23.7108 29.767 23.8287C29.743 23.951 29.7321 24.0747 29.7321 24.1963C29.7321 24.3178 29.743 24.4416 29.767 24.5616C29.7917 24.6817 29.8287 24.7996 29.8751 24.9123C29.9216 25.0266 29.9789 25.1349 30.0457 25.2367C30.1132 25.3392 30.1909 25.4351 30.2766 25.5215C30.3622 25.6079 30.4566 25.6863 30.5589 25.7536C30.6591 25.821 30.7673 25.8795 30.879 25.9264C30.9923 25.9733 31.1091 26.0084 31.2282 26.0333C31.3472 26.0575 31.4699 26.0706 31.5904 26.0706ZM35.4855 25.2367C35.4187 25.1349 35.3606 25.0266 35.3142 24.9123C35.2677 24.7996 35.2329 24.6817 35.2082 24.5616C35.1842 24.4416 35.1712 24.3178 35.1712 24.1963C35.1712 24.0747 35.1842 23.951 35.2082 23.8287C35.2329 23.7108 35.2677 23.593 35.3142 23.4787C35.3606 23.366 35.4187 23.2569 35.4855 23.1558C35.5523 23.0526 35.6299 22.9574 35.7156 22.871C35.8012 22.7832 35.8978 22.7063 36.0001 22.6367C36.1003 22.5694 36.2077 22.5108 36.3195 22.4639C36.4328 22.4171 36.5482 22.3819 36.6672 22.3578C36.9068 22.3087 37.1536 22.3087 37.3938 22.3578C37.5129 22.3819 37.6297 22.4171 37.7408 22.4639C37.8526 22.5108 37.96 22.5694 38.0624 22.6367C38.1633 22.7063 38.2598 22.7832 38.3447 22.871C38.4304 22.9574 38.5088 23.0526 38.5756 23.1558C38.6423 23.2569 38.6997 23.366 38.7462 23.4787C38.7926 23.593 38.8282 23.7108 38.8521 23.8287C38.8761 23.951 38.8877 24.0747 38.8877 24.1963C38.8877 24.3178 38.8768 24.4416 38.8521 24.5616C38.8282 24.6817 38.7926 24.7996 38.7462 24.9123C38.6997 25.0266 38.6423 25.1349 38.5756 25.2367C38.5088 25.3392 38.4304 25.4351 38.3447 25.5215C38.2598 25.6079 38.1625 25.6863 38.0624 25.7536C37.9607 25.821 37.8526 25.8795 37.7408 25.9264C37.6297 25.9733 37.5129 26.0084 37.3938 26.0333C37.2726 26.0575 37.1521 26.0706 37.0316 26.0706C36.9089 26.0706 36.7877 26.0575 36.6672 26.0333C36.5482 26.0084 36.4328 25.9733 36.3195 25.9264C36.2077 25.8795 36.1003 25.821 36.0001 25.7536C35.8978 25.6863 35.8012 25.6079 35.7156 25.5215C35.6299 25.4351 35.5523 25.3392 35.4855 25.2367ZM8.09431 8.23041C8.14077 8.34463 8.19884 8.45299 8.26562 8.55476C8.3324 8.65727 8.4108 8.75318 8.49573 8.83958C8.58138 8.92598 8.67647 9.00432 8.77882 9.07168C8.87899 9.13904 8.98642 9.19761 9.09966 9.24447C9.21145 9.29133 9.32831 9.32648 9.44736 9.35137C9.5664 9.37553 9.68908 9.38871 9.80957 9.38871C9.93007 9.38871 10.0535 9.37553 10.174 9.35137C10.293 9.32648 10.4099 9.29133 10.5217 9.24447C10.6327 9.19761 10.7409 9.13904 10.8411 9.07168C10.9434 9.00432 11.0378 8.92598 11.1234 8.83958C11.2091 8.75318 11.2875 8.65727 11.3557 8.55476C11.4225 8.45299 11.4806 8.34463 11.527 8.23041C11.5735 8.11765 11.6083 7.99977 11.633 7.87969C11.6569 7.75962 11.6678 7.63588 11.6678 7.51434C11.6678 7.3928 11.6569 7.26906 11.633 7.14679C11.6083 7.0289 11.5735 6.91102 11.527 6.7968C11.4806 6.68405 11.4225 6.57495 11.3557 6.47391C11.2875 6.37068 11.2091 6.27549 11.1234 6.1891C11.0378 6.1027 10.9434 6.02436 10.8411 5.9548C10.7409 5.88744 10.6327 5.82887 10.5217 5.78201C10.4084 5.73515 10.293 5.7 10.174 5.67584C9.93443 5.62678 9.6869 5.62678 9.44736 5.67584C9.32831 5.7 9.21145 5.73515 9.09966 5.78201C8.98642 5.82887 8.87899 5.88744 8.77882 5.9548C8.67647 6.02436 8.58138 6.1027 8.49573 6.1891C8.4108 6.27549 8.3324 6.37068 8.26562 6.47391C8.19884 6.57495 8.14077 6.68405 8.09431 6.7968C8.04786 6.91102 8.01302 7.0289 7.98906 7.14679C7.96438 7.26906 7.95349 7.3928 7.95349 7.51434C7.95349 7.63588 7.96438 7.75962 7.98906 7.87969C8.01302 7.99977 8.04786 8.11765 8.09431 8.23041ZM19.3259 9.38871H53.8895C54.9159 9.38871 55.7478 8.54891 55.7478 7.51434C55.7478 6.47904 54.9159 5.63996 53.8895 5.63996H19.3259C18.2995 5.63996 17.4676 6.47904 17.4676 7.51434C17.4676 8.54891 18.2995 9.38871 19.3259 9.38871Z" fill="#8C979C"/>
<path fill-rule="evenodd" clip-rule="evenodd" d="M63.1808 4.12362V11.2462V14.995V16.8862V20.635V22.4925V26.2412V78.7538V82.5025V85.8764C63.1808 88.1498 61.3472 90 59.0926 90H4.08817C1.83358 90 0 88.1498 0 85.8764V82.5025V78.7538V26.2412V22.4925V14.995V11.2462V4.12362C0 1.84948 1.83358 0 4.08817 0H59.0926C61.3472 0 63.1808 1.84948 63.1808 4.12362ZM3.71652 14.995H59.4643V33.7688H3.71652V14.995ZM59.4643 39.4812V61.1214V63.7741H56.838H35.9827H33.4487V61.0255V40.1695V37.5175H36.0749H56.1717H59.4643V39.4812ZM4.08817 3.74875H59.0926C59.2944 3.74875 59.4643 3.92008 59.4643 4.12362V11.2462H3.71652V4.12362C3.71652 3.92008 3.88637 3.74875 4.08817 3.74875ZM59.4643 85.8764C59.4643 86.0792 59.2944 86.2513 59.0926 86.2513H4.08817C3.88637 86.2513 3.71652 86.0792 3.71652 85.8764V67.5229H7.72557H22.5916H59.4643V85.8764ZM7.72557 63.7741H3.71652V37.5175H29.7321V63.7741H22.5916H7.72557Z" fill="#8C979C"/>
<path fill-rule="evenodd" clip-rule="evenodd" d="M8.17634 45.015H15.6094C16.6358 45.015 17.4676 44.1752 17.4676 43.1406C17.4676 42.1053 16.6358 41.2663 15.6094 41.2663H8.17634C7.14994 41.2663 6.31808 42.1053 6.31808 43.1406C6.31808 44.1752 7.14994 45.015 8.17634 45.015ZM24.9007 50.6228C24.9007 51.6581 24.0688 52.4971 23.0424 52.4971H8.17634C7.14994 52.4971 6.31808 51.6581 6.31808 50.6228C6.31808 49.5882 7.14994 48.7484 8.17634 48.7484H23.0424C24.0688 48.7484 24.9007 49.5882 24.9007 50.6228ZM21.1842 58.1356C21.1842 57.1003 20.3523 56.2613 19.3259 56.2613H8.17634C7.14994 56.2613 6.31808 57.1003 6.31808 58.1356C6.31808 59.1702 7.14994 60.01 8.17634 60.01H19.3259C20.3523 60.01 21.1842 59.1709 21.1842 58.1356ZM52.7746 71.2563H32.3337C31.3073 71.2563 30.4754 72.0953 30.4754 73.1306C30.4754 74.1652 31.3073 75.005 32.3337 75.005H52.7746C53.8009 75.005 54.6328 74.1652 54.6328 73.1306C54.6328 72.0953 53.8009 71.2563 52.7746 71.2563ZM32.3337 78.7538H52.7746C53.8009 78.7538 54.6328 79.5928 54.6328 80.6281C54.6328 81.6627 53.8009 82.5025 52.7746 82.5025H32.3337C31.3073 82.5025 30.4754 81.6627 30.4754 80.6281C30.4754 79.5928 31.3073 78.7538 32.3337 78.7538ZM16.5385 71.2563C13.4644 71.2563 10.9637 73.7786 10.9637 76.8794C10.9637 79.9801 13.4644 82.5025 16.5385 82.5025C19.6126 82.5025 22.1133 79.9801 22.1133 76.8794C22.1133 73.7786 19.6126 71.2563 16.5385 71.2563ZM27.8666 23.4787C27.8202 23.366 27.7621 23.2569 27.6953 23.1558C27.6271 23.0526 27.5509 22.9574 27.463 22.871C27.3774 22.7846 27.283 22.7063 27.1807 22.6367C27.0805 22.5694 26.9723 22.5108 26.8613 22.4639C26.7495 22.4171 26.6326 22.3819 26.5136 22.3578C26.274 22.3087 26.0265 22.3087 25.787 22.3578C25.6679 22.3819 25.5511 22.4171 25.4393 22.4639C25.3282 22.5108 25.2201 22.5694 25.1184 22.6367C25.0175 22.7063 24.921 22.7846 24.8353 22.871C24.7497 22.9574 24.672 23.0526 24.6052 23.1558C24.5385 23.2569 24.4804 23.366 24.4339 23.4787C24.3875 23.593 24.3526 23.7108 24.3287 23.8287C24.304 23.951 24.2909 24.0747 24.2909 24.1963C24.2909 24.3178 24.304 24.4416 24.3287 24.5616C24.3526 24.6817 24.3875 24.7996 24.4339 24.9123C24.4804 25.0266 24.5385 25.1349 24.6052 25.2367C24.672 25.3392 24.7497 25.4351 24.8353 25.5215C24.921 25.6079 25.0175 25.6863 25.1184 25.7536C25.2186 25.821 25.3282 25.8795 25.4393 25.9264C25.5511 25.9733 25.6679 26.0084 25.787 26.0333C25.906 26.0575 26.0287 26.0706 26.1514 26.0706C26.2719 26.0706 26.3931 26.0575 26.5136 26.0333C26.6326 26.0084 26.7495 25.9733 26.8613 25.9264C26.9723 25.8795 27.0805 25.821 27.1807 25.7536C27.283 25.6863 27.3774 25.6079 27.463 25.5215C27.5509 25.4351 27.6271 25.3392 27.6953 25.2367C27.7621 25.1349 27.8202 25.0266 27.8666 24.9123C27.9131 24.7996 27.9479 24.6817 27.9726 24.5616C27.9966 24.4416 28.0096 24.3178 28.0096 24.1963C28.0096 24.0747 27.9966 23.951 27.9726 23.8287C27.9479 23.7108 27.9131 23.593 27.8666 23.4787ZM32.9042 25.5215C32.5587 25.87 32.0789 26.0706 31.5904 26.0706C31.4699 26.0706 31.3472 26.0575 31.2282 26.0333C31.1091 26.0084 30.9923 25.9733 30.879 25.9264C30.7673 25.8795 30.6591 25.821 30.5589 25.7536C30.4566 25.6863 30.3622 25.6079 30.2766 25.5215C30.1909 25.4351 30.1132 25.3392 30.0457 25.2367C29.9789 25.1349 29.9216 25.0266 29.8751 24.9123C29.8287 24.7996 29.7917 24.6817 29.767 24.5616C29.743 24.4416 29.7321 24.3178 29.7321 24.1963C29.7321 24.0747 29.743 23.951 29.767 23.8287C29.7917 23.7108 29.8265 23.593 29.873 23.4787C29.9194 23.366 29.9775 23.2569 30.0443 23.1558C30.1132 23.0526 30.1909 22.9574 30.2766 22.871C30.3622 22.7846 30.4566 22.7063 30.5589 22.6367C30.6591 22.5694 30.7673 22.5108 30.879 22.4639C30.9923 22.4171 31.1091 22.3819 31.2282 22.3578C31.8299 22.2355 32.4731 22.4339 32.9042 22.871C32.9899 22.9574 33.0676 23.0526 33.1344 23.1558C33.2019 23.2569 33.2592 23.366 33.3057 23.4787C33.3521 23.593 33.3877 23.7108 33.4116 23.8287C33.4356 23.951 33.4487 24.0747 33.4487 24.1963C33.4487 24.689 33.2498 25.173 32.9042 25.5215ZM35.3142 24.9123C35.3606 25.0266 35.4187 25.1349 35.4855 25.2367C35.5523 25.3392 35.6299 25.4351 35.7156 25.5215C35.8012 25.6079 35.8978 25.6863 36.0001 25.7536C36.1003 25.821 36.2077 25.8795 36.3195 25.9264C36.4328 25.9733 36.5482 26.0084 36.6672 26.0333C36.7877 26.0575 36.9089 26.0706 37.0316 26.0706C37.1521 26.0706 37.2726 26.0575 37.3938 26.0333C37.5129 26.0084 37.6297 25.9733 37.7408 25.9264C37.8526 25.8795 37.9607 25.821 38.0624 25.7536C38.1625 25.6863 38.2598 25.6079 38.3447 25.5215C38.4304 25.4351 38.5088 25.3392 38.5756 25.2367C38.6423 25.1349 38.6997 25.0266 38.7462 24.9123C38.7926 24.7996 38.8282 24.6817 38.8521 24.5616C38.8768 24.4416 38.8877 24.3178 38.8877 24.1963C38.8877 24.0747 38.8761 23.951 38.8521 23.8287C38.8282 23.7108 38.7926 23.593 38.7462 23.4787C38.6997 23.366 38.6423 23.2569 38.5756 23.1558C38.5088 23.0526 38.4304 22.9574 38.3447 22.871C38.2598 22.7832 38.1633 22.7063 38.0624 22.6367C37.96 22.5694 37.8526 22.5108 37.7408 22.4639C37.6297 22.4171 37.5129 22.3819 37.3938 22.3578C37.1536 22.3087 36.9068 22.3087 36.6672 22.3578C36.5482 22.3819 36.4328 22.4171 36.3195 22.4639C36.2077 22.5108 36.1003 22.5694 36.0001 22.6367C35.8978 22.7063 35.8012 22.7832 35.7156 22.871C35.6299 22.9574 35.5523 23.0526 35.4855 23.1558C35.4187 23.2569 35.3606 23.366 35.3142 23.4787C35.2677 23.593 35.2329 23.7108 35.2082 23.8287C35.1842 23.951 35.1712 24.0747 35.1712 24.1963C35.1712 24.3178 35.1842 24.4416 35.2082 24.5616C35.2329 24.6817 35.2677 24.7996 35.3142 24.9123ZM8.26562 8.55476C8.19884 8.45299 8.14077 8.34463 8.09431 8.23041C8.04786 8.11765 8.01302 7.99977 7.98906 7.87969C7.96438 7.75962 7.95349 7.63588 7.95349 7.51434C7.95349 7.3928 7.96438 7.26906 7.98906 7.14679C8.01302 7.0289 8.04786 6.91102 8.09431 6.7968C8.14077 6.68405 8.19884 6.57495 8.26562 6.47391C8.3324 6.37068 8.4108 6.27549 8.49573 6.1891C8.58138 6.1027 8.67647 6.02436 8.77882 5.9548C8.87899 5.88744 8.98642 5.82887 9.09966 5.78201C9.21145 5.73515 9.32831 5.7 9.44736 5.67584C9.6869 5.62678 9.93443 5.62678 10.174 5.67584C10.293 5.7 10.4084 5.73515 10.5217 5.78201C10.6327 5.82887 10.7409 5.88744 10.8411 5.9548C10.9434 6.02436 11.0378 6.1027 11.1234 6.1891C11.2091 6.27549 11.2875 6.37068 11.3557 6.47391C11.4225 6.57495 11.4806 6.68405 11.527 6.7968C11.5735 6.91102 11.6083 7.0289 11.633 7.14679C11.6569 7.26906 11.6678 7.3928 11.6678 7.51434C11.6678 7.63588 11.6569 7.75962 11.633 7.87969C11.6083 7.99977 11.5735 8.11765 11.527 8.23041C11.4806 8.34463 11.4225 8.45299 11.3557 8.55476C11.2875 8.65727 11.2091 8.75318 11.1234 8.83958C11.0378 8.92598 10.9434 9.00432 10.8411 9.07168C10.7409 9.13904 10.6327 9.19761 10.5217 9.24447C10.4099 9.29133 10.293 9.32648 10.174 9.35137C10.0535 9.37553 9.93007 9.38871 9.80957 9.38871C9.68908 9.38871 9.5664 9.37553 9.44736 9.35137C9.32831 9.32648 9.21145 9.29133 9.09966 9.24447C8.98642 9.19761 8.87899 9.13904 8.77882 9.07168C8.67647 9.00432 8.58138 8.92598 8.49573 8.83958C8.4108 8.75318 8.3324 8.65727 8.26562 8.55476ZM53.8895 9.38871H19.3259C18.2995 9.38871 17.4676 8.54891 17.4676 7.51434C17.4676 6.47904 18.2995 5.63996 19.3259 5.63996H53.8895C54.9159 5.63996 55.7478 6.47904 55.7478 7.51434C55.7478 8.54891 54.9159 9.38871 53.8895 9.38871ZM16.5385 78.7538C15.5136 78.7538 14.6802 77.9132 14.6802 76.8794C14.6802 75.8455 15.5136 75.005 16.5385 75.005C17.5634 75.005 18.3968 75.8455 18.3968 76.8794C18.3968 77.9132 17.5634 78.7538 16.5385 78.7538Z" fill="#8C979C"/>
<path d="M27.6953 23.1558C27.7621 23.2569 27.8202 23.366 27.8666 23.4787C27.9131 23.593 27.9479 23.7108 27.9726 23.8287C27.9966 23.951 28.0096 24.0747 28.0096 24.1963C28.0096 24.3178 27.9966 24.4416 27.9726 24.5616C27.9479 24.6817 27.9131 24.7996 27.8666 24.9123C27.8202 25.0266 27.7621 25.1349 27.6953 25.2367C27.6271 25.3392 27.5509 25.4351 27.463 25.5215C27.3774 25.6079 27.283 25.6863 27.1807 25.7536C27.0805 25.821 26.9723 25.8795 26.8613 25.9264C26.7495 25.9733 26.6326 26.0084 26.5136 26.0333C26.3931 26.0575 26.2719 26.0706 26.1514 26.0706C26.0287 26.0706 25.906 26.0575 25.787 26.0333C25.6679 26.0084 25.5511 25.9733 25.4393 25.9264C25.3282 25.8795 25.2186 25.821 25.1184 25.7536C25.0175 25.6863 24.921 25.6079 24.8353 25.5215C24.7497 25.4351 24.672 25.3392 24.6052 25.2367C24.5385 25.1349 24.4804 25.0266 24.4339 24.9123C24.3875 24.7996 24.3526 24.6817 24.3287 24.5616C24.304 24.4416 24.2909 24.3178 24.2909 24.1963C24.2909 24.0747 24.304 23.951 24.3287 23.8287C24.3526 23.7108 24.3875 23.593 24.4339 23.4787C24.4804 23.366 24.5385 23.2569 24.6052 23.1558C24.672 23.0526 24.7497 22.9574 24.8353 22.871C24.921 22.7846 25.0175 22.7063 25.1184 22.6367C25.2201 22.5694 25.3282 22.5108 25.4393 22.4639C25.5511 22.4171 25.6679 22.3819 25.787 22.3578C26.0265 22.3087 26.274 22.3087 26.5136 22.3578C26.6326 22.3819 26.7495 22.4171 26.8613 22.4639C26.9723 22.5108 27.0805 22.5694 27.1807 22.6367C27.283 22.7063 27.3774 22.7846 27.463 22.871C27.5509 22.9574 27.6271 23.0526 27.6953 23.1558Z" stroke="white" stroke-width="0.8" mask="url(#path-1-inside-1)"/>
<path d="M31.5904 26.0706C32.0789 26.0706 32.5587 25.87 32.9042 25.5215C33.2498 25.173 33.4487 24.689 33.4487 24.1963C33.4487 24.0747 33.4356 23.951 33.4116 23.8287C33.3877 23.7108 33.3521 23.593 33.3057 23.4787C33.2592 23.366 33.2019 23.2569 33.1344 23.1558C33.0676 23.0526 32.9899 22.9574 32.9042 22.871C32.4731 22.4339 31.8299 22.2355 31.2282 22.3578C31.1091 22.3819 30.9923 22.4171 30.879 22.4639C30.7673 22.5108 30.6591 22.5694 30.5589 22.6367C30.4566 22.7063 30.3622 22.7846 30.2766 22.871C30.1909 22.9574 30.1132 23.0526 30.0443 23.1558C29.9775 23.2569 29.9194 23.366 29.873 23.4787C29.8265 23.593 29.7917 23.7108 29.767 23.8287C29.743 23.951 29.7321 24.0747 29.7321 24.1963C29.7321 24.3178 29.743 24.4416 29.767 24.5616C29.7917 24.6817 29.8287 24.7996 29.8751 24.9123C29.9216 25.0266 29.9789 25.1349 30.0457 25.2367C30.1132 25.3392 30.1909 25.4351 30.2766 25.5215C30.3622 25.6079 30.4566 25.6863 30.5589 25.7536C30.6591 25.821 30.7673 25.8795 30.879 25.9264C30.9923 25.9733 31.1091 26.0084 31.2282 26.0333C31.3472 26.0575 31.4699 26.0706 31.5904 26.0706Z" stroke="white" stroke-width="0.8" mask="url(#path-1-inside-1)"/>
<path d="M35.4855 25.2367C35.4187 25.1349 35.3606 25.0266 35.3142 24.9123C35.2677 24.7996 35.2329 24.6817 35.2082 24.5616C35.1842 24.4416 35.1712 24.3178 35.1712 24.1963C35.1712 24.0747 35.1842 23.951 35.2082 23.8287C35.2329 23.7108 35.2677 23.593 35.3142 23.4787C35.3606 23.366 35.4187 23.2569 35.4855 23.1558C35.5523 23.0526 35.6299 22.9574 35.7156 22.871C35.8012 22.7832 35.8978 22.7063 36.0001 22.6367C36.1003 22.5694 36.2077 22.5108 36.3195 22.4639C36.4328 22.4171 36.5482 22.3819 36.6672 22.3578C36.9068 22.3087 37.1536 22.3087 37.3938 22.3578C37.5129 22.3819 37.6297 22.4171 37.7408 22.4639C37.8526 22.5108 37.96 22.5694 38.0624 22.6367C38.1633 22.7063 38.2598 22.7832 38.3447 22.871C38.4304 22.9574 38.5088 23.0526 38.5756 23.1558C38.6423 23.2569 38.6997 23.366 38.7462 23.4787C38.7926 23.593 38.8282 23.7108 38.8521 23.8287C38.8761 23.951 38.8877 24.0747 38.8877 24.1963C38.8877 24.3178 38.8768 24.4416 38.8521 24.5616C38.8282 24.6817 38.7926 24.7996 38.7462 24.9123C38.6997 25.0266 38.6423 25.1349 38.5756 25.2367C38.5088 25.3392 38.4304 25.4351 38.3447 25.5215C38.2598 25.6079 38.1625 25.6863 38.0624 25.7536C37.9607 25.821 37.8526 25.8795 37.7408 25.9264C37.6297 25.9733 37.5129 26.0084 37.3938 26.0333C37.2726 26.0575 37.1521 26.0706 37.0316 26.0706C36.9089 26.0706 36.7877 26.0575 36.6672 26.0333C36.5482 26.0084 36.4328 25.9733 36.3195 25.9264C36.2077 25.8795 36.1003 25.821 36.0001 25.7536C35.8978 25.6863 35.8012 25.6079 35.7156 25.5215C35.6299 25.4351 35.5523 25.3392 35.4855 25.2367Z" stroke="white" stroke-width="0.8" mask="url(#path-1-inside-1)"/>
<path d="M8.26562 8.55476C8.19884 8.45299 8.14077 8.34463 8.09431 8.23041C8.04786 8.11765 8.01302 7.99977 7.98906 7.87969C7.96438 7.75962 7.95349 7.63588 7.95349 7.51434C7.95349 7.3928 7.96438 7.26906 7.98906 7.14679C8.01302 7.0289 8.04786 6.91102 8.09431 6.7968C8.14077 6.68405 8.19884 6.57495 8.26562 6.47391C8.3324 6.37068 8.4108 6.27549 8.49573 6.1891C8.58138 6.1027 8.67647 6.02436 8.77882 5.9548C8.87899 5.88744 8.98642 5.82887 9.09966 5.78201C9.21145 5.73515 9.32831 5.7 9.44736 5.67584C9.6869 5.62678 9.93443 5.62678 10.174 5.67584C10.293 5.7 10.4084 5.73515 10.5217 5.78201C10.6327 5.82887 10.7409 5.88744 10.8411 5.9548C10.9434 6.02436 11.0378 6.1027 11.1234 6.1891C11.2091 6.27549 11.2875 6.37068 11.3557 6.47391C11.4225 6.57495 11.4806 6.68405 11.527 6.7968C11.5735 6.91102 11.6083 7.0289 11.633 7.14679C11.6569 7.26906 11.6678 7.3928 11.6678 7.51434C11.6678 7.63588 11.6569 7.75962 11.633 7.87969C11.6083 7.99977 11.5735 8.11765 11.527 8.23041C11.4806 8.34463 11.4225 8.45299 11.3557 8.55476C11.2875 8.65727 11.2091 8.75318 11.1234 8.83958C11.0378 8.92598 10.9434 9.00432 10.8411 9.07168C10.7409 9.13904 10.6327 9.19761 10.5217 9.24447C10.4099 9.29133 10.293 9.32648 10.174 9.35137C10.0535 9.37553 9.93007 9.38871 9.80957 9.38871C9.68908 9.38871 9.5664 9.37553 9.44736 9.35137C9.32831 9.32648 9.21145 9.29133 9.09966 9.24447C8.98642 9.19761 8.87899 9.13904 8.77882 9.07168C8.67647 9.00432 8.58138 8.92598 8.49573 8.83958C8.4108 8.75318 8.3324 8.65727 8.26562 8.55476Z" stroke="white" stroke-width="0.8" mask="url(#path-1-inside-1)"/>
<path d="M53.8895 9.38871H19.3259C18.2995 9.38871 17.4676 8.54891 17.4676 7.51434C17.4676 6.47904 18.2995 5.63996 19.3259 5.63996H53.8895C54.9159 5.63996 55.7478 6.47904 55.7478 7.51434C55.7478 8.54891 54.9159 9.38871 53.8895 9.38871Z" stroke="white" stroke-width="0.8" mask="url(#path-1-inside-1)"/>
<path d="M52.7746 71.2563H32.3337C31.3073 71.2563 30.4754 72.0953 30.4754 73.1306C30.4754 74.1652 31.3073 75.005 32.3337 75.005H52.7746C53.8009 75.005 54.6328 74.1652 54.6328 73.1306C54.6328 72.0953 53.8009 71.2563 52.7746 71.2563Z" stroke="white" stroke-width="0.8" mask="url(#path-1-inside-1)"/>
<path d="M32.3337 78.7538H52.7746C53.8009 78.7538 54.6328 79.5928 54.6328 80.6281C54.6328 81.6627 53.8009 82.5025 52.7746 82.5025H32.3337C31.3073 82.5025 30.4754 81.6627 30.4754 80.6281C30.4754 79.5928 31.3073 78.7538 32.3337 78.7538Z" stroke="white" stroke-width="0.8" mask="url(#path-1-inside-1)"/>
<path fill-rule="evenodd" clip-rule="evenodd" d="M16.5385 71.2563C13.4644 71.2563 10.9637 73.7786 10.9637 76.8794C10.9637 79.9801 13.4644 82.5025 16.5385 82.5025C19.6126 82.5025 22.1133 79.9801 22.1133 76.8794C22.1133 73.7786 19.6126 71.2563 16.5385 71.2563ZM16.5385 78.7538C15.5136 78.7538 14.6802 77.9132 14.6802 76.8794C14.6802 75.8455 15.5136 75.005 16.5385 75.005C17.5634 75.005 18.3968 75.8455 18.3968 76.8794C18.3968 77.9132 17.5634 78.7538 16.5385 78.7538Z" stroke="white" stroke-width="0.8" mask="url(#path-1-inside-1)"/>
<path d="M15.6094 45.015H8.17634C7.14994 45.015 6.31808 44.1752 6.31808 43.1406C6.31808 42.1053 7.14994 41.2663 8.17634 41.2663H15.6094C16.6358 41.2663 17.4676 42.1053 17.4676 43.1406C17.4676 44.1752 16.6358 45.015 15.6094 45.015Z" stroke="white" stroke-width="0.8" mask="url(#path-1-inside-1)"/>
<path d="M8.17634 52.4971H23.0424C24.0688 52.4971 24.9007 51.6581 24.9007 50.6228C24.9007 49.5882 24.0688 48.7484 23.0424 48.7484H8.17634C7.14994 48.7484 6.31808 49.5882 6.31808 50.6228C6.31808 51.6581 7.14994 52.4971 8.17634 52.4971Z" stroke="white" stroke-width="0.8" mask="url(#path-1-inside-1)"/>
<path d="M19.3259 56.2613C20.3523 56.2613 21.1842 57.1003 21.1842 58.1356C21.1842 59.1709 20.3523 60.01 19.3259 60.01H8.17634C7.14994 60.01 6.31808 59.1702 6.31808 58.1356C6.31808 57.1003 7.14994 56.2613 8.17634 56.2613H19.3259Z" stroke="white" stroke-width="0.8" mask="url(#path-1-inside-1)"/>
<path fill-rule="evenodd" clip-rule="evenodd" d="M27.6953 23.1558C27.7621 23.2569 27.8202 23.366 27.8666 23.4787C27.9131 23.593 27.9479 23.7108 27.9726 23.8287C27.9966 23.951 28.0096 24.0747 28.0096 24.1963C28.0096 24.3178 27.9966 24.4416 27.9726 24.5616C27.9479 24.6817 27.9131 24.7996 27.8666 24.9123C27.8202 25.0266 27.7621 25.1349 27.6953 25.2367C27.6271 25.3392 27.5509 25.4351 27.463 25.5215C27.3774 25.6079 27.283 25.6863 27.1807 25.7536C27.0805 25.821 26.9723 25.8795 26.8613 25.9264C26.7495 25.9733 26.6326 26.0084 26.5136 26.0333C26.3931 26.0575 26.2719 26.0706 26.1514 26.0706C26.0287 26.0706 25.906 26.0575 25.787 26.0333C25.6679 26.0084 25.5511 25.9733 25.4393 25.9264C25.3282 25.8795 25.2186 25.821 25.1184 25.7536C25.0175 25.6863 24.921 25.6079 24.8353 25.5215C24.7497 25.4351 24.672 25.3392 24.6052 25.2367C24.5385 25.1349 24.4804 25.0266 24.4339 24.9123C24.3875 24.7996 24.3526 24.6817 24.3287 24.5616C24.304 24.4416 24.2909 24.3178 24.2909 24.1963C24.2909 24.0747 24.304 23.951 24.3287 23.8287C24.3526 23.7108 24.3875 23.593 24.4339 23.4787C24.4804 23.366 24.5385 23.2569 24.6052 23.1558C24.672 23.0526 24.7497 22.9574 24.8353 22.871C24.921 22.7846 25.0175 22.7063 25.1184 22.6367C25.2201 22.5694 25.3282 22.5108 25.4393 22.4639C25.5511 22.4171 25.6679 22.3819 25.787 22.3578C26.0265 22.3087 26.274 22.3087 26.5136 22.3578C26.6326 22.3819 26.7495 22.4171 26.8613 22.4639C26.9723 22.5108 27.0805 22.5694 27.1807 22.6367C27.283 22.7063 27.3774 22.7846 27.463 22.871C27.5509 22.9574 27.6271 23.0526 27.6953 23.1558ZM31.5904 26.0706C32.0789 26.0706 32.5587 25.87 32.9042 25.5215C33.2498 25.173 33.4487 24.689 33.4487 24.1963C33.4487 24.0747 33.4356 23.951 33.4116 23.8287C33.3877 23.7108 33.3521 23.593 33.3057 23.4787C33.2592 23.366 33.2019 23.2569 33.1344 23.1558C33.0676 23.0526 32.9899 22.9574 32.9042 22.871C32.4731 22.4339 31.8299 22.2355 31.2282 22.3578C31.1091 22.3819 30.9923 22.4171 30.879 22.4639C30.7673 22.5108 30.6591 22.5694 30.5589 22.6367C30.4566 22.7063 30.3622 22.7846 30.2766 22.871C30.1909 22.9574 30.1132 23.0526 30.0443 23.1558C29.9775 23.2569 29.9194 23.366 29.873 23.4787C29.8265 23.593 29.7917 23.7108 29.767 23.8287C29.743 23.951 29.7321 24.0747 29.7321 24.1963C29.7321 24.3178 29.743 24.4416 29.767 24.5616C29.7917 24.6817 29.8287 24.7996 29.8751 24.9123C29.9216 25.0266 29.9789 25.1349 30.0457 25.2367C30.1132 25.3392 30.1909 25.4351 30.2766 25.5215C30.3622 25.6079 30.4566 25.6863 30.5589 25.7536C30.6591 25.821 30.7673 25.8795 30.879 25.9264C30.9923 25.9733 31.1091 26.0084 31.2282 26.0333C31.3472 26.0575 31.4699 26.0706 31.5904 26.0706ZM35.4855 25.2367C35.4187 25.1349 35.3606 25.0266 35.3142 24.9123C35.2677 24.7996 35.2329 24.6817 35.2082 24.5616C35.1842 24.4416 35.1712 24.3178 35.1712 24.1963C35.1712 24.0747 35.1842 23.951 35.2082 23.8287C35.2329 23.7108 35.2677 23.593 35.3142 23.4787C35.3606 23.366 35.4187 23.2569 35.4855 23.1558C35.5523 23.0526 35.6299 22.9574 35.7156 22.871C35.8012 22.7832 35.8978 22.7063 36.0001 22.6367C36.1003 22.5694 36.2077 22.5108 36.3195 22.4639C36.4328 22.4171 36.5482 22.3819 36.6672 22.3578C36.9068 22.3087 37.1536 22.3087 37.3938 22.3578C37.5129 22.3819 37.6297 22.4171 37.7408 22.4639C37.8526 22.5108 37.96 22.5694 38.0624 22.6367C38.1633 22.7063 38.2598 22.7832 38.3447 22.871C38.4304 22.9574 38.5088 23.0526 38.5756 23.1558C38.6423 23.2569 38.6997 23.366 38.7462 23.4787C38.7926 23.593 38.8282 23.7108 38.8521 23.8287C38.8761 23.951 38.8877 24.0747 38.8877 24.1963C38.8877 24.3178 38.8768 24.4416 38.8521 24.5616C38.8282 24.6817 38.7926 24.7996 38.7462 24.9123C38.6997 25.0266 38.6423 25.1349 38.5756 25.2367C38.5088 25.3392 38.4304 25.4351 38.3447 25.5215C38.2598 25.6079 38.1625 25.6863 38.0624 25.7536C37.9607 25.821 37.8526 25.8795 37.7408 25.9264C37.6297 25.9733 37.5129 26.0084 37.3938 26.0333C37.2726 26.0575 37.1521 26.0706 37.0316 26.0706C36.9089 26.0706 36.7877 26.0575 36.6672 26.0333C36.5482 26.0084 36.4328 25.9733 36.3195 25.9264C36.2077 25.8795 36.1003 25.821 36.0001 25.7536C35.8978 25.6863 35.8012 25.6079 35.7156 25.5215C35.6299 25.4351 35.5523 25.3392 35.4855 25.2367ZM8.09431 8.23041C8.14077 8.34463 8.19884 8.45299 8.26562 8.55476C8.3324 8.65727 8.4108 8.75318 8.49573 8.83958C8.58138 8.92598 8.67647 9.00432 8.77882 9.07168C8.87899 9.13904 8.98642 9.19761 9.09966 9.24447C9.21145 9.29133 9.32831 9.32648 9.44736 9.35137C9.5664 9.37553 9.68908 9.38871 9.80957 9.38871C9.93007 9.38871 10.0535 9.37553 10.174 9.35137C10.293 9.32648 10.4099 9.29133 10.5217 9.24447C10.6327 9.19761 10.7409 9.13904 10.8411 9.07168C10.9434 9.00432 11.0378 8.92598 11.1234 8.83958C11.2091 8.75318 11.2875 8.65727 11.3557 8.55476C11.4225 8.45299 11.4806 8.34463 11.527 8.23041C11.5735 8.11765 11.6083 7.99977 11.633 7.87969C11.6569 7.75962 11.6678 7.63588 11.6678 7.51434C11.6678 7.3928 11.6569 7.26906 11.633 7.14679C11.6083 7.0289 11.5735 6.91102 11.527 6.7968C11.4806 6.68405 11.4225 6.57495 11.3557 6.47391C11.2875 6.37068 11.2091 6.27549 11.1234 6.1891C11.0378 6.1027 10.9434 6.02436 10.8411 5.9548C10.7409 5.88744 10.6327 5.82887 10.5217 5.78201C10.4084 5.73515 10.293 5.7 10.174 5.67584C9.93443 5.62678 9.6869 5.62678 9.44736 5.67584C9.32831 5.7 9.21145 5.73515 9.09966 5.78201C8.98642 5.82887 8.87899 5.88744 8.77882 5.9548C8.67647 6.02436 8.58138 6.1027 8.49573 6.1891C8.4108 6.27549 8.3324 6.37068 8.26562 6.47391C8.19884 6.57495 8.14077 6.68405 8.09431 6.7968C8.04786 6.91102 8.01302 7.0289 7.98906 7.14679C7.96438 7.26906 7.95349 7.3928 7.95349 7.51434C7.95349 7.63588 7.96438 7.75962 7.98906 7.87969C8.01302 7.99977 8.04786 8.11765 8.09431 8.23041ZM19.3259 9.38871H53.8895C54.9159 9.38871 55.7478 8.54891 55.7478 7.51434C55.7478 6.47904 54.9159 5.63996 53.8895 5.63996H19.3259C18.2995 5.63996 17.4676 6.47904 17.4676 7.51434C17.4676 8.54891 18.2995 9.38871 19.3259 9.38871Z" stroke="white" stroke-width="0.8" mask="url(#path-1-inside-1)"/>
<path fill-rule="evenodd" clip-rule="evenodd" d="M63.1808 4.12362V11.2462V14.995V16.8862V20.635V22.4925V26.2412V78.7538V82.5025V85.8764C63.1808 88.1498 61.3472 90 59.0926 90H4.08817C1.83358 90 0 88.1498 0 85.8764V82.5025V78.7538V26.2412V22.4925V14.995V11.2462V4.12362C0 1.84948 1.83358 0 4.08817 0H59.0926C61.3472 0 63.1808 1.84948 63.1808 4.12362ZM3.71652 14.995H59.4643V33.7688H3.71652V14.995ZM59.4643 39.4812V61.1214V63.7741H56.838H35.9827H33.4487V61.0255V40.1695V37.5175H36.0749H56.1717H59.4643V39.4812ZM4.08817 3.74875H59.0926C59.2944 3.74875 59.4643 3.92008 59.4643 4.12362V11.2462H3.71652V4.12362C3.71652 3.92008 3.88637 3.74875 4.08817 3.74875ZM59.4643 85.8764C59.4643 86.0792 59.2944 86.2513 59.0926 86.2513H4.08817C3.88637 86.2513 3.71652 86.0792 3.71652 85.8764V67.5229H7.72557H22.5916H59.4643V85.8764ZM7.72557 63.7741H3.71652V37.5175H29.7321V63.7741H22.5916H7.72557Z" stroke="white" stroke-width="0.8" mask="url(#path-1-inside-1)"/>
<path fill-rule="evenodd" clip-rule="evenodd" d="M8.17634 45.015H15.6094C16.6358 45.015 17.4676 44.1752 17.4676 43.1406C17.4676 42.1053 16.6358 41.2663 15.6094 41.2663H8.17634C7.14994 41.2663 6.31808 42.1053 6.31808 43.1406C6.31808 44.1752 7.14994 45.015 8.17634 45.015ZM24.9007 50.6228C24.9007 51.6581 24.0688 52.4971 23.0424 52.4971H8.17634C7.14994 52.4971 6.31808 51.6581 6.31808 50.6228C6.31808 49.5882 7.14994 48.7484 8.17634 48.7484H23.0424C24.0688 48.7484 24.9007 49.5882 24.9007 50.6228ZM21.1842 58.1356C21.1842 57.1003 20.3523 56.2613 19.3259 56.2613H8.17634C7.14994 56.2613 6.31808 57.1003 6.31808 58.1356C6.31808 59.1702 7.14994 60.01 8.17634 60.01H19.3259C20.3523 60.01 21.1842 59.1709 21.1842 58.1356ZM52.7746 71.2563H32.3337C31.3073 71.2563 30.4754 72.0953 30.4754 73.1306C30.4754 74.1652 31.3073 75.005 32.3337 75.005H52.7746C53.8009 75.005 54.6328 74.1652 54.6328 73.1306C54.6328 72.0953 53.8009 71.2563 52.7746 71.2563ZM32.3337 78.7538H52.7746C53.8009 78.7538 54.6328 79.5928 54.6328 80.6281C54.6328 81.6627 53.8009 82.5025 52.7746 82.5025H32.3337C31.3073 82.5025 30.4754 81.6627 30.4754 80.6281C30.4754 79.5928 31.3073 78.7538 32.3337 78.7538ZM16.5385 71.2563C13.4644 71.2563 10.9637 73.7786 10.9637 76.8794C10.9637 79.9801 13.4644 82.5025 16.5385 82.5025C19.6126 82.5025 22.1133 79.9801 22.1133 76.8794C22.1133 73.7786 19.6126 71.2563 16.5385 71.2563ZM27.8666 23.4787C27.8202 23.366 27.7621 23.2569 27.6953 23.1558C27.6271 23.0526 27.5509 22.9574 27.463 22.871C27.3774 22.7846 27.283 22.7063 27.1807 22.6367C27.0805 22.5694 26.9723 22.5108 26.8613 22.4639C26.7495 22.4171 26.6326 22.3819 26.5136 22.3578C26.274 22.3087 26.0265 22.3087 25.787 22.3578C25.6679 22.3819 25.5511 22.4171 25.4393 22.4639C25.3282 22.5108 25.2201 22.5694 25.1184 22.6367C25.0175 22.7063 24.921 22.7846 24.8353 22.871C24.7497 22.9574 24.672 23.0526 24.6052 23.1558C24.5385 23.2569 24.4804 23.366 24.4339 23.4787C24.3875 23.593 24.3526 23.7108 24.3287 23.8287C24.304 23.951 24.2909 24.0747 24.2909 24.1963C24.2909 24.3178 24.304 24.4416 24.3287 24.5616C24.3526 24.6817 24.3875 24.7996 24.4339 24.9123C24.4804 25.0266 24.5385 25.1349 24.6052 25.2367C24.672 25.3392 24.7497 25.4351 24.8353 25.5215C24.921 25.6079 25.0175 25.6863 25.1184 25.7536C25.2186 25.821 25.3282 25.8795 25.4393 25.9264C25.5511 25.9733 25.6679 26.0084 25.787 26.0333C25.906 26.0575 26.0287 26.0706 26.1514 26.0706C26.2719 26.0706 26.3931 26.0575 26.5136 26.0333C26.6326 26.0084 26.7495 25.9733 26.8613 25.9264C26.9723 25.8795 27.0805 25.821 27.1807 25.7536C27.283 25.6863 27.3774 25.6079 27.463 25.5215C27.5509 25.4351 27.6271 25.3392 27.6953 25.2367C27.7621 25.1349 27.8202 25.0266 27.8666 24.9123C27.9131 24.7996 27.9479 24.6817 27.9726 24.5616C27.9966 24.4416 28.0096 24.3178 28.0096 24.1963C28.0096 24.0747 27.9966 23.951 27.9726 23.8287C27.9479 23.7108 27.9131 23.593 27.8666 23.4787ZM32.9042 25.5215C32.5587 25.87 32.0789 26.0706 31.5904 26.0706C31.4699 26.0706 31.3472 26.0575 31.2282 26.0333C31.1091 26.0084 30.9923 25.9733 30.879 25.9264C30.7673 25.8795 30.6591 25.821 30.5589 25.7536C30.4566 25.6863 30.3622 25.6079 30.2766 25.5215C30.1909 25.4351 30.1132 25.3392 30.0457 25.2367C29.9789 25.1349 29.9216 25.0266 29.8751 24.9123C29.8287 24.7996 29.7917 24.6817 29.767 24.5616C29.743 24.4416 29.7321 24.3178 29.7321 24.1963C29.7321 24.0747 29.743 23.951 29.767 23.8287C29.7917 23.7108 29.8265 23.593 29.873 23.4787C29.9194 23.366 29.9775 23.2569 30.0443 23.1558C30.1132 23.0526 30.1909 22.9574 30.2766 22.871C30.3622 22.7846 30.4566 22.7063 30.5589 22.6367C30.6591 22.5694 30.7673 22.5108 30.879 22.4639C30.9923 22.4171 31.1091 22.3819 31.2282 22.3578C31.8299 22.2355 32.4731 22.4339 32.9042 22.871C32.9899 22.9574 33.0676 23.0526 33.1344 23.1558C33.2019 23.2569 33.2592 23.366 33.3057 23.4787C33.3521 23.593 33.3877 23.7108 33.4116 23.8287C33.4356 23.951 33.4487 24.0747 33.4487 24.1963C33.4487 24.689 33.2498 25.173 32.9042 25.5215ZM35.3142 24.9123C35.3606 25.0266 35.4187 25.1349 35.4855 25.2367C35.5523 25.3392 35.6299 25.4351 35.7156 25.5215C35.8012 25.6079 35.8978 25.6863 36.0001 25.7536C36.1003 25.821 36.2077 25.8795 36.3195 25.9264C36.4328 25.9733 36.5482 26.0084 36.6672 26.0333C36.7877 26.0575 36.9089 26.0706 37.0316 26.0706C37.1521 26.0706 37.2726 26.0575 37.3938 26.0333C37.5129 26.0084 37.6297 25.9733 37.7408 25.9264C37.8526 25.8795 37.9607 25.821 38.0624 25.7536C38.1625 25.6863 38.2598 25.6079 38.3447 25.5215C38.4304 25.4351 38.5088 25.3392 38.5756 25.2367C38.6423 25.1349 38.6997 25.0266 38.7462 24.9123C38.7926 24.7996 38.8282 24.6817 38.8521 24.5616C38.8768 24.4416 38.8877 24.3178 38.8877 24.1963C38.8877 24.0747 38.8761 23.951 38.8521 23.8287C38.8282 23.7108 38.7926 23.593 38.7462 23.4787C38.6997 23.366 38.6423 23.2569 38.5756 23.1558C38.5088 23.0526 38.4304 22.9574 38.3447 22.871C38.2598 22.7832 38.1633 22.7063 38.0624 22.6367C37.96 22.5694 37.8526 22.5108 37.7408 22.4639C37.6297 22.4171 37.5129 22.3819 37.3938 22.3578C37.1536 22.3087 36.9068 22.3087 36.6672 22.3578C36.5482 22.3819 36.4328 22.4171 36.3195 22.4639C36.2077 22.5108 36.1003 22.5694 36.0001 22.6367C35.8978 22.7063 35.8012 22.7832 35.7156 22.871C35.6299 22.9574 35.5523 23.0526 35.4855 23.1558C35.4187 23.2569 35.3606 23.366 35.3142 23.4787C35.2677 23.593 35.2329 23.7108 35.2082 23.8287C35.1842 23.951 35.1712 24.0747 35.1712 24.1963C35.1712 24.3178 35.1842 24.4416 35.2082 24.5616C35.2329 24.6817 35.2677 24.7996 35.3142 24.9123ZM8.26562 8.55476C8.19884 8.45299 8.14077 8.34463 8.09431 8.23041C8.04786 8.11765 8.01302 7.99977 7.98906 7.87969C7.96438 7.75962 7.95349 7.63588 7.95349 7.51434C7.95349 7.3928 7.96438 7.26906 7.98906 7.14679C8.01302 7.0289 8.04786 6.91102 8.09431 6.7968C8.14077 6.68405 8.19884 6.57495 8.26562 6.47391C8.3324 6.37068 8.4108 6.27549 8.49573 6.1891C8.58138 6.1027 8.67647 6.02436 8.77882 5.9548C8.87899 5.88744 8.98642 5.82887 9.09966 5.78201C9.21145 5.73515 9.32831 5.7 9.44736 5.67584C9.6869 5.62678 9.93443 5.62678 10.174 5.67584C10.293 5.7 10.4084 5.73515 10.5217 5.78201C10.6327 5.82887 10.7409 5.88744 10.8411 5.9548C10.9434 6.02436 11.0378 6.1027 11.1234 6.1891C11.2091 6.27549 11.2875 6.37068 11.3557 6.47391C11.4225 6.57495 11.4806 6.68405 11.527 6.7968C11.5735 6.91102 11.6083 7.0289 11.633 7.14679C11.6569 7.26906 11.6678 7.3928 11.6678 7.51434C11.6678 7.63588 11.6569 7.75962 11.633 7.87969C11.6083 7.99977 11.5735 8.11765 11.527 8.23041C11.4806 8.34463 11.4225 8.45299 11.3557 8.55476C11.2875 8.65727 11.2091 8.75318 11.1234 8.83958C11.0378 8.92598 10.9434 9.00432 10.8411 9.07168C10.7409 9.13904 10.6327 9.19761 10.5217 9.24447C10.4099 9.29133 10.293 9.32648 10.174 9.35137C10.0535 9.37553 9.93007 9.38871 9.80957 9.38871C9.68908 9.38871 9.5664 9.37553 9.44736 9.35137C9.32831 9.32648 9.21145 9.29133 9.09966 9.24447C8.98642 9.19761 8.87899 9.13904 8.77882 9.07168C8.67647 9.00432 8.58138 8.92598 8.49573 8.83958C8.4108 8.75318 8.3324 8.65727 8.26562 8.55476ZM53.8895 9.38871H19.3259C18.2995 9.38871 17.4676 8.54891 17.4676 7.51434C17.4676 6.47904 18.2995 5.63996 19.3259 5.63996H53.8895C54.9159 5.63996 55.7478 6.47904 55.7478 7.51434C55.7478 8.54891 54.9159 9.38871 53.8895 9.38871ZM16.5385 78.7538C15.5136 78.7538 14.6802 77.9132 14.6802 76.8794C14.6802 75.8455 15.5136 75.005 16.5385 75.005C17.5634 75.005 18.3968 75.8455 18.3968 76.8794C18.3968 77.9132 17.5634 78.7538 16.5385 78.7538Z" stroke="white" stroke-width="0.8" mask="url(#path-1-inside-1)"/>
</svg>
