<svg width="64" height="100" viewBox="0 0 64 100" fill="none" xmlns="http://www.w3.org/2000/svg">
<path d="M11.5729 99L10.6473 98.6216L10.0838 100H11.5729V99ZM30.2604 99V100H30.933L31.1866 99.377L30.2604 99ZM62.8958 18.8333L63.822 19.2104L63.8958 19.0291V18.8333H62.8958ZM62.8958 1.49999H63.8958V0.499992H62.8958V1.49999ZM1.41667 1.49999V0.499992H0.416667V1.49999H1.41667ZM1.41667 18.8333H0.416667V19.8333H1.41667V18.8333ZM44.3438 18.8333L45.2694 19.2117L45.8329 17.8333H44.3438V18.8333ZM11.5729 100H30.2604V98H11.5729V100ZM31.1866 99.377L63.822 19.2104L61.9696 18.4563L29.3342 98.623L31.1866 99.377ZM63.8958 18.8333V1.49999H61.8958V18.8333H63.8958ZM62.8958 0.499992H1.41667V2.49999H62.8958V0.499992ZM0.416667 1.49999V18.8333H2.41667V1.49999H0.416667ZM1.41667 19.8333H44.3438V17.8333H1.41667V19.8333ZM43.4181 18.4549L10.6473 98.6216L12.4986 99.3784L45.2694 19.2117L43.4181 18.4549Z" fill="#xxx" fill-opacity="0.8"/>
</svg>
