<svg width="23" height="30" viewBox="0 0 23 30" fill="none" xmlns="http://www.w3.org/2000/svg">
<path d="M11.4995 0C5.15899 0 0 4.95477 0 11.0449C0 12.6335 0.338541 14.1502 1.00571 15.5533C3.88091 21.5958 9.39347 27.9755 11.0149 29.7866C11.1364 29.922 11.3135 30 11.4998 30C11.6862 30 11.8633 29.922 11.9848 29.7866C13.6056 27.9758 19.1181 21.5964 21.9943 15.5533C22.6618 14.1502 23 12.6335 23 11.0449C22.9994 4.95477 17.8404 0 11.4995 0Z" fill="#F8BA19"/>
<path d="M13.4756 18H11.5V10.3848L9.1416 11.1162V9.50977L13.2637 8.0332H13.4756V18Z" fill="white"/>
</svg>
