<svg xmlns="http://www.w3.org/2000/svg" width="15.063" height="8" viewBox="0 0 15.063 8">
  <metadata><?xpacket begin="﻿" id="W5M0MpCehiHzreSzNTczkc9d"?>
<x:xmpmeta xmlns:x="adobe:ns:meta/" x:xmptk="Adobe XMP Core 5.6-c138 79.159824, 2016/09/14-01:09:01        ">
   <rdf:RDF xmlns:rdf="http://www.w3.org/1999/02/22-rdf-syntax-ns#">
      <rdf:Description rdf:about=""/>
   </rdf:RDF>
</x:xmpmeta>
<?xpacket end="w"?></metadata>
<defs>
  </defs>
  <path fill="#xxx" id="Forma_1_копия" data-name="Forma 1 копия" class="cls-1" d="M919.5,2460.25a0.528,0.528,0,0,0-.752,0l-6.605,6.59-6.619-6.59a0.531,0.531,0,1,0-.751.75l6.981,6.95a0.5,0.5,0,0,0,.376.16,0.518,0.518,0,0,0,.375-0.16l6.982-6.95A0.519,0.519,0,0,0,919.5,2460.25Z" transform="translate(-904.625 -2460.09)"/>
</svg>
