<?xml version="1.0" encoding="utf-8"?>
<!-- Generator: Adobe Illustrator 22.0.1, SVG Export Plug-In . SVG Version: 6.00 Build 0)  -->
<svg version="1.1" id="Layer_1" xmlns="http://www.w3.org/2000/svg" xmlns:xlink="http://www.w3.org/1999/xlink" x="0px" y="0px"
	 viewBox="0 0 17 12" enable-background="new 0 0 17 12" xml:space="preserve">
<path id="arrow-left-direction" fill="#xxx" d="M5.6,0.2c0.2-0.2,0.6-0.2,0.9,0c0.2,0.2,0.2,0.6,0,0.9L2.1,5.4h14.3
    C16.7,5.4,17,5.7,17,6c0,0.3-0.3,0.6-0.6,0.6H2.1L6.4,11c0.2,0.2,0.2,0.6,0,0.9c-0.2,0.2-0.6,0.2-0.9,0L0.2,6.4
    c-0.2-0.2-0.2-0.6,0-0.9L5.6,0.2z"/>
</svg>
