<svg width="72" height="106" viewBox="0 0 72 106" fill="none" xmlns="http://www.w3.org/2000/svg">
<path d="M4.69792 30.5L3.19935 30.4339L3.19903 30.4424L4.69792 30.5ZM7.13542 42.1458L5.75908 42.7422L5.76324 42.7518L5.76754 42.7614L7.13542 42.1458ZM12.2812 49.5938L13.2722 50.7198L14.3998 49.7276L13.406 48.6013L12.2812 49.5938ZM4.5625 60.2917L3.17645 59.7181L3.1728 59.7271L4.5625 60.2917ZM12.9583 96.4479L13.9237 95.2999L13.9178 95.2949L13.9119 95.29L12.9583 96.4479ZM59.4062 96.4479L58.4612 95.2831L58.4535 95.2893L58.446 95.2956L59.4062 96.4479ZM70.2396 72.75L68.7405 72.6983L68.7402 72.7072L70.2396 72.75ZM67.8021 60.2917L69.1918 59.7271L69.1881 59.7181L67.8021 60.2917ZM60.0833 49.5938L58.9586 48.6013L57.9648 49.7276L59.0924 50.7198L60.0833 49.5938ZM65.0938 42.1458L63.7345 41.5115L63.7301 41.5209L63.7259 41.5303L65.0938 42.1458ZM56.8333 8.56249L55.9104 9.74496L55.9312 9.76117L55.9525 9.77663L56.8333 8.56249ZM15.5312 8.56249L16.4053 9.78154L16.4251 9.76731L16.4445 9.75246L15.5312 8.56249ZM36.1146 19.6667L36.0546 18.1679L36.0521 18.168L36.1146 19.6667ZM44.9167 22.5104L43.9289 23.6393H43.9289L44.9167 22.5104ZM48.0313 30.5L49.53 30.5624L48.0313 30.5ZM44.9167 38.4896L43.9289 37.3607H43.9289L44.9167 38.4896ZM27.4479 38.4896L28.4357 37.3607L28.4188 37.3459L28.4015 37.3317L27.4479 38.4896ZM27.4479 22.5104L28.4015 23.6683L28.4188 23.654L28.4357 23.6393L27.4479 22.5104ZM46.8125 62.4583L45.7518 63.519L45.7797 63.5469L45.8091 63.5733L46.8125 62.4583ZM46.8125 83.0417L47.8441 84.1306L47.8456 84.1292L46.8125 83.0417ZM25.4167 83.0417L24.3835 84.1292L24.3982 84.1431L24.4132 84.1566L25.4167 83.0417ZM25.4167 62.4583L26.4201 63.5733L26.4351 63.5598L26.4498 63.5458L25.4167 62.4583ZM3.19903 30.4424C3.05356 34.2245 3.92531 38.5105 5.75908 42.7422L8.51175 41.5494C6.82469 37.6562 6.07144 33.8171 6.19681 30.5576L3.19903 30.4424ZM5.76754 42.7614C7.08036 45.6788 9.09674 48.2518 11.1565 50.5862L13.406 48.6013C11.4033 46.3315 9.62797 44.0295 8.5033 41.5303L5.76754 42.7614ZM11.2903 48.4677C7.73739 51.5942 4.89155 55.5734 3.17648 59.7181L5.94853 60.8652C7.48345 57.1558 10.0543 53.5516 13.2722 50.7198L11.2903 48.4677ZM3.1728 59.7271C1.33347 64.2547 0.625 68.6462 0.625 72.75H3.625C3.625 68.9996 4.2707 64.9953 5.9522 60.8562L3.1728 59.7271ZM0.625 72.75C0.625 82.2347 4.72537 91.611 12.0048 97.6058L13.9119 95.29C7.3788 89.9098 3.625 81.4111 3.625 72.75H0.625ZM11.9929 97.596C18.2859 102.888 27.4598 105.531 36.1146 105.531V102.531C27.9777 102.531 19.5474 100.029 13.9237 95.2999L11.9929 97.596ZM36.1146 105.531C44.4738 105.531 53.5192 103.306 60.3665 97.6003L58.446 95.2956C52.2933 100.423 44.0054 102.531 36.1146 102.531V105.531ZM60.3513 97.6128C67.936 91.4591 71.4584 82.6127 71.739 72.7928L68.7402 72.7072C68.4791 81.8456 65.2307 89.7909 58.4612 95.2831L60.3513 97.6128ZM71.7387 72.8017C71.8825 68.6304 71.018 64.2224 69.1918 59.7271L66.4124 60.8562C68.107 65.0276 68.8675 69.0154 68.7405 72.6983L71.7387 72.8017ZM69.1881 59.7181C67.473 55.5734 64.6272 51.5942 61.0743 48.4677L59.0924 50.7198C62.3103 53.5516 64.8811 57.1558 66.4161 60.8652L69.1881 59.7181ZM61.2081 50.5862C63.2985 48.2171 65.1604 45.6531 66.4616 42.7614L63.7259 41.5303C62.5896 44.0552 60.9307 46.3662 58.9586 48.6013L61.2081 50.5862ZM66.453 42.7802C68.4664 38.4657 69.0312 34.1724 69.0312 30.5H66.0312C66.0312 33.8693 65.5127 37.701 63.7345 41.5115L66.453 42.7802ZM69.0312 30.5C69.0312 21.4084 65.0523 12.6721 57.7142 7.34836L55.9525 9.77663C62.4269 14.4737 66.0312 22.2582 66.0312 30.5H69.0312ZM57.7562 7.38002C51.8501 2.77031 44.0313 0.968742 36.1146 0.968742V3.96874C43.6354 3.96874 50.7125 5.68801 55.9104 9.74496L57.7562 7.38002ZM36.1146 0.968742C28.7446 0.968742 20.7943 2.63264 14.618 7.37253L16.4445 9.75246C21.9141 5.55486 29.1304 3.96874 36.1146 3.96874V0.968742ZM14.6572 7.34345C7.01836 12.8204 3.62062 20.8857 3.19938 30.4339L6.19646 30.5661C6.58772 21.6976 9.68998 14.5963 16.4053 9.78154L14.6572 7.34345ZM36.1745 21.1655C39.2304 21.0432 42.0896 22.0299 43.9289 23.6393L45.9044 21.3815C43.4104 19.1993 39.7696 18.0193 36.0546 18.1679L36.1745 21.1655ZM43.9289 23.6393C45.6966 25.186 46.6525 27.56 46.5326 30.4376L49.53 30.5624C49.6809 26.9399 48.4701 23.6265 45.9044 21.3815L43.9289 23.6393ZM46.5326 30.4376C46.4042 33.5169 45.6432 35.8607 43.9289 37.3607L45.9044 39.6184C48.5235 37.3268 49.3874 33.9831 49.53 30.5624L46.5326 30.4376ZM43.9289 37.3607C42.1444 38.9222 39.3132 39.6979 36.1146 39.6979V42.6979C39.6868 42.6979 43.3556 41.8486 45.9044 39.6184L43.9289 37.3607ZM36.1146 39.6979C33.0592 39.6979 30.2242 38.9256 28.4357 37.3607L26.4602 39.6184C29.005 41.8452 32.67 42.6979 36.1146 42.6979V39.6979ZM28.4015 37.3317C26.5577 35.8133 25.6979 33.4711 25.6979 30.5H22.6979C22.6979 34.0289 23.7339 37.3742 26.4944 39.6475L28.4015 37.3317ZM25.6979 30.5C25.6979 27.5289 26.5577 25.1867 28.4015 23.6683L26.4944 21.3525C23.7339 23.6258 22.6979 26.9711 22.6979 30.5H25.6979ZM28.4357 23.6393C30.2289 22.0702 33.0735 21.2947 36.177 21.1654L36.0521 18.168C32.6557 18.3095 29.0002 19.159 26.4602 21.3815L28.4357 23.6393ZM36.1146 60.1667C39.932 60.1667 43.5524 61.3196 45.7518 63.519L47.8732 61.3977C44.9267 58.4512 40.4221 57.1667 36.1146 57.1667V60.1667ZM45.8091 63.5733C48.0983 65.6336 49.2396 68.9509 49.2396 72.75H52.2396C52.2396 68.4241 50.9434 64.1581 47.816 61.3434L45.8091 63.5733ZM49.2396 72.75C49.2396 76.3937 48.1082 79.7418 45.7794 81.9542L47.8456 84.1292C50.9335 81.1957 52.2396 76.9604 52.2396 72.75H49.2396ZM45.7809 81.9527C43.5735 84.0439 39.9326 85.1979 36.1146 85.1979V88.1979C40.4216 88.1979 44.9057 86.9144 47.8441 84.1306L45.7809 81.9527ZM36.1146 85.1979C32.3214 85.1979 28.7861 84.0561 26.4201 81.9267L24.4132 84.1566C27.4639 86.9023 31.7827 88.1979 36.1146 88.1979V85.1979ZM26.4498 81.9542C24.1439 79.7636 23.125 76.4363 23.125 72.75H20.125C20.125 76.9178 21.2728 81.1739 24.3835 84.1292L26.4498 81.9542ZM23.125 72.75C23.125 68.9072 24.1538 65.613 26.4201 63.5733L24.4132 61.3434C21.2629 64.1787 20.125 68.4678 20.125 72.75H23.125ZM26.4498 63.5458C28.8064 61.307 32.3227 60.1667 36.1146 60.1667V57.1667C31.7815 57.1667 27.4436 58.4638 24.3835 61.3708L26.4498 63.5458Z" fill="#EAEAEB"/>
</svg>
