<svg width="10" height="17" viewBox="0 0 10 17" version="1.1" xmlns="http://www.w3.org/2000/svg" xmlns:xlink="http://www.w3.org/1999/xlink">
    <g id="Canvas" fill="none">
        <g id="Vector">
            <path d="M 8.84496 0.00353713L 6.64044 0C 4.16374 0 2.56318 1.64211 2.56318 4.18372L 2.56318 6.1127L 0.346639 6.1127C 0.155103 6.1127 -5.93696e-08 6.26798 -5.93696e-08 6.45952L -5.93696e-08 9.25438C -5.93696e-08 9.44592 0.15528 9.60102 0.346639 9.60102L 2.56318 9.60102L 2.56318 16.6534C 2.56318 16.8449 2.71829 17 2.90982 17L 5.80178 17C 5.99332 17 6.14842 16.8447 6.14842 16.6534L 6.14842 9.60102L 8.74008 9.60102C 8.93162 9.60102 9.08672 9.44592 9.08672 9.25438L 9.08778 6.45952C 9.08778 6.36755 9.05117 6.27948 8.98627 6.21439C 8.92136 6.14931 8.83293 6.1127 8.74097 6.1127L 6.14842 6.1127L 6.14842 4.47748C 6.14842 3.69153 6.33572 3.29254 7.35954 3.29254L 8.8446 3.29201C 9.03596 3.29201 9.19107 3.13673 9.19107 2.94537L 9.19107 0.350176C 9.19107 0.158994 9.03614 0.00389085 8.84496 0.00353713Z" fill="#xxx"/>
        </g>
    </g>
</svg>

