<svg width="82" height="65" viewBox="0 0 82 65" fill="none" xmlns="http://www.w3.org/2000/svg">
<path d="M58.5339 34.9966C58.0045 34.3186 57.2075 33.9297 56.3473 33.9297H25.6525C24.7923 33.9297 23.9955 34.3186 23.4659 34.9966C22.9366 35.6747 22.7525 36.5421 22.9613 37.3766L23.6772 40.2404C23.9866 41.4774 25.0933 42.3415 26.3684 42.3415H55.6316C56.9067 42.3415 58.0133 41.4774 58.3228 40.2402L59.0387 37.3766C59.2473 36.5419 59.0633 35.6746 58.5339 34.9966ZM56.4342 36.7257L55.7183 39.5891C55.7083 39.6293 55.6727 39.6569 55.6316 39.6569H26.3684C26.3273 39.6569 26.2914 39.629 26.2816 39.5893L25.5656 36.7257C25.5623 36.713 25.555 36.6833 25.5819 36.649C25.6088 36.6146 25.6394 36.6146 25.6523 36.6146H56.3473C56.3605 36.6146 56.3909 36.6146 56.4178 36.649C56.4447 36.6833 56.4375 36.7129 56.4342 36.7257Z" fill="#F8BA19"/>
<path d="M76.7942 26.5927C79.1133 26.5927 81 24.7059 81 22.3869C81 20.0678 79.1133 18.1811 76.7942 18.1811H75.3625C73.2714 18.1811 71.5323 19.7155 71.2105 21.7172L67.6297 11.8698C66.8227 9.65 64.6934 8.15875 62.3316 8.15875H52.1227L51.367 4.38109C50.9755 2.42188 49.2408 1 47.243 1H34.7567C32.7589 1 31.0245 2.42188 30.6327 4.38109L29.8772 8.15875H19.6683C17.3064 8.15875 15.1772 9.65016 14.3702 11.8697L10.7895 21.717C10.4678 19.7155 8.72875 18.1811 6.63766 18.1811H5.20594C2.88672 18.1811 1 20.0678 1 22.3869C1 24.7059 2.88672 26.5927 5.20578 26.5927H6.6375C7.29859 26.5927 7.92422 26.4389 8.48141 26.1659L5.41266 30.002C4.41359 31.2508 3.86344 32.8191 3.86344 34.4181V61.0445C3.86344 62.5742 5.10781 63.8186 6.6375 63.8186H10.9328C12.4625 63.8186 13.7069 62.5742 13.7069 61.0445V55.228H68.293V61.0445C68.293 62.5742 69.5373 63.8186 71.067 63.8186H75.3623C76.892 63.8186 78.1364 62.5742 78.1364 61.0445V34.4181C78.1364 32.8191 77.5863 31.2506 76.5872 30.002L73.5184 26.1659C74.0756 26.4389 74.7012 26.5927 75.3623 26.5927H76.7942ZM6.63766 23.9081H5.20594C4.36703 23.9081 3.68469 23.2258 3.68469 22.3869C3.68469 21.548 4.36703 20.8656 5.20594 20.8656H6.63766C7.47656 20.8656 8.15891 21.548 8.15891 22.3869C8.15891 23.2256 7.47641 23.9081 6.63766 23.9081ZM33.2652 4.90734C33.4069 4.19875 34.0342 3.68438 34.7567 3.68438H47.243C47.9656 3.68438 48.593 4.19875 48.7345 4.90734L49.3848 8.15875H32.6148L33.2652 4.90734ZM11.0223 61.0445C11.0223 61.0939 10.9822 61.1341 10.9328 61.1341H6.6375C6.58813 61.1341 6.54797 61.0939 6.54797 61.0445V54.3902C7.40734 54.9208 8.41891 55.228 9.50094 55.228H11.0222L11.0223 61.0445ZM56.8389 52.5434H25.1611V49.5905C25.1611 49.5411 25.2012 49.5009 25.2506 49.5009H56.7495C56.7989 49.5009 56.8391 49.5411 56.8391 49.5905L56.8389 52.5434ZM75.4519 61.0445C75.4519 61.0939 75.4117 61.1341 75.3623 61.1341H71.067C71.0177 61.1341 70.9775 61.0939 70.9775 61.0445V55.228H72.4987C73.5808 55.228 74.5923 54.9208 75.4517 54.3902L75.4519 61.0445ZM74.4912 31.6791C75.1106 32.4536 75.452 33.4264 75.452 34.4183V49.5905C75.452 51.2188 74.1273 52.5434 72.4991 52.5434H59.5234V49.5905C59.5234 48.0608 58.2791 46.8164 56.7494 46.8164H25.2506C23.7209 46.8164 22.4766 48.0608 22.4766 49.5905V52.5434H9.50109C7.87281 52.5434 6.54812 51.2188 6.54812 49.5905V34.4183C6.54812 33.4264 6.88938 32.4536 7.50906 31.6791L11.578 26.5927H66.5906C67.3319 26.5927 67.933 25.9917 67.933 25.2503C67.933 24.5091 67.332 23.908 66.5906 23.908H12.8494L16.8934 12.7869C17.3161 11.6242 18.4314 10.8431 19.6686 10.8431H62.3317C63.5689 10.8431 64.6841 11.6244 65.1069 12.7869L69.1509 23.908H63.9086C63.1673 23.908 62.5662 24.5089 62.5662 25.2503C62.5662 25.9916 63.1672 26.5927 63.9086 26.5927H70.4223L74.4912 31.6791ZM73.8411 22.3869C73.8411 21.548 74.5234 20.8656 75.3623 20.8656H76.7941C77.633 20.8656 78.3153 21.548 78.3153 22.3869C78.3153 23.2258 77.633 23.9081 76.7941 23.9081H75.3623C74.5236 23.9081 73.8411 23.2256 73.8411 22.3869Z" fill="#F8BA19"/>
<path d="M15.2276 43.9524C13.6979 43.9524 12.4535 45.1968 12.4535 46.7265C12.4535 48.2562 13.6979 49.5006 15.2276 49.5006C16.7573 49.5006 18.0016 48.2562 18.0016 46.7265C18.0016 45.1968 16.7573 43.9524 15.2276 43.9524Z" fill="#F8BA19"/>
<path d="M66.7723 43.9524C65.2426 43.9524 63.9982 45.1968 63.9982 46.7265C63.9982 48.2562 65.2426 49.5006 66.7723 49.5006C68.3019 49.5006 69.5463 48.2562 69.5463 46.7265C69.5463 45.1968 68.3018 43.9524 66.7723 43.9524Z" fill="#F8BA19"/>
<path d="M14.5119 32.4989C11.798 32.4989 9.59023 34.7067 9.59023 37.4206C9.59023 40.1345 11.798 42.3424 14.5119 42.3424C17.2259 42.3424 19.4337 40.1345 19.4337 37.4206C19.4337 34.7067 17.2259 32.4989 14.5119 32.4989ZM14.5119 39.6577C13.2784 39.6577 12.2748 38.6542 12.2748 37.4205C12.2748 36.1867 13.2782 35.1833 14.5119 35.1833C15.7457 35.1833 16.7491 36.1867 16.7491 37.4205C16.7491 38.6542 15.7455 39.6577 14.5119 39.6577Z" fill="#F8BA19"/>
<path d="M67.4881 32.4989C64.7742 32.4989 62.5664 34.7067 62.5664 37.4206C62.5664 40.1345 64.7742 42.3424 67.4881 42.3424C70.202 42.3424 72.4098 40.1345 72.4098 37.4206C72.4098 34.7067 70.202 32.4989 67.4881 32.4989ZM67.4881 39.6577C66.2545 39.6577 65.2509 38.6542 65.2509 37.4205C65.2509 36.1867 66.2543 35.1833 67.4881 35.1833C68.7217 35.1833 69.7253 36.1867 69.7253 37.4205C69.7253 38.6542 68.7218 39.6577 67.4881 39.6577Z" fill="#F8BA19"/>
<path d="M23.4659 34.9966L23.0719 34.6888L23.0718 34.6889L23.4659 34.9966ZM22.9613 37.3766L23.4463 37.2553L23.4463 37.2553L22.9613 37.3766ZM23.6772 40.2404L23.1921 40.3616L23.1921 40.3617L23.6772 40.2404ZM58.3228 40.2402L58.8079 40.3616L58.8079 40.3615L58.3228 40.2402ZM59.0387 37.3766L59.5238 37.4979L59.5238 37.4978L59.0387 37.3766ZM56.4342 36.7257L55.9498 36.6016L55.9492 36.6044L56.4342 36.7257ZM55.7183 39.5891L55.2332 39.4678L55.2331 39.4683L55.7183 39.5891ZM26.2816 39.5893L26.7669 39.4689L26.7666 39.468L26.2816 39.5893ZM25.5656 36.7257L26.0507 36.6044L26.0496 36.6002L25.5656 36.7257ZM71.2105 21.7172L70.7406 21.8881L71.3985 23.6973L71.7041 21.7966L71.2105 21.7172ZM67.6297 11.8698L67.1598 12.0407L67.1598 12.0407L67.6297 11.8698ZM52.1227 8.15875L51.6324 8.25682L51.7128 8.65875H52.1227V8.15875ZM51.367 4.38109L50.8767 4.47908L50.8767 4.47916L51.367 4.38109ZM30.6327 4.38109L30.1424 4.28303L30.1424 4.28304L30.6327 4.38109ZM29.8772 8.15875V8.65875H30.2871L30.3675 8.2568L29.8772 8.15875ZM14.3702 11.8697L14.8401 12.0405L14.8401 12.0405L14.3702 11.8697ZM10.7895 21.717L10.2959 21.7964L10.6014 23.6975L11.2594 21.8879L10.7895 21.717ZM8.48141 26.1659L8.87185 26.4783L8.26143 25.7169L8.48141 26.1659ZM5.41266 30.002L5.80308 30.3144L5.8031 30.3144L5.41266 30.002ZM13.7069 55.228V54.728H13.2069V55.228H13.7069ZM68.293 55.228H68.793V54.728H68.293V55.228ZM76.5872 30.002L76.1967 30.3144L76.1968 30.3144L76.5872 30.002ZM73.5184 26.1659L73.7384 25.7169L73.128 26.4783L73.5184 26.1659ZM8.15891 22.3869H8.65891H8.15891ZM33.2652 4.90734L33.7554 5.00541L33.7554 5.0054L33.2652 4.90734ZM48.7345 4.90734L48.2442 5.0053L48.2442 5.00541L48.7345 4.90734ZM49.3848 8.15875V8.65875H49.9948L49.8751 8.06069L49.3848 8.15875ZM32.6148 8.15875L32.1246 8.06069L32.0049 8.65875H32.6148V8.15875ZM11.0223 61.0445H11.5223V61.0445L11.0223 61.0445ZM6.54797 54.3902L6.81066 53.9647L6.04797 53.4938V54.3902H6.54797ZM11.0222 55.228L11.5222 55.228L11.5222 54.728H11.0222V55.228ZM56.8389 52.5434V53.0434H57.3389L57.3389 52.5435L56.8389 52.5434ZM25.1611 52.5434H24.6611V53.0434H25.1611V52.5434ZM56.8391 49.5905L57.3391 49.5905V49.5905H56.8391ZM75.4519 61.0445H75.9519V61.0445L75.4519 61.0445ZM70.9775 55.228V54.728H70.4775V55.228H70.9775ZM75.4517 54.3902L75.9517 54.3901L75.9517 53.4938L75.189 53.9647L75.4517 54.3902ZM74.4912 31.6791L74.8817 31.3668L74.8817 31.3667L74.4912 31.6791ZM59.5234 52.5434H59.0234V53.0434H59.5234V52.5434ZM22.4766 52.5434V53.0434H22.9766V52.5434H22.4766ZM7.50906 31.6791L7.89948 31.9914L7.89951 31.9914L7.50906 31.6791ZM11.578 26.5927V26.0927H11.3376L11.1875 26.2803L11.578 26.5927ZM12.8494 23.908L12.3795 23.7371L12.1355 24.408H12.8494V23.908ZM16.8934 12.7869L17.3633 12.9577L17.3634 12.9577L16.8934 12.7869ZM65.1069 12.7869L65.5768 12.616L65.5768 12.616L65.1069 12.7869ZM69.1509 23.908V24.408H69.8648L69.6208 23.7371L69.1509 23.908ZM70.4223 26.5927L70.8128 26.2803L70.6627 26.0927H70.4223V26.5927ZM58.928 34.6889C58.3039 33.8896 57.3615 33.4297 56.3473 33.4297V34.4297C57.0535 34.4297 57.7052 34.7477 58.1398 35.3043L58.928 34.6889ZM56.3473 33.4297H25.6525V34.4297H56.3473V33.4297ZM25.6525 33.4297C24.6383 33.4297 23.6961 33.8896 23.0719 34.6888L23.86 35.3044C24.2948 34.7477 24.9464 34.4297 25.6525 34.4297V33.4297ZM23.0718 34.6889C22.4477 35.4884 22.2301 36.5139 22.4762 37.4979L23.4463 37.2553C23.2749 36.5702 23.4254 35.8611 23.8601 35.3043L23.0718 34.6889ZM22.4762 37.4979L23.1921 40.3616L24.1623 40.1191L23.4463 37.2553L22.4762 37.4979ZM23.1921 40.3617C23.5572 41.8213 24.8639 42.8415 26.3684 42.8415V41.8415C25.3227 41.8415 24.416 41.1335 24.1622 40.119L23.1921 40.3617ZM26.3684 42.8415H55.6316V41.8415H26.3684V42.8415ZM55.6316 42.8415C57.1362 42.8415 58.4427 41.8212 58.8079 40.3616L57.8378 40.1189C57.5839 41.1336 56.6772 41.8415 55.6316 41.8415V42.8415ZM58.8079 40.3615L59.5238 37.4979L58.5537 37.2553L57.8377 40.1189L58.8079 40.3615ZM59.5238 37.4978C59.7698 36.5138 59.5521 35.4882 58.928 34.6889L58.1398 35.3043C58.5744 35.861 58.7249 36.5701 58.5537 37.2554L59.5238 37.4978ZM55.9492 36.6044L55.2332 39.4678L56.2034 39.7104L56.9193 36.847L55.9492 36.6044ZM55.2331 39.4683C55.2787 39.285 55.4437 39.1569 55.6316 39.1569V40.1569C55.9016 40.1569 56.1378 39.9735 56.2035 39.7099L55.2331 39.4683ZM55.6316 39.1569H26.3684V40.1569H55.6316V39.1569ZM26.3684 39.1569C26.5552 39.1569 26.7209 39.2837 26.7669 39.4689L25.7963 39.7096C25.8619 39.9742 26.0995 40.1569 26.3684 40.1569V39.1569ZM26.7666 39.468L26.0507 36.6044L25.0806 36.847L25.7965 39.7105L26.7666 39.468ZM26.0496 36.6002C26.0496 36.6 26.0545 36.6183 26.058 36.6423C26.0615 36.6672 26.0638 36.6996 26.0607 36.7372C26.0538 36.8191 26.0234 36.896 25.9758 36.9569L25.188 36.341C25.1135 36.4363 25.0733 36.5452 25.0642 36.6538C25.0557 36.7552 25.0772 36.8339 25.0816 36.8512L26.0496 36.6002ZM25.9758 36.9569C25.928 37.0181 25.8606 37.066 25.7833 37.0923C25.7478 37.1043 25.7162 37.1098 25.6919 37.1124C25.6686 37.1148 25.6499 37.1146 25.6523 37.1146V36.1146C25.6383 36.1146 25.5569 36.113 25.4614 36.1455C25.3587 36.1804 25.2627 36.2455 25.188 36.341L25.9758 36.9569ZM25.6523 37.1146H56.3473V36.1146H25.6523V37.1146ZM56.3473 37.1146C56.35 37.1146 56.3313 37.1148 56.308 37.1124C56.2836 37.1098 56.2518 37.1043 56.2163 37.0922C56.1386 37.0657 56.0714 37.0177 56.0239 36.9569L56.8117 36.341C56.7373 36.2458 56.6415 36.1806 56.5386 36.1456C56.4428 36.113 56.3612 36.1146 56.3473 36.1146V37.1146ZM56.0239 36.9569C55.9769 36.8967 55.9463 36.8204 55.9392 36.7386C55.9359 36.701 55.9382 36.6686 55.9417 36.6437C55.945 36.6197 55.9499 36.6014 55.9499 36.6016L56.9186 36.8497C56.923 36.8324 56.9442 36.7536 56.9355 36.6522C56.9261 36.5438 56.8857 36.4356 56.8117 36.341L56.0239 36.9569ZM76.7942 27.0927C79.3894 27.0927 81.5 24.9821 81.5 22.3869H80.5C80.5 24.4298 78.8371 26.0927 76.7942 26.0927V27.0927ZM81.5 22.3869C81.5 19.7917 79.3894 17.6811 76.7942 17.6811V18.6811C78.8371 18.6811 80.5 20.344 80.5 22.3869H81.5ZM76.7942 17.6811H75.3625V18.6811H76.7942V17.6811ZM75.3625 17.6811C73.0216 17.6811 71.077 19.398 70.7168 21.6378L71.7041 21.7966C71.9877 20.0329 73.5213 18.6811 75.3625 18.6811V17.6811ZM71.6804 21.5463L68.0996 11.699L67.1598 12.0407L70.7406 21.8881L71.6804 21.5463ZM68.0996 11.699C67.2207 9.28153 64.9037 7.65875 62.3316 7.65875V8.65875C64.4832 8.65875 66.4246 10.0185 67.1598 12.0407L68.0996 11.699ZM62.3316 7.65875H52.1227V8.65875H62.3316V7.65875ZM52.6129 8.06068L51.8573 4.28302L50.8767 4.47916L51.6324 8.25682L52.6129 8.06068ZM51.8573 4.2831C51.419 2.09008 49.4791 0.5 47.243 0.5V1.5C49.0025 1.5 50.5319 2.75367 50.8767 4.47908L51.8573 4.2831ZM47.243 0.5H34.7567V1.5H47.243V0.5ZM34.7567 0.5C32.5205 0.5 30.581 2.09013 30.1424 4.28303L31.1229 4.47916C31.4681 2.75363 32.9973 1.5 34.7567 1.5V0.5ZM30.1424 4.28304L29.3869 8.0607L30.3675 8.2568L31.1229 4.47915L30.1424 4.28304ZM29.8772 7.65875H19.6683V8.65875H29.8772V7.65875ZM19.6683 7.65875C17.0962 7.65875 14.7791 9.28169 13.9003 11.6988L14.8401 12.0405C15.5752 10.0186 17.5167 8.65875 19.6683 8.65875V7.65875ZM13.9003 11.6988L10.3196 21.5462L11.2594 21.8879L14.8401 12.0405L13.9003 11.6988ZM11.2832 21.6377C10.9232 19.398 8.97859 17.6811 6.63766 17.6811V18.6811C8.47891 18.6811 10.0124 20.0329 10.2959 21.7964L11.2832 21.6377ZM6.63766 17.6811H5.20594V18.6811H6.63766V17.6811ZM5.20594 17.6811C2.61059 17.6811 0.5 19.7917 0.5 22.3869H1.5C1.5 20.344 3.16285 18.6811 5.20594 18.6811V17.6811ZM0.5 22.3869C0.5 24.9821 2.61058 27.0927 5.20578 27.0927V26.0927C3.16286 26.0927 1.5 24.4298 1.5 22.3869H0.5ZM5.20578 27.0927H6.6375V26.0927H5.20578V27.0927ZM6.6375 27.0927C7.37695 27.0927 8.07763 26.9205 8.70138 26.615L8.26143 25.7169C7.77081 25.9573 7.22024 26.0927 6.6375 26.0927V27.0927ZM8.09097 25.8536L5.02222 29.6897L5.8031 30.3144L8.87185 26.4783L8.09097 25.8536ZM5.02223 29.6897C3.95224 31.0271 3.36344 32.7055 3.36344 34.4181H4.36344C4.36344 32.9326 4.87495 31.4745 5.80308 30.3144L5.02223 29.6897ZM3.36344 34.4181V61.0445H4.36344V34.4181H3.36344ZM3.36344 61.0445C3.36344 62.8504 4.83167 64.3186 6.6375 64.3186V63.3186C5.38396 63.3186 4.36344 62.2981 4.36344 61.0445H3.36344ZM6.6375 64.3186H10.9328V63.3186H6.6375V64.3186ZM10.9328 64.3186C12.7386 64.3186 14.2069 62.8504 14.2069 61.0445H13.2069C13.2069 62.2981 12.1864 63.3186 10.9328 63.3186V64.3186ZM14.2069 61.0445V55.228H13.2069V61.0445H14.2069ZM13.7069 55.728H68.293V54.728H13.7069V55.728ZM67.793 55.228V61.0445H68.793V55.228H67.793ZM67.793 61.0445C67.793 62.8504 69.2612 64.3186 71.067 64.3186V63.3186C69.8135 63.3186 68.793 62.2981 68.793 61.0445H67.793ZM71.067 64.3186H75.3623V63.3186H71.067V64.3186ZM75.3623 64.3186C77.1682 64.3186 78.6364 62.8504 78.6364 61.0445H77.6364C77.6364 62.2981 76.6159 63.3186 75.3623 63.3186V64.3186ZM78.6364 61.0445V34.4181H77.6364V61.0445H78.6364ZM78.6364 34.4181C78.6364 32.7055 78.0476 31.0269 76.9776 29.6896L76.1968 30.3144C77.1249 31.4743 77.6364 32.9326 77.6364 34.4181H78.6364ZM76.9776 29.6897L73.9089 25.8536L73.128 26.4783L76.1967 30.3144L76.9776 29.6897ZM73.2985 26.615C73.9222 26.9205 74.6229 27.0927 75.3623 27.0927V26.0927C74.7796 26.0927 74.229 25.9573 73.7384 25.7169L73.2985 26.615ZM75.3623 27.0927H76.7942V26.0927H75.3623V27.0927ZM6.63766 23.4081H5.20594V24.4081H6.63766V23.4081ZM5.20594 23.4081C4.64317 23.4081 4.18469 22.9496 4.18469 22.3869H3.18469C3.18469 23.5019 4.09089 24.4081 5.20594 24.4081V23.4081ZM4.18469 22.3869C4.18469 21.8241 4.64317 21.3656 5.20594 21.3656V20.3656C4.09089 20.3656 3.18469 21.2718 3.18469 22.3869H4.18469ZM5.20594 21.3656H6.63766V20.3656H5.20594V21.3656ZM6.63766 21.3656C7.20042 21.3656 7.65891 21.8241 7.65891 22.3869H8.65891C8.65891 21.2718 7.7527 20.3656 6.63766 20.3656V21.3656ZM7.65891 22.3869C7.65891 22.9495 7.20026 23.4081 6.63766 23.4081V24.4081C7.75255 24.4081 8.65891 23.5018 8.65891 22.3869H7.65891ZM33.7554 5.0054C33.8504 4.53046 34.2726 4.18438 34.7567 4.18438V3.18438C33.7958 3.18438 32.9633 3.86704 32.7749 4.80929L33.7554 5.0054ZM34.7567 4.18438H47.243V3.18438H34.7567V4.18438ZM47.243 4.18438C47.7273 4.18438 48.1494 4.5305 48.2442 5.0053L49.2248 4.80939C49.0366 3.867 48.204 3.18438 47.243 3.18438V4.18438ZM48.2442 5.00541L48.8946 8.25681L49.8751 8.06069L49.2248 4.80928L48.2442 5.00541ZM49.3848 7.65875H32.6148V8.65875H49.3848V7.65875ZM33.1051 8.25681L33.7554 5.00541L32.7749 4.80928L32.1246 8.06069L33.1051 8.25681ZM10.5223 61.0445C10.5223 60.8178 10.706 60.6341 10.9328 60.6341V61.6341C11.2583 61.6341 11.5223 61.37 11.5223 61.0445H10.5223ZM10.9328 60.6341H6.6375V61.6341H10.9328V60.6341ZM6.6375 60.6341C6.86426 60.6341 7.04797 60.8178 7.04797 61.0445H6.04797C6.04797 61.3701 6.31199 61.6341 6.6375 61.6341V60.6341ZM7.04797 61.0445V54.3902H6.04797V61.0445H7.04797ZM6.28528 54.8156C7.22088 55.3933 8.32297 55.728 9.50094 55.728V54.728C8.51484 54.728 7.59381 54.4483 6.81066 53.9647L6.28528 54.8156ZM9.50094 55.728H11.0222V54.728H9.50094V55.728ZM10.5222 55.228L10.5223 61.0445L11.5223 61.0445L11.5222 55.228L10.5222 55.228ZM56.8389 52.0434H25.1611V53.0434H56.8389V52.0434ZM25.6611 52.5434V49.5905H24.6611V52.5434H25.6611ZM25.6611 49.5905C25.6611 49.8172 25.4774 50.0009 25.2506 50.0009V49.0009C24.9251 49.0009 24.6611 49.265 24.6611 49.5905H25.6611ZM25.2506 50.0009H56.7495V49.0009H25.2506V50.0009ZM56.7495 50.0009C56.5228 50.0009 56.3391 49.8172 56.3391 49.5905H57.3391C57.3391 49.265 57.075 49.0009 56.7495 49.0009V50.0009ZM56.3391 49.5904L56.3389 52.5434L57.3389 52.5435L57.3391 49.5905L56.3391 49.5904ZM74.9519 61.0445C74.9519 60.8178 75.1356 60.6341 75.3623 60.6341V61.6341C75.6879 61.6341 75.9519 61.37 75.9519 61.0445H74.9519ZM75.3623 60.6341H71.067V61.6341H75.3623V60.6341ZM71.067 60.6341C71.2938 60.6341 71.4775 60.8178 71.4775 61.0445H70.4775C70.4775 61.37 70.7415 61.6341 71.067 61.6341V60.6341ZM71.4775 61.0445V55.228H70.4775V61.0445H71.4775ZM70.9775 55.728H72.4987V54.728H70.9775V55.728ZM72.4987 55.728C73.6767 55.728 74.7788 55.3933 75.7144 54.8156L75.189 53.9647C74.4059 54.4483 73.4848 54.728 72.4987 54.728V55.728ZM74.9517 54.3902L74.9519 61.0445L75.9519 61.0445L75.9517 54.3901L74.9517 54.3902ZM74.1008 31.9913C74.6493 32.6773 74.952 33.54 74.952 34.4183H75.952C75.952 33.3128 75.572 32.2299 74.8817 31.3668L74.1008 31.9913ZM74.952 34.4183V49.5905H75.952V34.4183H74.952ZM74.952 49.5905C74.952 50.9426 73.8512 52.0434 72.4991 52.0434V53.0434C74.4035 53.0434 75.952 51.4949 75.952 49.5905H74.952ZM72.4991 52.0434H59.5234V53.0434H72.4991V52.0434ZM60.0234 52.5434V49.5905H59.0234V52.5434H60.0234ZM60.0234 49.5905C60.0234 47.7846 58.5552 46.3164 56.7494 46.3164V47.3164C58.0029 47.3164 59.0234 48.3369 59.0234 49.5905H60.0234ZM56.7494 46.3164H25.2506V47.3164H56.7494V46.3164ZM25.2506 46.3164C23.4448 46.3164 21.9766 47.7846 21.9766 49.5905H22.9766C22.9766 48.3369 23.9971 47.3164 25.2506 47.3164V46.3164ZM21.9766 49.5905V52.5434H22.9766V49.5905H21.9766ZM22.4766 52.0434H9.50109V53.0434H22.4766V52.0434ZM9.50109 52.0434C8.14896 52.0434 7.04812 50.9426 7.04812 49.5905H6.04812C6.04812 51.4949 7.59667 53.0434 9.50109 53.0434V52.0434ZM7.04812 49.5905V34.4183H6.04812V49.5905H7.04812ZM7.04812 34.4183C7.04812 33.5399 7.35073 32.6773 7.89948 31.9914L7.11864 31.3667C6.42802 32.2299 6.04812 33.3129 6.04812 34.4183H7.04812ZM7.89951 31.9914L11.9684 26.905L11.1875 26.2803L7.11862 31.3667L7.89951 31.9914ZM11.578 27.0927H66.5906V26.0927H11.578V27.0927ZM66.5906 27.0927C67.608 27.0927 68.433 26.2679 68.433 25.2503H67.433C67.433 25.7155 67.0558 26.0927 66.5906 26.0927V27.0927ZM68.433 25.2503C68.433 24.233 67.6082 23.408 66.5906 23.408V24.408C67.0558 24.408 67.433 24.7852 67.433 25.2503H68.433ZM66.5906 23.408H12.8494V24.408H66.5906V23.408ZM13.3193 24.0788L17.3633 12.9577L16.4235 12.616L12.3795 23.7371L13.3193 24.0788ZM17.3634 12.9577C17.7141 11.9927 18.6416 11.3431 19.6686 11.3431V10.3431C18.2212 10.3431 16.918 11.2557 16.4235 12.616L17.3634 12.9577ZM19.6686 11.3431H62.3317V10.3431H19.6686V11.3431ZM62.3317 11.3431C63.3586 11.3431 64.286 11.9928 64.637 12.9578L65.5768 12.616C65.0821 11.2559 63.7792 10.3431 62.3317 10.3431V11.3431ZM64.637 12.9577L68.681 24.0788L69.6208 23.7371L65.5768 12.616L64.637 12.9577ZM69.1509 23.408H63.9086V24.408H69.1509V23.408ZM63.9086 23.408C62.8912 23.408 62.0662 24.2327 62.0662 25.2503H63.0662C63.0662 24.7851 63.4434 24.408 63.9086 24.408V23.408ZM62.0662 25.2503C62.0662 26.2677 62.891 27.0927 63.9086 27.0927V26.0927C63.4434 26.0927 63.0662 25.7155 63.0662 25.2503H62.0662ZM63.9086 27.0927H70.4223V26.0927H63.9086V27.0927ZM70.0319 26.905L74.1008 31.9914L74.8817 31.3667L70.8128 26.2803L70.0319 26.905ZM74.3411 22.3869C74.3411 21.8241 74.7996 21.3656 75.3623 21.3656V20.3656C74.2473 20.3656 73.3411 21.2718 73.3411 22.3869H74.3411ZM75.3623 21.3656H76.7941V20.3656H75.3623V21.3656ZM76.7941 21.3656C77.3568 21.3656 77.8153 21.8241 77.8153 22.3869H78.8153C78.8153 21.2718 77.9091 20.3656 76.7941 20.3656V21.3656ZM77.8153 22.3869C77.8153 22.9496 77.3568 23.4081 76.7941 23.4081V24.4081C77.9091 24.4081 78.8153 23.5019 78.8153 22.3869H77.8153ZM76.7941 23.4081H75.3623V24.4081H76.7941V23.4081ZM75.3623 23.4081C74.7997 23.4081 74.3411 22.9495 74.3411 22.3869H73.3411C73.3411 23.5018 74.2475 24.4081 75.3623 24.4081V23.4081ZM15.2276 43.4524C13.4218 43.4524 11.9535 44.9207 11.9535 46.7265H12.9535C12.9535 45.473 13.974 44.4524 15.2276 44.4524V43.4524ZM11.9535 46.7265C11.9535 48.5323 13.4218 50.0006 15.2276 50.0006V49.0006C13.974 49.0006 12.9535 47.9801 12.9535 46.7265H11.9535ZM15.2276 50.0006C17.0334 50.0006 18.5016 48.5323 18.5016 46.7265H17.5016C17.5016 47.98 16.4811 49.0006 15.2276 49.0006V50.0006ZM18.5016 46.7265C18.5016 44.9207 17.0334 43.4524 15.2276 43.4524V44.4524C16.4811 44.4524 17.5016 45.473 17.5016 46.7265H18.5016ZM66.7723 43.4524C64.9664 43.4524 63.4982 44.9207 63.4982 46.7265H64.4982C64.4982 45.473 65.5187 44.4524 66.7723 44.4524V43.4524ZM63.4982 46.7265C63.4982 48.5323 64.9664 50.0006 66.7723 50.0006V49.0006C65.5187 49.0006 64.4982 47.98 64.4982 46.7265H63.4982ZM66.7723 50.0006C68.5781 50.0006 70.0463 48.5323 70.0463 46.7265H69.0463C69.0463 47.98 68.0258 49.0006 66.7723 49.0006V50.0006ZM70.0463 46.7265C70.0463 44.9207 68.5779 43.4524 66.7723 43.4524V44.4524C68.0257 44.4524 69.0463 45.473 69.0463 46.7265H70.0463ZM14.5119 31.9989C11.5219 31.9989 9.09023 34.4306 9.09023 37.4206H10.0902C10.0902 34.9829 12.0742 32.9989 14.5119 32.9989V31.9989ZM9.09023 37.4206C9.09023 40.4107 11.5219 42.8424 14.5119 42.8424V41.8424C12.0742 41.8424 10.0902 39.8584 10.0902 37.4206H9.09023ZM14.5119 42.8424C17.502 42.8424 19.9337 40.4107 19.9337 37.4206H18.9337C18.9337 39.8584 16.9497 41.8424 14.5119 41.8424V42.8424ZM19.9337 37.4206C19.9337 34.4306 17.502 31.9989 14.5119 31.9989V32.9989C16.9497 32.9989 18.9337 34.9829 18.9337 37.4206H19.9337ZM14.5119 39.1577C13.5545 39.1577 12.7748 38.3781 12.7748 37.4205H11.7748C11.7748 38.9304 13.0022 40.1577 14.5119 40.1577V39.1577ZM12.7748 37.4205C12.7748 36.4629 13.5543 35.6833 14.5119 35.6833V34.6833C13.0021 34.6833 11.7748 35.9106 11.7748 37.4205H12.7748ZM14.5119 35.6833C15.4696 35.6833 16.2491 36.4629 16.2491 37.4205H17.2491C17.2491 35.9106 16.0218 34.6833 14.5119 34.6833V35.6833ZM16.2491 37.4205C16.2491 38.3781 15.4694 39.1577 14.5119 39.1577V40.1577C16.0217 40.1577 17.2491 38.9304 17.2491 37.4205H16.2491ZM67.4881 31.9989C64.498 31.9989 62.0664 34.4306 62.0664 37.4206H63.0664C63.0664 34.9829 65.0503 32.9989 67.4881 32.9989V31.9989ZM62.0664 37.4206C62.0664 40.4107 64.498 42.8424 67.4881 42.8424V41.8424C65.0503 41.8424 63.0664 39.8584 63.0664 37.4206H62.0664ZM67.4881 42.8424C70.4781 42.8424 72.9098 40.4107 72.9098 37.4206H71.9098C71.9098 39.8584 69.9259 41.8424 67.4881 41.8424V42.8424ZM72.9098 37.4206C72.9098 34.4306 70.4781 31.9989 67.4881 31.9989V32.9989C69.9259 32.9989 71.9098 34.9829 71.9098 37.4206H72.9098ZM67.4881 39.1577C66.5306 39.1577 65.7509 38.3781 65.7509 37.4205H64.7509C64.7509 38.9304 65.9784 40.1577 67.4881 40.1577V39.1577ZM65.7509 37.4205C65.7509 36.4629 66.5305 35.6833 67.4881 35.6833V34.6833C65.9782 34.6833 64.7509 35.9106 64.7509 37.4205H65.7509ZM67.4881 35.6833C68.4456 35.6833 69.2253 36.4629 69.2253 37.4205H70.2253C70.2253 35.9106 68.9978 34.6833 67.4881 34.6833V35.6833ZM69.2253 37.4205C69.2253 38.3781 68.4457 39.1577 67.4881 39.1577V40.1577C68.998 40.1577 70.2253 38.9304 70.2253 37.4205H69.2253Z" fill="#F8BA19"/>
</svg>
