<?xml version="1.0" encoding="UTF-8"?>
<!-- Generator: Adobe Illustrator 16.0.0, SVG Export Plug-In . SVG Version: 6.00 Build 0)  -->
<!DOCTYPE svg PUBLIC "-//W3C//DTD SVG 1.1//EN" "http://www.w3.org/Graphics/SVG/1.1/DTD/svg11.dtd">
<svg version="1.1" xmlns="http://www.w3.org/2000/svg" xmlns:xlink="http://www.w3.org/1999/xlink" x="0px" y="0px" width="279.611px" height="136.665px" viewBox="0 0 279.611 136.665" enable-background="new 0 0 279.611 136.665" xml:space="preserve">
<g id="Layer_1" opacity="0.5">
</g>
<g id="logo">
	<g id="text">
		<g>
			<path fill="#fff" d="M14.498,120.376c-6.029-1.013-9.726-4.137-9.726-9.241c0-2.86,1.101-5.104,3.345-6.777     c2.244-1.716,4.929-2.552,8.053-2.552c4.797,0,8.758,1.628,11.882,4.928l-4.4,4.621c-2.332-2.376-4.929-3.564-7.833-3.564     c-2.772,0-4.533,1.232-4.533,3.036c0,1.629,1.453,2.729,4.401,3.257l3.036,0.484c6.909,1.1,10.386,4.313,10.386,9.637     c0,2.816-1.145,5.105-3.389,6.821s-5.192,2.597-8.89,2.597c-5.412,0-10.033-2.421-12.806-5.897l4.489-4.532     c2.288,2.948,5.192,4.444,8.713,4.444c3.345,0,5.369-1.408,5.369-3.345c0-1.628-1.453-2.728-4.313-3.256L14.498,120.376z"/>
			<path fill="#fff" d="M37.641,106.338c3.036-3.036,6.821-4.532,11.266-4.532c4.488,0,8.273,1.496,11.354,4.532     c3.08,2.992,4.621,6.777,4.621,11.354c0,4.621-1.541,8.405-4.621,11.441c-3.08,2.993-6.865,4.489-11.354,4.489     c-4.444,0-8.229-1.496-11.266-4.489c-3.036-3.036-4.576-6.82-4.576-11.441C33.064,113.115,34.604,109.33,37.641,106.338z      M42.306,124.645c1.672,1.893,3.916,2.816,6.776,2.816c2.772,0,5.017-0.924,6.646-2.816c1.672-1.893,2.508-4.181,2.508-6.953     c0-2.685-0.88-4.973-2.596-6.865c-1.717-1.892-3.873-2.86-6.558-2.86c-2.816,0-5.061,0.925-6.776,2.816     c-1.673,1.893-2.509,4.181-2.509,6.909C39.797,120.464,40.633,122.752,42.306,124.645z"/>
			<path fill="#fff" d="M76.626,133.138h-6.558v-30.849h21.255v6.029H76.626v6.688h13.686v5.985H76.626V133.138z"/>
			<path fill="#fff" d="M94.752,102.289h24.203v6.029h-8.845v24.819h-6.514v-24.819h-8.845V102.289z"/>
			<path fill="#fff" d="M119.392,124.425v-5.633h16.546v5.633H119.392z"/>
			<path fill="#fff" d="M142.14,133.138v-30.849h6.558v24.819h14.082v6.029H142.14z"/>
			<path fill="#fff" d="M168.76,106.338c3.036-3.036,6.821-4.532,11.266-4.532c4.488,0,8.273,1.496,11.354,4.532     c3.08,2.992,4.621,6.777,4.621,11.354c0,4.621-1.541,8.405-4.621,11.441c-3.08,2.993-6.865,4.489-11.354,4.489     c-4.444,0-8.229-1.496-11.266-4.489c-3.036-3.036-4.576-6.82-4.576-11.441C164.184,113.115,165.724,109.33,168.76,106.338z      M173.425,124.645c1.672,1.893,3.916,2.816,6.776,2.816c2.772,0,5.017-0.924,6.646-2.816c1.672-1.893,2.508-4.181,2.508-6.953     c0-2.685-0.88-4.973-2.596-6.865c-1.717-1.892-3.873-2.86-6.558-2.86c-2.816,0-5.061,0.925-6.776,2.816     c-1.673,1.893-2.509,4.181-2.509,6.909C170.916,120.464,171.752,122.752,173.425,124.645z"/>
			<path fill="#fff" d="M216.81,122.004v-6.028h12.542v12.365c-2.993,3.125-7.569,5.281-12.807,5.281     c-4.532,0-8.361-1.496-11.485-4.445c-3.08-2.948-4.62-6.776-4.62-11.397c0-4.797,1.54-8.669,4.62-11.573     c3.08-2.948,6.909-4.4,11.529-4.4c5.062,0,9.153,1.936,12.278,5.809l-4.4,4.488c-1.805-2.597-4.797-4.181-8.186-4.181     c-2.42,0-4.532,0.88-6.381,2.641c-1.805,1.716-2.729,4.093-2.729,7.085c0,2.948,0.924,5.369,2.729,7.173     c1.805,1.805,4.049,2.685,6.732,2.685c2.509,0,4.577-0.616,6.293-1.849v-3.652H216.81z"/>
			<path fill="#fff" d="M235.551,133.138v-30.849h6.513v30.849H235.551z"/>
			<path fill="#fff" d="M276.431,127.813c-3.169,3.873-7.35,5.81-12.542,5.81c-4.709,0-8.625-1.452-11.75-4.357     c-3.08-2.904-4.621-6.732-4.621-11.485c0-4.797,1.541-8.669,4.621-11.573c3.08-2.948,6.909-4.4,11.529-4.4     c5.062,0,9.153,1.936,12.278,5.809l-4.4,4.488c-1.805-2.597-4.797-4.181-8.186-4.181c-2.42,0-4.532,0.88-6.381,2.641     c-1.805,1.716-2.729,4.093-2.729,7.085c0,3.036,0.924,5.457,2.729,7.217c1.804,1.761,4.049,2.641,6.733,2.641     c3.476,0,6.248-1.452,8.36-4.313L276.431,127.813z"/>
		</g>
	</g>
	<g>
		<path fill="#fff" d="M94.078,46.29c0-14.149,6.25-26.84,16.149-35.449c-2.57-0.58-5.25-0.891-8-0.891    c-20.07,0-36.34,16.271-36.34,36.34c0,20.07,16.27,36.34,36.34,36.34c2.75,0,5.43-0.31,8-0.89    C100.328,73.129,94.078,60.44,94.078,46.29z"/>
		<path fill="#fff" d="M178.228,9.95c-2.271,0-4.49,0.21-6.649,0.61c10.079,8.62,16.469,21.43,16.469,35.729    c0,14.301-6.39,27.11-16.469,35.73c2.159,0.399,4.379,0.609,6.649,0.609c20.069,0,36.34-16.27,36.34-36.34    C214.567,26.22,198.297,9.95,178.228,9.95z"/>
		<path fill="#fff" d="M165.236,9.728l-0.148,0.212c0.107-0.03,0.215-0.061,0.322-0.089    C165.352,9.811,165.296,9.767,165.236,9.728z"/>
		<path fill="#fff" d="M184.896,46.29c0-14.241-6.799-26.885-17.319-34.891c-13.714,2.632-25.019,16.439-25.945,32.355    c10.165,4.436,21.483,9.591,21.266,25.39c-0.134,9.704-5.429,16.947-14.909,20.394c-0.074,0.027-0.15,0.049-0.226,0.076    C168.791,86.388,184.896,68.219,184.896,46.29z"/>
		<path fill="#fff" d="M123.397,24.613c0,10.595,7.397,14.384,16.291,18.292c1.128-14.477,10.409-27.182,22.377-31.949    c-9.063-5.563-21.161-6.555-29.466-2.244C128.401,10.892,123.397,15.419,123.397,24.613z"/>
		<path fill="#fff" d="M139.483,48.273c-0.093-0.041-0.185-0.081-0.278-0.122c-9.754-4.252-20.808-9.072-20.808-23.538    c0-9.132,4.226-16.354,11.897-20.339c0.665-0.345,1.351-0.659,2.053-0.948C112.315,7.368,97.23,25.066,97.23,46.29    c0,14.511,7.068,27.354,17.933,35.331C124.662,78.122,138.369,66.696,139.483,48.273z"/>
		<path fill="#fff" d="M157.897,69.076c0.162-11.758-7.327-15.896-16.474-19.95c-1.295,17.014-12.521,28.059-22.09,32.871    c5.309,4.165,17.418,6.306,26.946,2.843C151.508,82.939,157.766,78.661,157.897,69.076z"/>
	</g>
</g>
</svg>
