<svg width="19" height="20" viewBox="0 0 19 20" version="1.1" xmlns="http://www.w3.org/2000/svg" xmlns:xlink="http://www.w3.org/1999/xlink">
<g id="Canvas" fill="#xxx">
<g id="repeat-button">
<g id="Group">
<g id="Vector">
<path d="M 0.639513 7.65087C 0.47595 7.65087 0.312052 7.58498 0.187117 7.45284C -0.0623727 7.18861 -0.0623727 6.76016 0.187117 6.49594L 2.71249 3.82568L 0.187117 1.15507C -0.0623727 0.890846 -0.0623727 0.462393 0.187117 0.198169C 0.436939 -0.0660562 0.842038 -0.0660562 1.09186 0.198169L 4.0693 3.34725C 4.18923 3.4741 4.25654 3.64639 4.25654 3.82573C 4.25654 4.00507 4.18923 4.17736 4.0693 4.30421L 1.09186 7.45294C 0.966973 7.58498 0.803077 7.65087 0.639513 7.65087Z" transform="translate(14.7434 0)"/>
</g>
<g id="Vector_2">
<path d="M 0.639584 8.30779C 0.286498 8.30779 3.27054e-08 8.00478 3.27054e-08 7.63134L 3.27054e-08 3.55426C 3.27054e-08 1.59426 1.50737 -3.07474e-09 3.36053 -3.07474e-09L 18.3269 -3.07474e-09C 18.68 -3.07474e-09 18.9665 0.303015 18.9665 0.676456C 18.9665 1.0499 18.68 1.35291 18.3269 1.35291L 3.36048 1.35291C 2.21287 1.35291 1.27917 2.34049 1.27917 3.55421L 1.27917 7.63134C 1.27917 8.00483 0.99267 8.30779 0.639584 8.30779Z" transform="translate(0.0334473 3.14893)" />
</g>
<g id="Vector_3">
<path d="M 15.6387 8.38844L 0.639584 8.38844C 0.286498 8.38844 -3.63393e-09 8.08543 -3.63393e-09 7.71199C -3.63393e-09 7.33855 0.286498 7.03553 0.639584 7.03553L 15.6386 7.03553C 16.7866 7.03553 17.7203 6.04795 17.7203 4.83423L 17.7203 0.676456C 17.7203 0.303015 18.0068 -1.72185e-07 18.3598 -1.72185e-07C 18.7129 -1.72185e-07 18.9994 0.303015 18.9994 0.676456L 18.9994 4.83423C 18.9995 6.79418 17.4918 8.38844 15.6387 8.38844Z" transform="translate(0 8.4624)" />
</g>
<g id="Vector_4">
<path d="M 3.61707 7.65097C 3.45351 7.65097 3.28961 7.58508 3.16467 7.45294L 0.187236 4.30385C 0.067302 4.17701 2.25304e-08 4.00472 2.25304e-08 3.82538C 2.25304e-08 3.64604 0.067302 3.47375 0.187236 3.3469L 3.16467 0.198169C 3.4145 -0.066056 3.8196 -0.066056 4.06942 0.198169C 4.31891 0.462394 4.31891 0.890845 4.06942 1.15507L 1.54404 3.82533L 4.06942 6.49594C 4.31891 6.76016 4.31891 7.18861 4.06942 7.45284C 3.94453 7.58513 3.78063 7.65097 3.61707 7.65097Z" transform="translate(0 12.3491)" />
</g>
</g>
</g>
</g>
</svg>

