<svg width="20" height="20" viewBox="0 0 20 20" version="1.1" xmlns="http://www.w3.org/2000/svg" xmlns:xlink="http://www.w3.org/1999/xlink">
<title>search</title>
<desc>Created using Figma</desc>
<g id="Canvas" transform="translate(-6721 -4823)">
<g id="search">
<use xlink:href="#path0_fill" transform="translate(6721 4823)" fill="#xxx"/>
</g>
</g>
<defs>
<path id="path0_fill" d="M 19.0156 18.2168L 14.2555 13.2662C 15.4794 11.8113 16.15 9.98069 16.15 8.07499C 16.15 3.62251 12.5275 0 8.07499 0C 3.62251 0 9.54243e-09 3.62251 9.54243e-09 8.07499C 9.54243e-09 12.5275 3.62251 16.15 8.07499 16.15C 9.74652 16.15 11.3394 15.6458 12.7013 14.6888L 17.4975 19.677C 17.6979 19.8852 17.9676 20 18.2565 20C 18.53 20 18.7895 19.8957 18.9864 19.7061C 19.4049 19.3034 19.4182 18.6357 19.0156 18.2168ZM 8.07499 2.10652C 11.3661 2.10652 14.0435 4.78391 14.0435 8.07499C 14.0435 11.3661 11.3661 14.0435 8.07499 14.0435C 4.78391 14.0435 2.10652 11.3661 2.10652 8.07499C 2.10652 4.78391 4.78391 2.10652 8.07499 2.10652Z"/>
</defs>
</svg>
