<svg width="32" height="27" viewBox="0 0 32 27" fill="none" xmlns="http://www.w3.org/2000/svg">
<path fill-rule="evenodd" clip-rule="evenodd" d="M25.4898 18.3469H17.3266C17.0204 18.3469 16.8163 18.1428 16.8164 17.8368V13.2449C16.8164 12.9388 17.0204 12.7347 17.3266 12.7347H25.4898C25.796 12.7347 26 12.9388 26 13.2449V17.8368C26 18.1429 25.796 18.3469 25.4898 18.3469ZM24.9796 13.7551H17.8368V17.3265H24.9796V13.7551Z" fill="#xxx"/>
<path fill-rule="evenodd" clip-rule="evenodd" d="M29.7755 5.64283C30.3368 5.69384 30.796 5.94896 31.1531 6.40816C31.5102 6.81626 31.6633 7.37752 31.6123 7.88777L30.0817 24.2653C29.9797 25.2347 29.0613 26 28.0409 26H27.8368L4.26535 23.347C3.21724 23.2517 2.43633 22.3557 2.46204 21.3236C1.61924 21.0724 1 20.2889 1 19.3674V3.04079C1 1.9183 1.91837 0.999942 3.0408 1H26.5103C27.6327 1 28.5511 1.91836 28.5511 3.04079V5.49444L29.7755 5.64283ZM27.5307 4.57141H2.02043V7.63265H27.5307V4.57141ZM26.5102 2.02036H3.0408C2.47961 2.02036 2.02043 2.47956 2.02043 3.04079V3.55098H27.5306V3.04079C27.5306 2.47956 27.0714 2.02036 26.5102 2.02036ZM2.02043 8.65301V19.3673C2.02043 19.9286 2.47961 20.3877 3.04086 20.3877H26.5103C27.0715 20.3877 27.5307 19.9286 27.5307 19.3673V8.65301H2.02043ZM29.0612 24.0612L30.5919 7.68365C30.6429 7.42852 30.5408 7.12239 30.3877 6.91832C30.2347 6.71429 29.9796 6.56122 29.7245 6.56122L28.551 6.45916V19.3674C28.551 20.4898 27.6326 21.4082 26.5102 21.4082H3.49998C3.55098 21.8674 3.90817 22.2755 4.41835 22.3265L27.9388 24.9796C28.5 25.0306 29.0102 24.6224 29.0612 24.0612Z" fill="#xxx"/>
<path fill-rule="evenodd" clip-rule="evenodd" d="M25.4898 18.3469H17.3266C17.0204 18.3469 16.8163 18.1428 16.8164 17.8368V13.2449C16.8164 12.9388 17.0204 12.7347 17.3266 12.7347H25.4898C25.796 12.7347 26 12.9388 26 13.2449V17.8368C26 18.1429 25.796 18.3469 25.4898 18.3469ZM24.9796 13.7551H17.8368V17.3265H24.9796V13.7551Z" stroke="#xxx" stroke-width="0.5"/>
<path fill-rule="evenodd" clip-rule="evenodd" d="M29.7755 5.64283C30.3368 5.69384 30.796 5.94896 31.1531 6.40816C31.5102 6.81626 31.6633 7.37752 31.6123 7.88777L30.0817 24.2653C29.9797 25.2347 29.0613 26 28.0409 26H27.8368L4.26535 23.347C3.21724 23.2517 2.43633 22.3557 2.46204 21.3236C1.61924 21.0724 1 20.2889 1 19.3674V3.04079C1 1.9183 1.91837 0.999942 3.0408 1H26.5103C27.6327 1 28.5511 1.91836 28.5511 3.04079V5.49444L29.7755 5.64283ZM27.5307 4.57141H2.02043V7.63265H27.5307V4.57141ZM26.5102 2.02036H3.0408C2.47961 2.02036 2.02043 2.47956 2.02043 3.04079V3.55098H27.5306V3.04079C27.5306 2.47956 27.0714 2.02036 26.5102 2.02036ZM2.02043 8.65301V19.3673C2.02043 19.9286 2.47961 20.3877 3.04086 20.3877H26.5103C27.0715 20.3877 27.5307 19.9286 27.5307 19.3673V8.65301H2.02043ZM29.0612 24.0612L30.5919 7.68365C30.6429 7.42852 30.5408 7.12239 30.3877 6.91832C30.2347 6.71429 29.9796 6.56122 29.7245 6.56122L28.551 6.45916V19.3674C28.551 20.4898 27.6326 21.4082 26.5102 21.4082H3.49998C3.55098 21.8674 3.90817 22.2755 4.41835 22.3265L27.9388 24.9796C28.5 25.0306 29.0102 24.6224 29.0612 24.0612Z" stroke="#xxx" stroke-width="0.5"/>
</svg>
