<svg width="20" height="32" viewBox="0 0 20 32" fill="none" xmlns="http://www.w3.org/2000/svg">
<path fill-rule="evenodd" clip-rule="evenodd" d="M1.4711 31H18.5287C18.7889 31 18.9998 30.8023 19 30.5585V3.07435C19 1.93047 18.0071 1 16.7868 1H3.21322C1.99276 1 1 1.93047 1 3.07435V30.5585C1 30.8023 1.21089 31 1.4711 31ZM18.0576 30.1169H1.94219V25.5005V24.6176V3.07435C1.94219 2.41748 2.51238 1.88308 3.21322 1.88308H16.7866C17.4875 1.88308 18.0576 2.41748 18.0576 3.07435V24.6176V25.5005V30.1169ZM11.9467 20.0739H15.5919C15.8521 20.0739 16.063 19.8761 16.063 19.6324V17.4311C16.063 17.1873 15.8521 16.9896 15.5919 16.9896H11.9467C11.6865 16.9896 11.4756 17.1873 11.4756 17.4311V19.6324C11.4756 19.8762 11.6865 20.0739 11.9467 20.0739ZM15.1208 19.1908H12.4178V17.8727H15.1208V19.1908ZM4.40807 14.8968H15.5919C15.8521 14.8968 16.063 14.6992 16.063 14.4553V4.415C16.063 4.17113 15.8521 3.97346 15.5919 3.97346H4.40807C4.14787 3.97346 3.93698 4.17113 3.93698 4.415V14.4553C3.93698 14.6992 4.14787 14.8968 4.40807 14.8968ZM15.1208 14.0137H4.87917V4.85654H15.1208V14.0137Z" fill="#xxx"/>
<path d="M18.0576 25.5005V30.1169H1.94219V25.5005M18.0576 25.5005H1.94219M18.0576 25.5005V24.6176M1.94219 25.5005V24.6176M1.94219 24.6176H18.0576M1.94219 24.6176V3.07435C1.94219 2.41748 2.51238 1.88308 3.21322 1.88308H16.7866C17.4875 1.88308 18.0576 2.41748 18.0576 3.07435V24.6176M18.5287 31H1.4711C1.21089 31 1 30.8023 1 30.5585V3.07435C1 1.93047 1.99276 1 3.21322 1H16.7868C18.0071 1 19 1.93047 19 3.07435V30.5585C18.9998 30.8023 18.7889 31 18.5287 31ZM15.5919 20.0739H11.9467C11.6865 20.0739 11.4756 19.8762 11.4756 19.6324V17.4311C11.4756 17.1873 11.6865 16.9896 11.9467 16.9896H15.5919C15.8521 16.9896 16.063 17.1873 16.063 17.4311V19.6324C16.063 19.8761 15.8521 20.0739 15.5919 20.0739ZM12.4178 19.1908H15.1208V17.8727H12.4178V19.1908ZM15.5919 14.8968H4.40807C4.14787 14.8968 3.93698 14.6992 3.93698 14.4553V4.415C3.93698 4.17113 4.14787 3.97346 4.40807 3.97346H15.5919C15.8521 3.97346 16.063 4.17113 16.063 4.415V14.4553C16.063 14.6992 15.8521 14.8968 15.5919 14.8968ZM4.87917 14.0137H15.1208V4.85654H4.87917V14.0137Z" stroke="#xxx" stroke-width="0.7"/>
</svg>
