<svg width="11" height="50" viewBox="0 0 11 50" fill="none" xmlns="http://www.w3.org/2000/svg">
<path d="M6.1464 0V47.491L9.56858 44.0688C9.85556 43.7818 10.3209 43.7818 10.6078 44.0688C10.8948 44.3558 10.8948 44.8211 10.6078 45.1081L5.93117 49.7848C5.64418 50.0717 5.17889 50.0717 4.89191 49.7848L0.215238 45.1081C-0.071746 44.8211 -0.071746 44.3558 0.215238 44.0688C0.502222 43.7818 0.967514 43.7818 1.2545 44.0688L4.67667 47.491V0H6.1464Z" fill="#EAEAEB"/>
</svg>
