<svg width="920" height="207" viewBox="0 0 920 207" fill="none" xmlns="http://www.w3.org/2000/svg">
<path d="M124.125 43.125C118.292 27.9167 108.292 16.0417 95.5833 9.16668C85.5833 3.75001 74.3333 2.08334 64.125 1.875C54.125 1.875 43.2917 2.70833 32.4583 7.70834C18.7083 13.9583 8.08333 28.125 8.08333 44.5833C8.08333 55 12.0417 66.25 21 73.75C28.2917 80.2084 38.5 84.5833 49.75 87.7083L77.6667 95.8333C83.5 97.5 87.6667 99.5834 91 102.5C94.125 105.208 95.5833 108.958 95.5833 112.917C95.5833 117.083 94.3333 121.667 89.5417 125.208C84.125 129.375 74.125 131.667 66.2083 131.667C56.2083 131.667 44.5417 127.917 38.5 119.583C34.75 115 32.25 108.333 31 101.042L2.25 108.75C4.54167 118.542 8.5 128.958 15.7917 137.917C28.0833 152.917 45.1667 158.125 65.1667 158.125C81 158.125 94.75 156.25 106.208 148.542C118.083 140.625 125.583 126.875 125.583 113.75C125.583 101.458 120.583 90.4167 111.625 81.875C104.958 75.625 97.25 71.6667 83.9167 67.7083L57.875 60.2083C50.375 57.9167 43.5 55.2083 40.7917 52.2917C38.9167 50.4167 37.875 47.9167 37.875 45.2083C37.875 40.625 40.375 35.8333 45.5833 32.7083C49.9583 30 56.625 28.3333 63.7083 28.5417C70.5833 28.5417 76.625 31.0417 81.4167 33.9583C88.5 38.125 91.625 43.3333 95.375 50.8333L124.125 43.125Z" stroke="#EAEAEB" stroke-opacity="0.7" stroke-width="3"/>
<path d="M300.284 50.2083C293.201 42.7083 281.326 39.7917 271.951 39.7917C258.201 39.7917 245.284 46.25 237.367 57.0833C236.117 54.7917 234.242 52.5 232.159 50.2083C225.076 42.7083 213.201 39.7917 203.826 39.7917C191.326 39.7917 179.242 45.2083 171.326 54.5833V42.5H146.326V155H174.867V86.875C174.867 81.25 175.701 76.25 180.076 71.25C183.617 67.2917 189.034 65 194.451 65C199.867 65 205.284 67.0833 208.826 71.0417C212.784 75.4167 214.242 80.4167 214.242 88.5417V155H242.992V86.875C242.992 81.25 243.826 76.25 248.201 71.25C251.742 67.2917 257.159 65 262.576 65C267.992 65 273.409 67.0833 276.951 71.0417C280.909 75.4167 282.367 80.4167 282.367 88.5417V155H311.117V86.4583C311.117 72.0833 310.076 60.4167 300.284 50.2083Z" stroke="#EAEAEB" stroke-opacity="0.7" stroke-width="3"/>
<path d="M432.497 155V87.9167C432.497 73.75 428.747 61.0417 417.706 51.6667C409.581 44.7917 397.081 39.375 384.789 39.375C364.581 39.375 350.206 46.6667 338.331 57.9167L354.581 76.6667C361.872 70.2083 371.664 66.0417 382.706 66.0417C395.622 66.0417 402.497 71.875 404.372 80C389.581 82.0834 365.831 84.5834 351.664 91.0417C337.497 97.5 331.872 108.75 331.872 123.333C331.872 144.375 346.247 158.125 368.956 158.125C386.247 158.125 396.456 154.167 407.706 141.25V155H432.497ZM400.622 121.667C395.622 129.167 386.664 134.583 375.831 134.583C366.664 134.583 359.789 128.958 359.789 121.25C359.789 113.75 367.497 109.792 376.039 107.917C386.664 105.625 397.706 103.333 404.372 102.083C404.372 107.917 404.581 115.625 400.622 121.667Z" stroke="#EAEAEB" stroke-opacity="0.7" stroke-width="3"/>
<path d="M516.273 39.5833C509.607 40 502.732 41.6667 496.69 45.4167C491.482 48.5417 487.523 52.9167 484.607 57.9167V42.5H459.607V155H488.148V95C488.148 86.6667 490.44 79.1667 495.44 73.75C499.398 69.5834 505.232 66.6667 513.357 66.0417C521.482 65.4167 529.19 66.6667 535.023 68.9583V42.7083C528.773 40.2083 522.315 39.1667 516.273 39.5833Z" stroke="#EAEAEB" stroke-opacity="0.7" stroke-width="3"/>
<path d="M622.224 64.375V42.5H589.724V11.25H561.391V42.5H542.224V64.375H561.391V107.292C561.391 119.583 562.016 130.417 566.807 139.375C571.182 147.708 579.099 152.708 589.307 155.625C597.641 157.917 613.266 157.5 622.224 155V130.625C616.182 131.458 609.307 131.667 603.891 131.25C599.516 130.833 594.932 128.333 592.432 124.375C589.932 120.417 589.724 113.958 589.724 105.208V64.375H622.224Z" stroke="#EAEAEB" stroke-opacity="0.7" stroke-width="3"/>
<path d="M813.904 155L757.862 79.7917L809.945 5H774.945L731.82 66.6667H717.654V5H688.904V155H717.654V93.3333H732.029L778.07 155H813.904Z" stroke="#EAEAEB" stroke-opacity="0.7" stroke-width="3"/>
<path d="M845.219 108.958H929.385C931.677 88.5417 927.51 71.875 916.052 58.125C905.635 45.625 889.594 39.375 872.927 39.375C856.26 39.375 840.219 45.8333 829.802 58.125C820.844 68.9583 816.052 83.9583 816.052 100.208C816.052 114.583 820.635 128.125 829.802 139.375C840.01 151.667 857.51 158.125 874.594 158.125C897.719 158.125 913.76 147.5 923.76 133.75L903.344 119.583C895.01 128.125 887.302 133.75 872.927 133.75C864.177 133.75 855.844 130.208 851.052 123.542C847.719 119.375 846.052 114.375 845.219 108.958ZM872.927 63.75C881.885 63.75 890.01 67.0833 894.802 73.75C896.885 76.4583 898.552 80 899.802 83.9583H846.052C847.094 80.2083 848.76 76.6667 851.052 73.75C855.844 67.0833 864.177 63.75 872.927 63.75Z" stroke="#EAEAEB" stroke-opacity="0.7" stroke-width="3"/>
<path d="M1049.22 57.2917C1039.63 45.4167 1024.63 39.375 1009.01 39.375C997.549 39.375 986.508 43.125 977.966 49.5833V42.5H952.966V205H981.508V150.625C989.633 155.625 999.633 158.125 1010.47 158.125C1025.26 158.125 1040.05 151.667 1049.22 140.208C1058.8 128.542 1062.34 114.167 1062.34 98.75C1062.34 83.125 1057.97 68.3333 1049.22 57.2917ZM1026.72 122.917C1021.92 130.208 1013.8 132.917 1005.88 132.917C997.758 132.917 990.883 130.417 985.883 125C980.466 118.958 977.966 108.958 977.966 98.75C977.966 88.5417 980.466 78.75 985.883 72.5C990.466 67.0833 997.133 64.5833 1004.84 64.5833C1014.22 64.5833 1021.51 67.2917 1026.3 74.5833C1030.26 80.4167 1032.34 89.1667 1032.34 98.75C1032.34 108.333 1030.67 117.083 1026.72 122.917Z" stroke="#EAEAEB" stroke-opacity="0.7" stroke-width="3"/>
<path d="M1108.11 108.958H1192.28C1194.57 88.5417 1190.4 71.875 1178.94 58.125C1168.53 45.625 1152.48 39.375 1135.82 39.375C1119.15 39.375 1103.11 45.8333 1092.69 58.125C1083.73 68.9583 1078.94 83.9583 1078.94 100.208C1078.94 114.583 1083.53 128.125 1092.69 139.375C1102.9 151.667 1120.4 158.125 1137.48 158.125C1160.61 158.125 1176.65 147.5 1186.65 133.75L1166.23 119.583C1157.9 128.125 1150.19 133.75 1135.82 133.75C1127.07 133.75 1118.73 130.208 1113.94 123.542C1110.61 119.375 1108.94 114.375 1108.11 108.958ZM1135.82 63.75C1144.78 63.75 1152.9 67.0833 1157.69 73.75C1159.78 76.4583 1161.44 80 1162.69 83.9583H1108.94C1109.98 80.2083 1111.65 76.6667 1113.94 73.75C1118.73 67.0833 1127.07 63.75 1135.82 63.75Z" stroke="#EAEAEB" stroke-opacity="0.7" stroke-width="3"/>
<path d="M1238.77 108.958H1322.94C1325.23 88.5417 1321.07 71.875 1309.61 58.125C1299.19 45.625 1283.15 39.375 1266.48 39.375C1249.82 39.375 1233.77 45.8333 1223.36 58.125C1214.4 68.9583 1209.61 83.9583 1209.61 100.208C1209.61 114.583 1214.19 128.125 1223.36 139.375C1233.57 151.667 1251.07 158.125 1268.15 158.125C1291.27 158.125 1307.32 147.5 1317.32 133.75L1296.9 119.583C1288.57 128.125 1280.86 133.75 1266.48 133.75C1257.73 133.75 1249.4 130.208 1244.61 123.542C1241.27 119.375 1239.61 114.375 1238.77 108.958ZM1266.48 63.75C1275.44 63.75 1283.57 67.0833 1288.36 73.75C1290.44 76.4583 1292.11 80 1293.36 83.9583H1239.61C1240.65 80.2083 1242.32 76.6667 1244.61 73.75C1249.4 67.0833 1257.73 63.75 1266.48 63.75Z" stroke="#EAEAEB" stroke-opacity="0.7" stroke-width="3"/>
<path d="M1403.19 39.5833C1396.52 40 1389.65 41.6667 1383.6 45.4167C1378.4 48.5417 1374.44 52.9167 1371.52 57.9167V42.5H1346.52V155H1375.06V95C1375.06 86.6667 1377.35 79.1667 1382.35 73.75C1386.31 69.5834 1392.15 66.6667 1400.27 66.0417C1408.4 65.4167 1416.1 66.6667 1421.94 68.9583V42.7083C1415.69 40.2083 1409.23 39.1667 1403.19 39.5833Z" stroke="#EAEAEB" stroke-opacity="0.7" stroke-width="3"/>
</svg>
