<svg width="80" height="80" viewBox="0 0 80 80" fill="none" xmlns="http://www.w3.org/2000/svg">
<path fill-rule="evenodd" clip-rule="evenodd" d="M69.6774 20.6452H73.5484C77.1056 20.6452 80 23.5396 80 27.0968V65.8064C80 69.3637 77.1056 72.2581 73.5484 72.2581H56.7742V77.4193H61.9355V80H18.0645V77.4193H23.2258V72.2581H6.45161C2.89441 72.2581 0 69.3637 0 65.8064V27.0968C0 23.5396 2.89441 20.6452 6.45161 20.6452H10.3226V0H69.6774V20.6452ZM52.5189 37.6077L51.0244 40.5948L54.1935 41.6501V43.871H67.0968V12.9032H12.9032V43.871H25.8064V41.6501L28.9768 40.5948L27.4824 37.6077L32.4477 32.6424L35.4347 34.1368L36.49 30.9677H43.5112L44.5665 34.1368L47.5536 32.6424L52.5189 37.6077ZM47.0451 54.5407L49.3794 52.2064L47.9845 49.4178L48.2346 48.8596C48.3046 48.6996 48.3701 48.5383 48.4337 48.3713L48.6505 47.7999L51.6129 46.8126V43.5112L48.6517 42.5239L48.435 41.9525C48.3713 41.7855 48.3071 41.6242 48.2359 41.4642L47.9858 40.906L49.3807 38.1162L47.0464 35.7819L44.2565 37.1768L43.6983 36.9267C43.5383 36.8567 43.377 36.7912 43.2101 36.7276L42.6386 36.5108L41.6513 33.5484H38.3499L37.3627 36.5096L36.7912 36.7263C36.6242 36.7899 36.463 36.8542 36.3029 36.9254L35.7447 37.1755L32.9549 35.7806L30.6206 38.1149L32.0155 40.9047L31.7654 41.463C31.6954 41.623 31.6299 41.7843 31.5663 41.9512L31.3495 42.5227L28.3871 43.51V46.8114L31.3483 47.7986L31.565 48.3701C31.6287 48.537 31.6929 48.6983 31.7641 48.8584L32.0142 49.4166L30.6193 52.2064L32.9536 54.5407L35.7434 53.1458L36.3017 53.3959C36.4617 53.4659 36.623 53.5314 36.7899 53.595L37.3614 53.8117L38.3487 56.7742H41.6501L42.6373 53.8117L43.2088 53.595C43.3758 53.5314 43.537 53.4671 43.6971 53.3959L44.2553 53.1458L47.0451 54.5407ZM67.0968 10.3226V2.58065H12.9032V10.3226H67.0968ZM10.3226 23.2258H6.45161C4.31767 23.2258 2.58065 24.9628 2.58065 27.0968V61.9355H77.4193V27.0968C77.4193 24.9628 75.6823 23.2258 73.5484 23.2258H69.6774V46.4516H54.1935V48.6725L51.0232 49.7278L52.5176 52.7148L47.5523 57.6802L44.5653 56.1857L43.51 59.3548H36.4888L35.4335 56.1857L32.4464 57.6802L27.4811 52.7148L28.9756 49.7278L25.8064 48.6725V46.4516H10.3226V23.2258ZM54.1935 77.4193V72.2581H25.8064V77.4193H54.1935ZM73.5484 69.6774C75.6823 69.6774 77.4193 67.9404 77.4193 65.8064V64.5161H2.58065V65.8064C2.58065 67.9404 4.31767 69.6774 6.45161 69.6774H73.5484ZM18.0645 5.16129H15.4839V7.74194H18.0645V5.16129ZM20.6452 5.16129H23.2258V7.74194H20.6452V5.16129ZM28.3871 5.16129H25.8064V7.74194H28.3871V5.16129ZM40 38.7097C36.4428 38.7097 33.5484 41.6041 33.5484 45.1613C33.5484 48.7185 36.4428 51.6129 40 51.6129C43.5572 51.6129 46.4516 48.7185 46.4516 45.1613C46.4516 41.6041 43.5572 38.7097 40 38.7097ZM40 49.0323C37.8661 49.0323 36.129 47.2952 36.129 45.1613C36.129 43.0273 37.8661 41.2903 40 41.2903C42.1339 41.2903 43.871 43.0273 43.871 45.1613C43.871 47.2952 42.1339 49.0323 40 49.0323ZM41.2903 15.4839H15.4839V18.0645H41.2903V15.4839ZM15.4839 20.6452H41.2903V23.2258H15.4839V20.6452ZM41.2903 25.8064H15.4839V28.3871H41.2903V25.8064Z" fill="#ED6254"/>
</svg>
